1141_hw1/00_TESTBED/alu.vcd
$date
	Sun Sep 28 00:29:35 2025
$end
$version
	Icarus Verilog
$end
$timescale
	10ps
$end
$scope module testbench $end
$var wire 1 ! rst_n $end
$var wire 1 " out_valid $end
$var wire 16 # odata [15:0] $end
$var wire 1 $ clk $end
$var wire 1 % busy $end
$var reg 16 & idata_a [15:0] $end
$var reg 16 ' idata_b [15:0] $end
$var reg 1 ( in_valid $end
$var reg 4 ) inst [3:0] $end
$var integer 32 * errors [31:0] $end
$var integer 32 + i [31:0] $end
$var integer 32 , input_end [31:0] $end
$var integer 32 - j [31:0] $end
$var integer 32 . k [31:0] $end
$var integer 32 / output_end [31:0] $end
$var integer 32 0 total_errors [31:0] $end
$scope module u_alu $end
$var wire 16 1 add_in_a [15:0] $end
$var wire 1 2 clz_done $end
$var wire 1 3 clz_start $end
$var wire 36 4 data_acc_in [35:0] $end
$var wire 1 5 data_acc_update $end
$var wire 16 6 i_data_a [15:0] $end
$var wire 16 7 i_data_b [15:0] $end
$var wire 1 ( i_in_valid $end
$var wire 4 8 i_inst [3:0] $end
$var wire 1 9 is_final_clz_count $end
$var wire 1 : is_final_rot_count $end
$var wire 36 ; mac_add_in_a [35:0] $end
$var wire 1 < mac_mult_sign $end
$var wire 1 = mac_overflow $end
$var wire 1 > mac_sign_eq $end
$var wire 1 ? matrix_out_update $end
$var wire 1 @ o_data_update $end
$var wire 1 A o_data_update_add $end
$var wire 1 B o_data_update_clz $end
$var wire 1 C o_data_update_gray $end
$var wire 1 D o_data_update_mac $end
$var wire 1 E o_data_update_rm4 $end
$var wire 1 F o_data_update_rot $end
$var wire 1 G o_data_update_trans $end
$var wire 1 H overflow $end
$var wire 1 I rot_done $end
$var wire 1 J rot_start $end
$var wire 1 K sign_eq $end
$var wire 1 L trans_done $end
$var wire 1 M trans_ready $end
$var wire 1 N trans_start $end
$var wire 17 O sum [16:0] $end
$var wire 1 P sign_mac_add_out $end
$var wire 26 Q posvalue_rounded [25:0] $end
$var wire 36 R posvalue [35:0] $end
$var wire 16 S mult_in_b [15:0] $end
$var wire 16 T mult_in_a [15:0] $end
$var wire 32 U mult_full [31:0] $end
$var wire 37 V mac_sum [36:0] $end
$var wire 16 W mac_out [15:0] $end
$var wire 1 X mac_add_out_overflow $end
$var wire 36 Y mac_add_out [35:0] $end
$var wire 36 Z mac_add_in_b [35:0] $end
$var wire 16 [ lrcw_out [15:0] $end
$var wire 1 \ is_finalm1_trans_count $end
$var wire 1 ] is_final_trans_count $end
$var wire 1 ! i_rst_n $end
$var wire 1 $ i_clk $end
$var wire 26 ^ comp_posvalue_rounded [25:0] $end
$var wire 36 _ comp_mac_add_out [35:0] $end
$var wire 16 ` comp_i_data_b [15:0] $end
$var wire 16 a comp_i_data_a [15:0] $end
$var wire 16 b clz_out [15:0] $end
$var wire 16 c add_out [15:0] $end
$var wire 16 d add_in_b [15:0] $end
$var wire 32 e ab_reg_in [31:0] $end
$var reg 16 f a_reg [15:0] $end
$var reg 32 g ab_reg [31:0] $end
$var reg 16 h b_reg [15:0] $end
$var reg 4 i clz_count [3:0] $end
$var reg 36 j data_acc [35:0] $end
$var reg 16 k gray_out [15:0] $end
$var reg 1 l in_valid_reg $end
$var reg 4 m inst_reg_1 [3:0] $end
$var reg 4 n inst_reg_2 [3:0] $end
$var reg 128 o matrix_flat [127:0] $end
$var reg 1 % o_busy $end
$var reg 16 p o_data [15:0] $end
$var reg 1 " o_out_valid $end
$var reg 16 q rm4_out [15:0] $end
$var reg 4 r rot_count [3:0] $end
$var reg 16 s rot_out [15:0] $end
$var reg 4 t trans_count [3:0] $end
$var reg 16 u trans_out [15:0] $end
$scope function grp16 $end
$var reg 16 v grp_a_reg [15:0] $end
$var reg 16 w grp_b_reg [15:0] $end
$var reg 16 x temp [15:0] $end
$var integer 32 y left_pos [31:0] $end
$var integer 32 z right_pos [31:0] $end
$scope begin $ivl_for_loop5 $end
$var integer 32 { i [31:0] $end
$upscope $end
$upscope $end
$scope function twos_complement $end
$var reg 16 | in_data [15:0] $end
$upscope $end
$scope function twos_complement26 $end
$var reg 26 } in_data26 [25:0] $end
$upscope $end
$scope function twos_complement32 $end
$var reg 32 ~ in_data32 [31:0] $end
$upscope $end
$scope function twos_complement36 $end
$var reg 36 !" in_data36 [35:0] $end
$upscope $end
$scope begin $ivl_for_loop0 $end
$var integer 32 "" i [31:0] $end
$upscope $end
$scope begin $ivl_for_loop1 $end
$var integer 32 #" i [31:0] $end
$upscope $end
$scope begin $ivl_for_loop2 $end
$var integer 32 $" j [31:0] $end
$upscope $end
$scope begin $ivl_for_loop3 $end
$var integer 32 %" i [31:0] $end
$upscope $end
$scope begin $ivl_for_loop4 $end
$var integer 32 &" i [31:0] $end
$upscope $end
$upscope $end
$scope module u_clk_gen $end
$var reg 1 $ clk $end
$var reg 1 '" rst $end
$var reg 1 ! rst_n $end
$upscope $end
$scope task validate $end
$upscope $end
$upscope $end
$enddefinitions $end
#0
$dumpvars
0'"
bx &"
bx %"
bx $"
bx #"
bx ""
bx !"
bx ~
bx }
bx |
b10000 {
b11111111111111111111111111111111 z
b0 y
bx x
bx w
bx v
bx u
bx t
bx s
bx r
bx q
bx p
bx o
bx n
bx m
xl
bx k
bx j
bx i
bx h
bx g
bx f
bx e
bx d
bx c
b0xxxxx b
bx a
bx `
bx _
bx ^
x]
x\
bx [
bx Z
bx Y
xX
bx W
bx V
bx U
bx T
bx S
bx R
bx Q
xP
bx O
xN
xM
xL
xK
xJ
xI
xH
xG
xF
xE
xD
xC
xB
xA
x@
x?
x>
x=
x<
bx ;
x:
x9
bx 8
bx 7
bx 6
x5
bx 4
x3
x2
bx 1
bx 0
b0 /
bx .
bx -
b0 ,
bx +
bx *
bx )
x(
bx '
bx &
x%
0$
bx #
x"
1!
$end
#250
b0 W
b0 ^
b0 }
0@
0X
b0 Q
b0 _
b0 R
b0 !"
0P
0=
0H
b0 4
b0 Y
1>
1K
b0 c
b0 V
0<
0?
0G
b0 u
b1000 &"
0L
0A
0I
0:
02
09
05
0D
0C
0E
0F
0B
b0 O
b0 d
b1111111111111 q
b1101 #"
b0 k
b1111 ""
b10000 b
b0 [
b10000 y
b10000 {
b0 x
b1111 z
b0 w
b0 v
0%
b0 s
b0 r
b0 i
b0 o
0\
0]
b0 t
0l
b0 m
b0 h
b0 1
b0 f
b0 ;
b0 j
b0 Z
b0 g
b0 #
b0 p
0"
b0 ~
b0 e
0M
b0 U
b0 S
b0 T
b0 `
b0 a
b0 |
0J
03
0N
b0 '
b0 7
b0 &
b0 6
b0 )
b0 8
0(
0!
1'"
#500
1$
#1000
0$
#1500
1$
#2000
0$
1!
0'"
#2500
b0 n
b0 .
b0 -
b0 +
1$
#3000
b110001010111100 a
b1001110101000100 |
b110001010111100 T
1N
b1 +
b1 -
b1001110101000100 &
b1001110101000100 6
b1001 )
b1001 8
1(
0$
#3500
b11110000000000000000000000 ^
b10000000000000000000000 }
b0 W
0@
0X
b10000000000000000000000 Q
b100000000000000000000000000000000 _
b111100000000000000000000000000000000 !"
1P
b100000000000000000000000000000000 R
0>
b111100000000000000000000000000000000 4
b111100000000000000000000000000000000 Y
b111100000000000000000000000000000000 V
b111100000000000000000000000000000000 Z
1<
0K
b1001110101000100 c
b10 u
b1000 &"
b0 q
b1101 #"
b1101001111100110 k
b1111 ""
b0 b
b1001110101000100 [
b1001110101000100 x
b10000 {
b10000 y
b1001110101000100 v
0A
b10011101010001000000000000000000000000000000000000000000000000000000000000000000000000000000000000000000000000000000000000000000 o
b1 t
b1001110101000100 O
b1001110101000100 1
b1001110101000100 f
b1001 m
1l
b1000 $"
1$
#4000
b110000100100110 T
b110000100100110 a
b1001111011011010 |
b10 +
b10 -
b1001111011011010 &
b1001111011011010 6
0$
#4500
b1001111011011010 c
b1101 #"
b1101000110110111 k
b1111 ""
b1001111011011010 [
b10000 {
b1001111011011010 x
b10000 y
b1001111011011010 v
b1010 u
b1000 &"
b1001 n
b1001111011011010 O
b1001111011011010 1
b1001111011011010 f
b10 t
b10011110110110101001110101000100000000000000000000000000000000000000000000000000000000000000000000000000000000000000000000000000 o
b1000 $"
1$
#5000
b101101011011001 T
b101101011011001 a
b1010010100100111 |
b11 +
b11 -
b1010010100100111 &
b1010010100100111 6
0$
#5500
b1010010100100111 c
b1101 #"
b1111011110110100 k
b1111 ""
b1010010100100111 [
b10000 {
b1010010100100111 x
b10000 y
b1010010100100111 v
b101010 u
b1000 &"
b11 t
b1010010100100111 O
b1010010100100111 1
b1010010100100111 f
b10100101001001111001111011011010100111010100010000000000000000000000000000000000000000000000000000000000000000000000000000000000 o
b1000 $"
1$
#6000
bx e
bx ~
bx T
bx `
bx U
bx S
bx a
bx |
0N
b100 +
bx '
bx 7
bx &
bx 6
bx )
bx 8
0(
0$
#6500
0l
1$
#7000
b0 ~
b0 e
b0 U
b0 S
b111000001001011 T
b0 `
b1000111110110101 a
b0 |
1N
b101 +
b100 -
b0 '
b0 7
b111000001001011 &
b111000001001011 6
b1001 )
b1001 8
1(
0$
#7500
b0 ^
b0 }
b0 Q
b0 R
b0 _
b0 !"
0P
1>
b0 4
b0 Y
b0 V
b0 Z
0<
1K
b111000001001011 c
b10101001 u
b1000 &"
b110000000 q
b1101 #"
b100100001101110 k
b1111 ""
b111000001001011 [
b10000 {
b111000001001011 x
b10000 y
b111000001001011 v
b1110000010010111010010100100111100111101101101010011101010001000000000000000000000000000000000000000000000000000000000000000000 o
b100 t
b0 n
b111000001001011 O
b111000001001011 1
b111000001001011 f
1l
b1000 $"
1$
#8000
b101000010000000 a
b1010111110000000 |
b101000010000000 T
b110 +
b101 -
b1010111110000000 &
b1010111110000000 6
0$
#8500
b11110000000000000000000000 ^
b10000000000000000000000 }
b0 W
0X
b10000000000000000000000 Q
b100000000000000000000000000000000 _
b111100000000000000000000000000000000 !"
1P
b100000000000000000000000000000000 R
0>
b111100000000000000000000000000000000 4
b111100000000000000000000000000000000 Y
b111100000000000000000000000000000000 V
b111100000000000000000000000000000000 Z
1<
0K
b1010111110000000 c
b1111 q
b1101 #"
b1111100001000000 k
b1111 ""
b1010111110000000 [
b10000 {
b1010111110000000 x
b10000 y
b1010111110000000 v
b1010100110 u
b1000 &"
b1001 n
b1010111110000000 O
b1010111110000000 1
b1010111110000000 f
b101 t
b10101111100000000111000001001011101001010010011110011110110110101001110101000100000000000000000000000000000000000000000000000000 o
b1000 $"
1$
#9000
bx e
bx ~
bx T
bx `
bx U
bx S
bx a
bx |
0N
b111 +
bx '
bx 7
bx &
bx 6
bx )
bx 8
0(
0$
#9500
0l
1$
#10000
b0 e
b0 ~
b0 U
b0 S
b101110101110 T
b0 `
b101110101110 a
b0 |
1N
b1000 +
b110 -
b0 '
b0 7
b1111010001010010 &
b1111010001010010 6
b1001 )
b1001 8
1(
0$
#10500
b1111010001010010 c
b101010011011 u
b1000 &"
b0 q
b1101 #"
b1000111001111011 k
b1111 ""
b1111010001010010 [
b10000 {
b1111010001010010 x
b10000 y
b1111010001010010 v
b11110100010100101010111110000000011100000100101110100101001001111001111011011010100111010100010000000000000000000000000000000000 o
b0 n
b1111010001010010 O
b1111010001010010 1
b1111010001010010 f
1l
b110 t
b1000 $"
1$
#11000
b1101111000 T
b1101111000 a
b1111110010001000 |
b1001 +
b111 -
b1111110010001000 &
b1111110010001000 6
0$
#11500
1M
b1111110010001000 c
b1101 #"
b1000001011001100 k
b1111 ""
b1111110010001000 [
b10000 {
b1111110010001000 x
b10000 y
b1111110010001000 v
b10101001101111 u
b1000 &"
1\
b111 t
b1001 n
b1111110010001000 O
b1111110010001000 1
b1111110010001000 f
b11111100100010001111010001010010101011111000000001110000010010111010010100100111100111101101101010011101010001000000000000000000 o
b1000 $"
1$
#12000
b110010000001 T
b1111001101111111 a
b110010000001 |
b1010 +
b1000 -
b110010000001 &
b110010000001 6
0$
#12500
b0 ^
b0 }
b0 Q
b0 R
b0 _
b0 !"
0P
1>
b0 4
b0 Y
b0 V
b0 Z
0<
1K
b110010000001 c
0N
1@
b1000000001110 q
b1101 #"
b101011000001 k
b1111 ""
b110010000001 [
b10000 {
b110010000001 x
b10000 y
b110010000001 v
0M
1?
1G
b1010100110111100 u
b1000 &"
b110010000001 O
b110010000001 1
b110010000001 f
0\
b0 t
1%
b1100100000011111110010001000111101000101001010101111100000000111000001001011101001010010011110011110110110101001110101000100 o
b1000 $"
1$
#13000
bx ~
bx e
bx `
bx S
bx a
bx |
bx U
bx T
bx '
bx 7
bx &
bx 6
bx )
bx 8
0(
0$
#13500
b101101110111100 u
b1000 &"
b1 b
b110010000001001111001000100000110100010100100010111110000000001100000100101100100101001001110001111011011010000111010100010000 o
b1 r
b1 i
b1 t
0l
b1010100110111100 #
b1010100110111100 p
1"
b1000 %"
1$
#14000
b1 .
0$
#14500
b1111010011011111 u
b1000 &"
b10 b
b11001000000100001100100010000000010001010010000011111000000000000000010010110000010100100111000011101101101000001101010001000000 o
b101101110111100 #
b101101110111100 p
b10 t
b10 i
b10 r
b1000 %"
1$
#15000
b10 .
0$
#15500
b110010011000000 u
b1000 &"
b11 b
b100000010000000010001000000000000101001000000011100000000000000001001011000000010010011100000010110110100000000101000100000000 o
b11 r
b11 i
b11 t
b1111010011011111 #
b1111010011011111 p
b1000 %"
1$
#16000
b11 .
0$
#16500
b111000110011010 u
b1000 &"
b100 b
b10000001000000001000100000000000010100100000000010000000000000000100101100000000001001110000000011011010000000000100010000000000 o
b110010011000000 #
b110010011000000 p
b100 t
b100 i
b100 r
b1000 %"
1$
#17000
b100 .
0$
#17500
b1100000010000 u
b1000 &"
b101 b
b100000000000010000000000000010010000000000000000000000000000010110000000000100111000000000001101000000000000001000000000000 o
b101 r
b101 i
b101 t
b111000110011010 #
b111000110011010 p
b1000 %"
1$
#18000
b101 .
0$
#18500
b110011000001000 u
b1000 &"
b110 b
b10000000000001000000000000000001000000000000000000000000000001011000000000000011100000000000010100000000000000100000000000000 o
b1100000010000 #
b1100000010000 p
b110 t
b110 i
b110 r
b1000 %"
1$
#19000
b110 .
0$
#19500
b10111100100001 u
b1000 &"
b111 b
b1000000000000000000000000000000100000000000000000000000000000001100000000000000110000000000000010000000000000000000000000000000 o
b111 r
b111 i
1\
b111 t
b110011000001000 #
b110011000001000 p
b1000 %"
1$
#20000
b111 .
0$
#20500
0@
0G
b0 u
b1000 &"
1L
b1000 b
b0 o
b10111100100001 #
b10111100100001 p
0\
1]
b1000 t
b1000 i
b1000 r
b1000 %"
1$
#21000
b1000 .
0$
#21500
0?
b1001 b
0L
0%
b1001 r
b1001 i
0]
b0 t
0"
b1000 %"
1$
#22000
b0 e
b0 ~
b0 U
b0 S
b10111000010001 T
b0 `
b10111000010001 a
b0 |
1N
b1011 +
b1001 -
b0 '
b0 7
b1101000111101111 &
b1101000111101111 6
b1001 )
b1001 8
1(
0$
#22500
b11110000000000000000000000 ^
b10000000000000000000000 }
b0 W
0X
b10000000000000000000000 Q
b100000000000000000000000000000000 _
b111100000000000000000000000000000000 !"
1P
b100000000000000000000000000000000 R
0>
b111100000000000000000000000000000000 4
b111100000000000000000000000000000000 Y
b111100000000000000000000000000000000 V
b111100000000000000000000000000000000 Z
1<
0K
b1101000111101111 c
b11 u
b1000 &"
b0 q
b1101 #"
b1011100100011000 k
b1111 ""
b1101000111101111 [
b10000 {
b1101000111101111 x
b10000 y
b1101000111101111 v
b11010001111011110000000000000000000000000000000000000000000000000000000000000000000000000000000000000000000000000000000000000000 o
b0 n
b1101000111101111 O
b1101000111101111 1
b1101000111101111 f
1l
b1 t
b1000 $"
1$
#23000
bx e
bx ~
bx T
bx `
bx U
bx S
bx a
bx |
0N
b1100 +
bx '
bx 7
bx &
bx 6
bx )
bx 8
0(
0$
#23500
b1001 n
0l
1$
#24000
b1101 +
0$
#24500
b0 n
1$
#25000
b1110 +
0$
#25500
1$
#26000
b0 ~
b0 e
b0 U
b0 S
b10100111001 T
b0 `
b1111101011000111 a
b0 |
1N
b1111 +
b1010 -
b0 '
b0 7
b10100111001 &
b10100111001 6
b1001 )
b1001 8
1(
0$
#26500
b0 ^
b0 }
b0 Q
b0 R
b0 _
b0 !"
0P
1>
b0 4
b0 Y
b0 V
b0 Z
0<
1K
b10100111001 c
b1100 u
b1000 &"
b1100000000000 q
b1101 #"
b11110100101 k
b1111 ""
b10100111001 [
b10000 {
b10100111001 x
b10000 y
b10100111001 v
b101001110011101000111101111000000000000000000000000000000000000000000000000000000000000000000000000000000000000000000000000 o
b10100111001 O
b10100111001 1
b10100111001 f
1l
b10 t
b1000 $"
1$
#27000
b101001011001101 a
b1010110100110011 |
b101001011001101 T
b10000 +
b1011 -
b1010110100110011 &
b1010110100110011 6
0$
#27500
b11110000000000000000000000 ^
b10000000000000000000000 }
b0 W
0X
b10000000000000000000000 Q
b100000000000000000000000000000000 _
b111100000000000000000000000000000000 !"
1P
b100000000000000000000000000000000 R
0>
b111100000000000000000000000000000000 4
b111100000000000000000000000000000000 Y
b111100000000000000000000000000000000 V
b111100000000000000000000000000000000 Z
1<
0K
b1010110100110011 c
b0 q
b1101 #"
b1111101110101010 k
b1111 ""
b1010110100110011 [
b10000 {
b1010110100110011 x
b10000 y
b1010110100110011 v
b110010 u
b1000 &"
b11 t
b1001 n
b1010110100110011 O
b1010110100110011 1
b1010110100110011 f
b10101101001100110000010100111001110100011110111100000000000000000000000000000000000000000000000000000000000000000000000000000000 o
b1000 $"
1$
#28000
bx e
bx ~
bx T
bx `
bx U
bx S
bx a
bx |
0N
b10001 +
bx '
bx 7
bx &
bx 6
bx )
bx 8
0(
0$
#28500
0l
1$
#29000
b0 ~
b0 e
b0 U
b0 S
b100111111110010 T
b0 `
b1011000000001110 a
b0 |
1N
b10010 +
b1100 -
b0 '
b0 7
b100111111110010 &
b100111111110010 6
b1001 )
b1001 8
1(
0$
#29500
b0 ^
b0 }
b0 Q
b0 R
b0 _
b0 !"
0P
1>
b0 4
b0 Y
b0 V
b0 Z
0<
1K
b100111111110010 c
b11001001 u
b1000 &"
b1101 #"
b110100000001011 k
b1111 ""
b100111111110010 [
b10000 {
b100111111110010 x
b10000 y
b100111111110010 v
b1001111111100101010110100110011000001010011100111010001111011110000000000000000000000000000000000000000000000000000000000000000 o
b100 t
b0 n
b100111111110010 O
b100111111110010 1
b100111111110010 f
1l
b1000 $"
1$
#30000
b101111101000100 a
b1010000010111100 |
b101111101000100 T
b10011 +
b1101 -
b1010000010111100 &
b1010000010111100 6
0$
#30500
b11110000000000000000000000 ^
b10000000000000000000000 }
b0 W
0X
b10000000000000000000000 Q
b100000000000000000000000000000000 _
b111100000000000000000000000000000000 !"
1P
b100000000000000000000000000000000 R
0>
b111100000000000000000000000000000000 4
b111100000000000000000000000000000000 Y
b111100000000000000000000000000000000 V
b111100000000000000000000000000000000 Z
1<
0K
b1010000010111100 c
b1100000000 q
b1101 #"
b1111000011100010 k
b1111 ""
b1010000010111100 [
b10000 {
b1010000010111100 x
b10000 y
b1010000010111100 v
b1100100110 u
b1000 &"
b1001 n
b1010000010111100 O
b1010000010111100 1
b1010000010111100 f
b101 t
b10100000101111000100111111110010101011010011001100000101001110011101000111101111000000000000000000000000000000000000000000000000 o
b1000 $"
1$
#31000
bx e
bx ~
bx T
bx `
bx U
bx S
bx a
bx |
0N
b10100 +
bx '
bx 7
bx &
bx 6
bx )
bx 8
0(
0$
#31500
0l
1$
#32000
b0 e
b0 ~
b0 U
b0 S
b110110101001011 T
b0 `
b110110101001011 a
b0 |
1N
b10101 +
b1110 -
b0 '
b0 7
b1001001010110101 &
b1001001010110101 6
b1001 )
b1001 8
1(
0$
#32500
b1001001010110101 c
b110010011010 u
b1000 &"
b0 q
b1101 #"
b1101101111101111 k
b1111 ""
b1001001010110101 [
b10000 {
b1001001010110101 x
b10000 y
b1001001010110101 v
b10010010101101011010000010111100010011111111001010101101001100110000010100111001110100011110111100000000000000000000000000000000 o
b0 n
b1001001010110101 O
b1001001010110101 1
b1001001010110101 f
1l
b110 t
b1000 $"
1$
#33000
bx e
bx ~
bx T
bx `
bx U
bx S
bx a
bx |
0N
b10110 +
bx '
bx 7
bx &
bx 6
bx )
bx 8
0(
0$
#33500
b1001 n
0l
1$
#34000
b0 e
b0 ~
b0 U
b0 S
b110100010100 T
b0 `
b110100010100 a
b0 |
1N
b10111 +
b1111 -
b0 '
b0 7
b1111001011101100 &
b1111001011101100 6
b1001 )
b1001 8
1(
0$
#34500
b1111001011101100 c
1M
b11001001101011 u
b1000 &"
b1101 #"
b1000101110011010 k
b1111 ""
b1111001011101100 [
b10000 {
b1111001011101100 x
b10000 y
b1111001011101100 v
b11110010111011001001001010110101101000001011110001001111111100101010110100110011000001010011100111010001111011110000000000000000 o
b0 n
b1111001011101100 O
b1111001011101100 1
b1111001011101100 f
1l
1\
b111 t
b1000 $"
1$
#35000
bx e
0M
bx ~
bx T
bx `
bx U
bx S
bx a
bx |
0N
b11000 +
bx '
bx 7
bx &
bx 6
bx )
bx 8
0(
0$
#35500
b1001 n
0l
1$
#36000
b0 e
b0 ~
1M
b0 U
b0 S
b111010001101001 T
b0 `
b111010001101001 a
b0 |
1N
b11001 +
b10000 -
b0 '
b0 7
b1000101110010111 &
b1000101110010111 6
b1001 )
b1001 8
1(
0$
#36500
b1000101110010111 c
0N
1@
b1100100110101110 u
b1000 &"
b1101 #"
b1100111001011100 k
b1111 ""
b1000101110010111 [
b10000 {
b1000101110010111 x
b10000 y
b1000101110010111 v
0M
1?
1G
b10001011100101111111001011101100100100101011010110100000101111000100111111110010101011010011001100000101001110011101000111101111 o
b1000101110010111 O
b1000101110010111 1
b1000101110010111 f
1l
0\
b0 t
1%
b1000 $"
1$
#37000
bx e
bx ~
bx T
bx `
bx U
bx S
bx a
bx |
bx '
bx 7
bx &
bx 6
bx )
bx 8
0(
0$
#37500
b100100010011100 u
b1000 &"
b1010 b
b101110010111001100101110110000010010101101010010000010111100000011111111001000101101001100110000010100111001000100011110111100 o
b1010 r
b1010 i
b1 t
0l
b1100100110101110 #
b1100100110101110 p
1"
b1000 %"
1$
#38000
b1001 .
0$
#38500
b1111100000010 u
b1000 &"
b1011 b
b10111001011100000010111011000000001010110101000000001011110000001111111100100000110100110011000001010011100100000001111011110000 o
b100100010011100 #
b100100010011100 p
b10 t
b1011 i
b1011 r
b1000 %"
1$
#39000
b1010 .
0$
#39500
b101011100101011 u
b1000 &"
b1100 b
b11100101110000001011101100000000101011010100000000101111000000001111110010000000010011001100000001001110010000000111101111000000 o
b1100 r
b1100 i
b11 t
b1111100000010 #
b1111100000010 p
b1000 %"
1$
#40000
b1011 .
0$
#40500
b1100001110101110 u
b1000 &"
b1101 b
b10010111000000001110110000000000101101010000000010111100000000001111001000000000001100110000000000111001000000001110111100000000 o
b101011100101011 #
b101011100101011 p
b100 t
b1101 i
b1101 r
b1000 %"
1$
#41000
b1100 .
0$
#41500
b1011111111111001 u
b1000 &"
b1110 b
b1011100000000001011000000000000110101000000000011110000000000001100100000000000110011000000000011100100000000001011110000000000 o
b1110 r
b1110 i
b101 t
b1100001110101110 #
b1100001110101110 p
b1000 %"
1$
#42000
b1101 .
0$
#42500
b1110000011011101 u
b1000 &"
b1111 b
b1110000000000001100000000000000010100000000000011000000000000000010000000000000001100000000000010010000000000001111000000000000 o
b1011111111111001 #
b1011111111111001 p
b110 t
b1111 i
b1111 r
b1000 %"
1$
#43000
b1110 .
0$
#43500
b1101111000010011 u
b1000 &"
b0 b
b11000000000000000000000000000000010000000000000000000000000000001000000000000000110000000000000001000000000000001100000000000000 o
b0 r
b0 i
1\
b111 t
b1110000011011101 #
b1110000011011101 p
b1000 %"
1$
#44000
b1111 .
0$
#44500
0@
0G
b0 u
b1000 &"
1L
b1 b
b0 o
b1101111000010011 #
b1101111000010011 p
0\
1]
b1000 t
b1 i
b1 r
b1000 %"
1$
#45000
b10000 .
0$
#45500
0?
b10 b
0L
0%
b10 r
b10 i
0]
b0 t
0"
b1000 %"
1$
#46000
b0 e
b0 ~
b0 U
b0 S
b101001111100011 T
b0 `
b101001111100011 a
b0 |
1N
b11010 +
b10001 -
b0 '
b0 7
b1010110000011101 &
b1010110000011101 6
b1001 )
b1001 8
1(
0$
#46500
b1010110000011101 c
b10 u
b1000 &"
b1100000 q
b1101 #"
b1111101000010011 k
b1111 ""
b1010110000011101 [
b10000 {
b1010110000011101 x
b10000 y
b1010110000011101 v
b10101100000111010000000000000000000000000000000000000000000000000000000000000000000000000000000000000000000000000000000000000000 o
b0 n
b1010110000011101 O
b1010110000011101 1
b1010110000011101 f
1l
b1 t
b1000 $"
1$
#47000
b110100001101110 T
b110100001101110 a
b1001011110010010 |
b11011 +
b10010 -
b1001011110010010 &
b1001011110010010 6
0$
#47500
b1001011110010010 c
b0 q
b1101 #"
b1101110001011011 k
b1111 ""
b1001011110010010 [
b10000 {
b1001011110010010 x
b10000 y
b1001011110010010 v
b1010 u
b1000 &"
b10 t
b1001 n
b1001011110010010 O
b1001011110010010 1
b1001011110010010 f
b10010111100100101010110000011101000000000000000000000000000000000000000000000000000000000000000000000000000000000000000000000000 o
b1000 $"
1$
#48000
bx e
bx ~
bx T
bx `
bx U
bx S
bx a
bx |
0N
b11100 +
bx '
bx 7
bx &
bx 6
bx )
bx 8
0(
0$
#48500
0l
1$
#49000
b11101 +
0$
#49500
b0 n
1$
#50000
b11110 +
0$
#50500
1$
#51000
b0 ~
b0 e
b0 U
b0 S
b1111000000011 T
b0 `
b1110000111111101 a
b0 |
1N
b11111 +
b10011 -
b0 '
b0 7
b1111000000011 &
b1111000000011 6
b1001 )
b1001 8
1(
0$
#51500
b0 ^
b0 }
b0 Q
b0 R
b0 _
b0 !"
0P
1>
b0 4
b0 Y
b0 V
b0 Z
0<
1K
b1111000000011 c
b101000 u
b1000 &"
b111100 q
b1101 #"
b1000100000010 k
b1111 ""
b1111000000011 [
b10000 {
b1111000000011 x
b10000 y
b1111000000011 v
b11110000000111001011110010010101011000001110100000000000000000000000000000000000000000000000000000000000000000000000000000000 o
b11 t
b1111000000011 O
b1111000000011 1
b1111000000011 f
1l
b1000 $"
1$
#52000
bx ~
bx e
bx `
bx S
bx a
bx |
bx U
bx T
0N
b100000 +
bx '
bx 7
bx &
bx 6
bx )
bx 8
0(
0$
#52500
b1001 n
0l
1$
#53000
b0 ~
b0 e
b0 U
b0 S
b10011011011001 T
b0 `
b1101100100100111 a
b0 |
1N
b100001 +
b10100 -
b0 '
b0 7
b10011011011001 &
b10011011011001 6
b1001 )
b1001 8
1(
0$
#53500
b10011011011001 c
b10100000 u
b1000 &"
b0 q
b1101 #"
b11010110110101 k
b1111 ""
b10011011011001 [
b10000 {
b10011011011001 x
b10000 y
b10011011011001 v
b100110110110010001111000000011100101111001001010101100000111010000000000000000000000000000000000000000000000000000000000000000 o
b100 t
b0 n
b10011011011001 O
b10011011011001 1
b10011011011001 f
1l
b1000 $"
1$
#54000
b1010100011010001 a
b101011100101111 |
b101011100101111 T
b100010 +
b10101 -
b101011100101111 &
b101011100101111 6
0$
#54500
b101011100101111 c
b1101 #"
b111110010111000 k
b1111 ""
b101011100101111 [
b10000 {
b101011100101111 x
b10000 y
b101011100101111 v
b1010000001 u
b1000 &"
b1001 n
b101011100101111 O
b101011100101111 1
b101011100101111 f
b101 t
b1010111001011110010011011011001000111100000001110010111100100101010110000011101000000000000000000000000000000000000000000000000 o
b1000 $"
1$
#55000
b1100111111100101 a
b11000000011011 |
b11000000011011 T
b100011 +
b10110 -
b11000000011011 &
b11000000011011 6
0$
#55500
b11000000011011 c
b111100000 q
b1101 #"
b10100000010110 k
b1111 ""
b11000000011011 [
b10000 {
b11000000011011 x
b10000 y
b11000000011011 v
b101000000100 u
b1000 &"
b110 t
b11000000011011 O
b11000000011011 1
b11000000011011 f
b110000000110110101011100101111001001101101100100011110000000111001011110010010101011000001110100000000000000000000000000000000 o
b1000 $"
1$
#56000
b11001000011111 a
b1100110111100001 |
b11001000011111 T
b100100 +
b10111 -
b1100110111100001 &
b1100110111100001 6
0$
#56500
b11110000000000000000000000 ^
b10000000000000000000000 }
b0 W
0X
b10000000000000000000000 Q
b100000000000000000000000000000000 _
b111100000000000000000000000000000000 !"
1P
b100000000000000000000000000000000 R
0>
b111100000000000000000000000000000000 4
b111100000000000000000000000000000000 Y
b111100000000000000000000000000000000 V
b111100000000000000000000000000000000 Z
1<
0K
b1100110111100001 c
1M
b10 q
b1101 #"
b1010101100010001 k
b1111 ""
b1100110111100001 [
b10000 {
b1100110111100001 x
b10000 y
b1100110111100001 v
b10100000010011 u
b1000 &"
b1100110111100001 O
b1100110111100001 1
b1100110111100001 f
1\
b111 t
b11001101111000010011000000011011010101110010111100100110110110010001111000000011100101111001001010101100000111010000000000000000 o
b1000 $"
1$
#57000
bx e
0M
bx ~
bx T
bx `
bx U
bx S
bx a
bx |
0N
b100101 +
bx '
bx 7
bx &
bx 6
bx )
bx 8
0(
0$
#57500
0l
1$
#58000
b0 e
b0 ~
1M
b0 U
b0 S
b10110101111010 T
b0 `
b10110101111010 a
b0 |
1N
b100110 +
b11000 -
b0 '
b0 7
b1101001010000110 &
b1101001010000110 6
b1001 )
b1001 8
1(
0$
#58500
b1101001010000110 c
0N
1@
b1010000001001111 u
b1000 &"
b1000 q
b1101 #"
b1011101111000101 k
b1111 ""
b1101001010000110 [
b10000 {
b1101001010000110 x
b10000 y
b1101001010000110 v
0M
1?
1G
b11010010100001101100110111100001001100000001101101010111001011110010011011011001000111100000001110010111100100101010110000011101 o
b1101001010000110 O
b1101001010000110 1
b1101001010000110 f
1l
0\
b0 t
1%
b1000 $"
1$
