1141_hw1/00_TESTBED/alu.vcd
$date
	Sun Sep 28 05:50:09 2025
$end
$version
	Icarus Verilog
$end
$timescale
	10ps
$end
$scope module testbench $end
$var wire 1 ! rst_n $end
$var wire 1 " out_valid $end
$var wire 16 # odata [15:0] $end
$var wire 1 $ clk $end
$var wire 1 % busy $end
$var reg 16 & idata_a [15:0] $end
$var reg 16 ' idata_b [15:0] $end
$var reg 1 ( in_valid $end
$var reg 4 ) inst [3:0] $end
$var integer 32 * errors [31:0] $end
$var integer 32 + i [31:0] $end
$var integer 32 , input_end [31:0] $end
$var integer 32 - j [31:0] $end
$var integer 32 . k [31:0] $end
$var integer 32 / output_end [31:0] $end
$var integer 32 0 total_errors [31:0] $end
$scope module u_alu $end
$var wire 16 1 add_in_a [15:0] $end
$var wire 1 2 busy_done $end
$var wire 1 3 busy_start $end
$var wire 1 4 clz_done $end
$var wire 1 5 clz_start $end
$var wire 36 6 data_acc_in [35:0] $end
$var wire 1 7 data_acc_update $end
$var wire 16 8 i_data_a [15:0] $end
$var wire 16 9 i_data_b [15:0] $end
$var wire 1 ( i_in_valid $end
$var wire 4 : i_inst [3:0] $end
$var wire 1 ; is_final_clz_count $end
$var wire 1 < is_final_lrcw_count $end
$var wire 1 = is_final_rot_count $end
$var wire 1 > is_final_sin_count $end
$var wire 1 ? lrcw_done $end
$var wire 1 @ lrcw_start $end
$var wire 36 A mac_add_in_a [35:0] $end
$var wire 1 B mac_mult_sign $end
$var wire 1 C mac_overflow $end
$var wire 1 D mac_sign_eq $end
$var wire 1 E matrix_out_update $end
$var wire 1 F o_data_update $end
$var wire 1 G o_data_update_add $end
$var wire 1 H o_data_update_clz $end
$var wire 1 I o_data_update_gray $end
$var wire 1 J o_data_update_lrcw $end
$var wire 1 K o_data_update_mac $end
$var wire 1 L o_data_update_rm4 $end
$var wire 1 M o_data_update_rot $end
$var wire 1 N o_data_update_sin $end
$var wire 1 O o_data_update_trans $end
$var wire 1 P overflow $end
$var wire 1 Q rot_done $end
$var wire 1 R rot_start $end
$var wire 1 S sign_eq $end
$var wire 1 T sin_done $end
$var wire 1 U sin_start $end
$var wire 1 V trans_done $end
$var wire 1 W trans_ready $end
$var wire 1 X trans_start $end
$var wire 17 Y sum [16:0] $end
$var wire 1 Z sin_overflow $end
$var wire 22 [ sin_out_reg_round [21:0] $end
$var wire 16 \ sin_out [15:0] $end
$var wire 32 ] sin_a_reg [31:0] $end
$var wire 32 ^ sin_a_init [31:0] $end
$var wire 1 _ sign_mac_add_out $end
$var wire 26 ` posvalue_rounded [25:0] $end
$var wire 36 a posvalue [35:0] $end
$var wire 16 b mult_in_b [15:0] $end
$var wire 16 c mult_in_a [15:0] $end
$var wire 32 d mult_full [31:0] $end
$var wire 37 e mac_sum [36:0] $end
$var wire 16 f mac_out [15:0] $end
$var wire 1 g mac_add_out_overflow $end
$var wire 36 h mac_add_out [35:0] $end
$var wire 36 i mac_add_in_b [35:0] $end
$var wire 16 j lrcw_out [15:0] $end
$var wire 1 k is_finalm1_trans_count $end
$var wire 1 l is_final_trans_count $end
$var wire 1 ! i_rst_n $end
$var wire 1 $ i_clk $end
$var wire 26 m comp_posvalue_rounded [25:0] $end
$var wire 36 n comp_mac_add_out [35:0] $end
$var wire 16 o comp_i_data_b [15:0] $end
$var wire 16 p comp_i_data_a [15:0] $end
$var wire 16 q clz_out [15:0] $end
$var wire 16 r add_out [15:0] $end
$var wire 16 s add_in_b [15:0] $end
$var wire 32 t ab_reg_in [31:0] $end
$var wire 32 u a_power_reg_mult_shifted [31:0] $end
$var wire 64 v a_power_reg_mult_full [63:0] $end
$var wire 64 w a_power_reg_in_frac5 [63:0] $end
$var wire 64 x a_power_reg_in_frac4 [63:0] $end
$var wire 64 y a_power_reg_in_frac3 [63:0] $end
$var wire 64 z a_power_reg_in_frac2 [63:0] $end
$var wire 32 { a_power_reg_in_5 [31:0] $end
$var wire 32 | a_power_reg_in_4 [31:0] $end
$var wire 32 } a_power_reg_in_3 [31:0] $end
$var wire 32 ~ a_power_reg_in_2 [31:0] $end
$var reg 32 !" a_power_reg [31:0] $end
$var reg 16 "" a_reg [15:0] $end
$var reg 32 #" ab_reg [31:0] $end
$var reg 16 $" b_reg [15:0] $end
$var reg 4 %" clz_count [3:0] $end
$var reg 36 &" data_acc [35:0] $end
$var reg 16 '" gray_out [15:0] $end
$var reg 1 (" in_valid_reg $end
$var reg 4 )" inst_reg_1 [3:0] $end
$var reg 4 *" inst_reg_2 [3:0] $end
$var reg 16 +" lrcw_b_reg [15:0] $end
$var reg 4 ," lrcw_count [3:0] $end
$var reg 128 -" matrix_flat [127:0] $end
$var reg 1 % o_busy $end
$var reg 16 ." o_data [15:0] $end
$var reg 1 " o_out_valid $end
$var reg 16 /" rm4_out [15:0] $end
$var reg 4 0" rot_count [3:0] $end
$var reg 16 1" rot_out [15:0] $end
$var reg 3 2" sin_count [2:0] $end
$var reg 32 3" sin_out_reg [31:0] $end
$var reg 4 4" trans_count [3:0] $end
$var reg 16 5" trans_out [15:0] $end
$scope function twos_complement $end
$var reg 16 6" in_data [15:0] $end
$upscope $end
$scope function twos_complement26 $end
$var reg 26 7" in_data26 [25:0] $end
$upscope $end
$scope function twos_complement32 $end
$var reg 32 8" in_data32 [31:0] $end
$upscope $end
$scope function twos_complement36 $end
$var reg 36 9" in_data36 [35:0] $end
$upscope $end
$scope begin $ivl_for_loop0 $end
$var integer 32 :" i [31:0] $end
$upscope $end
$scope begin $ivl_for_loop1 $end
$var integer 32 ;" i [31:0] $end
$upscope $end
$scope begin $ivl_for_loop2 $end
$var integer 32 <" j [31:0] $end
$upscope $end
$scope begin $ivl_for_loop3 $end
$var integer 32 =" i [31:0] $end
$upscope $end
$scope begin $ivl_for_loop4 $end
$var integer 32 >" i [31:0] $end
$upscope $end
$upscope $end
$scope module u_clk_gen $end
$var reg 1 $ clk $end
$var reg 1 ?" rst $end
$var reg 1 ! rst_n $end
$upscope $end
$scope task validate $end
$upscope $end
$upscope $end
$enddefinitions $end
#0
$dumpvars
0?"
bx >"
bx ="
bx <"
bx ;"
bx :"
bx 9"
bx 8"
bx 7"
bx 6"
bx 5"
bx 4"
bx 3"
bx 2"
bx 1"
bx 0"
bx /"
bx ."
bx -"
bx ,"
bx +"
bx *"
bx )"
x("
bx '"
bx &"
bx %"
bx $"
bx #"
bx ""
bx !"
bx ~
bx }
bx |
bx {
bx z
bx y
bx x
bx w
bx v
bx u
bx t
bx s
bx r
b0xxxxx q
bx p
bx o
bx n
bx m
xl
xk
bx j
bx i
bx h
xg
bx f
bx e
bx d
bx c
bx b
bx a
bx `
x_
b0xxxxxxxxxxxxxxxx0000000000 ^
b0xxxxxxxxxxxxxxxx0000000000 ]
bx \
bx [
xZ
bx Y
xX
xW
xV
xU
xT
xS
xR
xQ
xP
xO
xN
xM
xL
xK
xJ
xI
xH
xG
xF
xE
xD
xC
xB
bx A
x@
x?
x>
x=
x<
x;
bx :
bx 9
bx 8
x7
bx 6
x5
x4
x3
x2
bx 1
bx 0
b0 /
bx .
bx -
b0 ,
bx +
bx *
bx )
x(
bx '
bx &
x%
0$
bx #
x"
1!
$end
#250
b0 f
0F
b0 m
b0 7"
0g
b0 `
b0 n
b0 a
02
b0 9"
0_
0C
b0 \
0P
b0 6
b0 h
1D
b0 ~
b0 }
b0 |
b0 {
1S
b0 z
b0 y
b0 x
b0 w
b0 u
b0 r
b0 e
0B
b0 v
b0 ]
b0 [
0Z
b0 5"
b1000 >"
0G
0T
0>
0?
0<
0Q
0=
04
0;
07
0K
0N
0I
0L
0J
0M
0H
b0 Y
b0 s
b1111111111111 /"
b1101 ;"
b0 '"
b1111 :"
b0 j
b10000 q
0V
0E
0O
b0 2"
b0 !"
b0 3"
b0 +"
b0 ,"
b0 1"
b0 0"
b0 %"
b0 -"
0k
0l
b0 4"
0("
b0 )"
b0 $"
b0 1
b0 ""
b0 A
b0 &"
b0 i
b0 #"
b0 #
b0 ."
0"
0%
03
b0 8"
b0 t
0W
b0 d
b0 b
b0 c
b0 ^
b0 o
b0 p
b0 6"
0U
0@
0R
05
0X
b0 '
b0 9
b0 &
b0 8
b0 )
b0 :
0(
0!
1?"
#500
1$
#1000
0$
#1500
1$
#2000
0$
1!
0?"
#2500
b0 *"
b0 .
b0 -
b0 +
1$
#3000
13
b1111000 p
b1111000 c
b1111111110001000 6"
b11110000000000000 ^
1U
b1 +
b1 -
b1111111110001000 &
b1111111110001000 8
b11 )
b11 :
1(
0$
#3500
0F
b11110000000000000000000000 m
b10000000000000000000000 7"
b0 f
0g
b10000000000000000000000 `
03
b1111111110001000 \
b100000000000000000000000000000000 n
b111100000000000000000000000000000000 9"
1_
b100000000000000000000000000000000 a
0D
b111100000000000000000000000000000000 6
b111100000000000000000000000000000000 h
b1111000 6"
b1110000100000 ~
b1001010111011 }
b111000010000 |
b101100110100 {
b111100000000000000000000000000000000 e
b111100000000000000000000000000000000 i
1B
b111000010000000000000000000000000 z
b100101011101101010000000000000000 y
b11100001000000000000000000000000 x
b10110011010011000000000000000000 w
b11100001000000 u
0S
b1111111110001000 r
0U
b1111000 [
b0 /"
b1101 ;"
b1000000001001100 '"
b1111 :"
b1110000100000000000000000000000000 v
b11110000000000000 ]
b0 q
0G
b11110000000000000 !"
b11110000000000000 3"
b1111111110001000 Y
b1111111110001000 1
b1111111110001000 ""
b11 )"
1("
1%
1$
#4000
bx t
bx 8"
bx c
b0xxxxxxxxxxxxxxxx0000000000 ^
bx o
bx d
bx b
bx p
bx 6"
bx '
bx 9
bx &
bx 8
bx )
bx :
0(
0$
#4500
b110100101 ~
b100011000 }
b11010010 |
b10100111 {
b11010010110000000000000000000 z
b10001100010111001110000000000 y
b1101001011000000000000000000 x
b1010011111110001000000000000 w
b1101001011 u
b110100101111000000000000000000 v
b1110000100000 !"
b1 2"
1$
#5000
0$
#5500
b10000 ~
b1010 }
b1000 |
b110 {
b1000000000000000000000000 z
b101010101000000000000000 y
b100000000000000000000000 x
b11001100000000000000000 w
b100000 u
b10 2"
b10000011010000000000000000 v
b100011000 !"
1$
#6000
0$
#6500
b0 ~
b0 }
b0 |
b0 {
b1111000 [
b0 z
b0 y
b0 x
b0 w
b0 u
b11101111011101000 3"
b11110000000000000000 v
b1000 !"
b11 2"
b100011000 8"
1$
#7000
0$
#7500
b100 2"
b0 v
b0 !"
1$
#8000
0$
#8500
1F
12
1N
1T
1>
b101 2"
1$
#9000
0$
#9500
0F
02
0N
0T
0>
b0 2"
0("
b1111111110001000 #
b1111111110001000 ."
1"
0%
1$
#10000
13
b0 t
b0 8"
b0 d
b0 b
b100000100 c
b1000001000000000000 ^
b0 o
b100000100 p
b0 6"
1U
b10 +
b10 -
b0 '
b0 9
b1111111011111100 &
b1111111011111100 8
b11 )
b11 :
1(
b1 .
0$
#10500
03
b1111111011111100 \
0U
b1000001000000000000 ]
b1111111011111100 r
b1000010000001000 ~
b101011111101111 }
b100001000000100 |
b11010010011011 {
b1101 ;"
b1000000110000010 '"
b1111 :"
b100000100 6"
b100000100 [
b100001000000100000000000000000000000 z
b10101111110111101010100000000000000 y
b10000100000010000000000000000000000 x
b1101001001101100110000000000000000 w
b10000100000010000 u
1%
0"
b1111111011111100 Y
b1111111011111100 1
b1111111011111100 ""
1("
b1000001000000000000 3"
b1000010000001000000000000000000000000 v
b1000001000000000000 !"
1$
#11000
bx t
bx 8"
bx c
b0xxxxxxxxxxxxxxxx0000000000 ^
bx o
bx d
bx b
bx p
bx 6"
bx '
bx 9
bx &
bx 8
bx )
bx :
0(
0$
#11500
b1000011000011 ~
b101100101001 }
b100001100001 |
b11010101101 {
b100001100001100000000000000000000 z
b10110010100111011111100000000000 y
b10000110000110000000000000000000 x
b1101010110110110010000000000000 w
b10000110000110 u
b1 2"
b1000011000011000001000000000000000 v
b1000010000001000 !"
1$
#12000
0$
#12500
b101101010 ~
b11110001 }
b10110101 |
b10010000 {
b10110101010000000000000000000 z
b1111000101101110010000000000 y
b1011010101000000000000000000 x
b1001000001101111000000000000 w
b1011010101 u
b101101010101101001000000000000 v
b101100101001 !"
b10 2"
1$
#13000
0$
#13500
b1111111011111111 \
b100000001 6"
b10110 ~
b1110 }
b1011 |
b1000 {
b1011010000000000000000000 z
b111011111100010000000000 y
b101101000000000000000000 x
b100011110111000000000000 w
b101101 u
b100000001 [
b11 2"
b10110111110101000000000000 v
b10110101 !"
b1000000010011010111 3"
b101100101001 8"
1$
#14000
0$
#14500
b1 ~
b0 }
b0 |
b0 {
b100000000000000000000 z
b10101010100000000000 y
b10000000000000000000 x
b1100110000000000000 w
b10 u
b1000001000000000000000 v
b1000 !"
b100 2"
1$
#15000
0$
#15500
1F
12
1N
1T
1>
b101 2"
b1000000010011011111 3"
1$
#16000
0$
#16500
0F
02
0N
0T
0>
0%
1"
b1111111011111111 #
b1111111011111111 ."
0("
b0 2"
1$
#17000
13
b0 t
b0 8"
b0 d
b0 b
b110010101 c
b1100101010000000000 ^
b0 o
b110010101 p
b0 6"
1U
b11 +
b11 -
b0 '
b0 9
b1111111001101011 &
b1111111001101011 8
b11 )
b11 :
1(
b10 .
0$
#17500
03
b1111111001101011 \
b1 j
b10100000001011100 ~
b1101010101011101 }
b1010000000101110 |
b111111110100100 {
b1100101010000000000 ]
b1111111001101011 r
0U
b1010000000101110010000000000000000000 z
b110101010101110110011011010000000000 y
b101000000010111001000000000000000000 x
b11111111010010011011011000000000000 w
b101000000010111001 u
b110010101 [
b1101 ;"
b1000000101011110 '"
b1111 :"
b110010101 6"
b10100000001011100100000000000000000000 v
b1100101010000000000 !"
b1100101010000000000 3"
b1111111001101011 Y
b1111111001101011 1
b1111111001101011 ""
1("
0"
1%
1$
#18000
bx t
bx 8"
bx c
b0xxxxxxxxxxxxxxxx0000000000 ^
bx o
bx d
bx b
bx p
bx 6"
b100 +
bx '
bx 9
bx &
bx 8
bx )
bx :
0(
0$
#18500
b11 j
b11111101011010 ~
b10101000110001 }
b1111110101101 |
b1100100111101 {
b1111110101101000000000000000000000 z
b1010100011000101110001000000000000 y
b111111010110100000000000000000000 x
b110010011110111011100000000000000 w
b111111010110100 u
b1 +"
b11111101011010001100011000000000000 v
b10100000001011100 !"
b1 2"
1$
#19000
0$
#19500
b111 j
b100001010111 ~
b10110001110 }
b10000101011 |
b1101010010 {
b10000101011110000000000000000000 z
b1011000111001000110110000000000 y
b1000010101111000000000000000000 x
b110101001011011101000000000000 w
b1000010101111 u
b10 2"
b100001010111111100001010000000000 v
b10101000110001 !"
b11 +"
1$
#20000
0$
#20500
b1111111001110110 \
b1111 j
b110001010 6"
b11010011 ~
b10001100 }
b1101001 |
b1010100 {
b110001010 [
b1101001100000000000000000000 z
b1000110010000111100000000000 y
b110100110000000000000000000 x
b101010000010010000000000000 w
b110100110 u
b111 +"
b1100010100111001111 3"
b11010011000000001110000000000 v
b10000101011 !"
b11 2"
b10101000110001 8"
1$
#21000
0$
#21500
b11111 j
b10000 ~
b1010 }
b1000 |
b110 {
b1000010000000000000000000 z
b101011111101010000000000 y
b100001000000000000000000 x
b11010010011000000000000 w
b100001 u
b100 2"
b10000100111001000000000000 v
b1010100 !"
b1111 +"
1$
#22000
0$
#22500
1F
b1111111001110101 \
12
b111111 j
b110001011 6"
1N
b110001011 [
1T
1>
b11111 +"
b1100010101000100011 3"
b101 2"
1$
#23000
0$
#23500
0F
02
b1111111 j
0N
0T
0>
b0 2"
b111111 +"
0("
b1111111001110101 #
b1111111001110101 ."
1"
0%
1$
#24000
13
b0 t
b0 8"
b0 d
b0 b
b110011111 c
b1100111110000000000 ^
b0 o
b110011111 p
b0 6"
1U
b101 +
b100 -
b0 '
b0 9
b1111111001100001 &
b1111111001100001 8
b11 )
b11 :
1(
b11 .
0$
#24500
03
b1111111001100001 \
0U
b1100111110000000000 ]
b1111111001100001 r
b10101000001100000 ~
b1110000000001000 }
b1010100000110000 |
b1000011000000110 {
b10 /"
b1101 ;"
b1000000101010001 '"
b1111 :"
b110011111 6"
b110011111 [
b1010100000110000010000000000000000000 z
b111000000000100001000101010000000000 y
b101010000011000001000000000000000000 x
b100001100000011001110011000000000000 w
b101010000011000001 u
1%
0"
b1111111001100001 Y
b1111111001100001 1
b1111111001100001 ""
1("
b1100111110000000000 3"
b10101000001100000100000000000000000000 v
b1100111110000000000 !"
1$
#25000
bx t
bx 8"
bx c
b0xxxxxxxxxxxxxxxx0000000000 ^
bx o
bx d
bx b
bx p
bx 6"
bx '
bx 9
bx &
bx 8
bx )
bx :
0(
0$
#25500
b11111111 j
b100010000101001 ~
b10110101100101 }
b10001000010100 |
b1101100101000 {
b10001000010100100000000000000000000 z
b1011010110010101001110100000000000 y
b1000100001010010000000000000000000 x
b110110010100001010110000000000000 w
b1000100001010010 u
b1 2"
b100010000101001011101000000000000000 v
b10101000001100000 !"
b1111111 +"
1$
#26000
0$
#26500
b111111111 j
b100100110010 ~
b11000100000 }
b10010011001 |
b1110101010 {
b10010011001010000000000000000000 z
b1100010000000100010010000000000 y
b1001001100101000000000000000000 x
b111010101000011111000000000000 w
b1001001100101 u
b11111111 +"
b100100110010110101110110000000000 v
b10110101100101 !"
b10 2"
1$
#27000
0$
#27500
b1111111001101100 \
b1111111111 j
b110010100 6"
b11101110 ~
b10011110 }
b1110111 |
b1011111 {
b1110111010000000000000000000 z
b1001111011011000010000000000 y
b111011101000000000000000000 x
b101111100000111000000000000 w
b111011101 u
b110010100 [
b11 2"
b11101110100000001110000000000 v
b10010011001 !"
b1100100111010011011 3"
b111111111 +"
b10110101100101 8"
1$
#28000
0$
#28500
b11111111111 j
b10011 ~
b1100 }
b1001 |
b111 {
b1001100000000000000000000 z
b110010100111100000000000 y
b100110000000000000000000 x
b11110010010000000000000 w
b100110 u
b1111111111 +"
b10011010000000010000000000 v
b1011111 !"
b100 2"
1$
#29000
0$
#29500
1F
12
b111111111111 j
1N
1T
1>
b101 2"
b1100100111011111010 3"
b11111111111 +"
1$
#30000
0$
#30500
0F
02
b1111111111111 j
0N
0T
0>
0%
1"
b1111111001101100 #
b1111111001101100 ."
0("
b111111111111 +"
b0 2"
1$
#31000
13
b0 t
b0 8"
b0 d
b0 b
b110011111 c
b1100111110000000000 ^
b0 o
b110011111 p
b0 6"
1U
b110 +
b101 -
b0 '
b0 9
b1111111001100001 &
b1111111001100001 8
b11 )
b11 :
1(
b100 .
0$
#31500
03
b1111111001100001 \
b110011111 6"
b10101000001100000 ~
b1110000000001000 }
b1010100000110000 |
b1000011000000110 {
0U
b1010100000110000010000000000000000000 z
b111000000000100001000101010000000000 y
b101010000011000001000000000000000000 x
b100001100000011001110011000000000000 w
b101010000011000001 u
b110011111 [
b10101000001100000100000000000000000000 v
b1100111110000000000 !"
b1100111110000000000 3"
1("
0"
1%
1$
#32000
bx t
bx 8"
bx c
b0xxxxxxxxxxxxxxxx0000000000 ^
bx o
bx d
bx b
bx p
bx 6"
b111 +
bx '
bx 9
bx &
bx 8
bx )
bx :
0(
0$
#32500
b11111111111111 j
b100010000101001 ~
b10110101100101 }
b10001000010100 |
b1101100101000 {
b10001000010100100000000000000000000 z
b1011010110010101001110100000000000 y
b1000100001010010000000000000000000 x
b110110010100001010110000000000000 w
b1000100001010010 u
b1111111111111 +"
b100010000101001011101000000000000000 v
b10101000001100000 !"
b1 2"
1$
#33000
0$
#33500
b111111111111111 j
b100100110010 ~
b11000100000 }
b10010011001 |
b1110101010 {
b10010011001010000000000000000000 z
b1100010000000100010010000000000 y
b1001001100101000000000000000000 x
b111010101000011111000000000000 w
b1001001100101 u
b10 2"
b100100110010110101110110000000000 v
b10110101100101 !"
b11111111111111 +"
1$
#34000
0$
#34500
b1111111001101100 \
b1111111111111111 j
b110010100 6"
b11101110 ~
b10011110 }
b1110111 |
b1011111 {
b110010100 [
b1110111010000000000000000000 z
b1001111011011000010000000000 y
b111011101000000000000000000 x
b101111100000111000000000000 w
b111011101 u
b111111111111111 +"
b1100100111010011011 3"
b11101110100000001110000000000 v
b10010011001 !"
b11 2"
b10110101100101 8"
1$
#35000
0$
#35500
b1111111111111110 j
b10011 ~
b1100 }
b1001 |
b111 {
b1001100000000000000000000 z
b110010100111100000000000 y
b100110000000000000000000 x
b11110010010000000000000 w
b100110 u
b100 2"
b10011010000000010000000000 v
b1011111 !"
b1111111111111111 +"
1$
#36000
0$
#36500
1F
12
b1111111111111100 j
1N
1T
1>
b1111111111111110 +"
b1100100111011111010 3"
b101 2"
1$
#37000
0$
#37500
0F
02
b1111111111111000 j
0N
0T
0>
b0 2"
b1111111111111100 +"
0("
1"
0%
1$
#38000
13
b0 8"
b0 t
b0 d
b0 b
b10101011 c
b101010110000000000 ^
b0 o
b1111111101010101 p
b0 6"
1U
b1000 +
b110 -
b0 '
b0 9
b10101011 &
b10101011 8
b11 )
b11 :
1(
b101 .
0$
#38500
b0 m
b0 7"
b0 `
03
b0 a
b0 n
b0 9"
0_
1D
b0 6
b0 h
b10101011 \
0U
b0 e
b0 i
0B
b101010110000000000 ]
1S
b10101011 r
b11100100011100 ~
b10011000001001 }
b1110010001110 |
b1011011000001 {
b1111100000000 /"
b1101 ;"
b11111110 '"
b1111 :"
b10101011 6"
b10101011 [
b1110010001110010000000000000000000 z
b1001100000100101111011010000000000 y
b111001000111001000000000000000000 x
b101101100000101011011000000000000 w
b111001000111001 u
1%
0"
b10101011 Y
b10101011 1
b10101011 ""
1("
b101010110000000000 3"
b11100100011100100000000000000000000 v
b101010110000000000 !"
1$
#39000
bx 8"
bx t
bx o
bx b
bx p
bx d
bx c
bx 6"
b0xxxxxxxxxxxxxxxx0000000000 ^
bx '
bx 9
bx &
bx 8
bx )
bx :
0(
0$
#39500
b1111111111110000 j
b10011000100 ~
b1100101100 }
b1001100010 |
b111100110 {
b1001100010010000000000000000000 z
b110010110011011111010000000000 y
b100110001001000000000000000000 x
b11110011001001011000000000000 w
b100110001001 u
b1 2"
b10011000100101101101000000000000 v
b11100100011100 !"
b1111111111111000 +"
1$
#40000
0$
#40500
b1111111111100000 j
b1000011 ~
b101100 }
b100001 |
b11010 {
b100001110000000000000000000 z
b10110011110100110000000000 y
b10000111000000000000000000 x
b1101011100101000000000000 w
b10000111 u
b1111111111110000 +"
b1000011110011001000000000000 v
b1100101100 !"
b10 2"
1$
#41000
0$
#41500
b10101010 \
b1111111111000000 j
b10101010 6"
b10 ~
b1 }
b1 |
b0 {
b1010000000000000000000 z
b110101010010000000000 y
b101000000000000000000 x
b11111111000000000000 w
b101 u
b10101010 [
b11 2"
b10110000010110000000000 v
b100001 !"
b101010100011010100 3"
b1111111111100000 +"
b1100101100 8"
1$
#42000
0$
#42500
b1111111110000000 j
b0 ~
b0 }
b0 |
b0 z
b0 y
b0 x
b0 w
b0 u
b1111111111000000 +"
b0 v
b0 !"
b100 2"
1$
#43000
0$
#43500
1F
12
b1111111100000000 j
1N
1T
1>
b101 2"
b1111111110000000 +"
1$
#44000
0$
#44500
0F
02
b1111111000000000 j
0N
0T
0>
0%
1"
b10101010 #
b10101010 ."
0("
b1111111100000000 +"
b0 2"
1$
#45000
13
b0 t
b0 8"
b0 d
b0 b
b101 c
b1010000000000 ^
b0 o
b101 p
b0 6"
1U
b1001 +
b111 -
b0 '
b0 9
b1111111111111011 &
b1111111111111011 8
b11 )
b11 :
1(
b110 .
0$
#45500
b11110000000000000000000000 m
b10000000000000000000000 7"
b0 f
0g
b10000000000000000000000 `
03
b100000000000000000000000000000000 n
b111100000000000000000000000000000000 9"
1_
b100000000000000000000000000000000 a
0D
b111100000000000000000000000000000000 6
b111100000000000000000000000000000000 h
b1111111111111011 \
b1100 ~
b1000 }
b110 |
b100 {
b111100000000000000000000000000000000 e
b111100000000000000000000000000000000 i
1B
0S
b1111111111111011 r
0U
b110010000000000000000000 z
b100001010011010000000000 y
b11001000000000000000000 x
b10011111011000000000000 w
b11001 u
b101 [
b0 /"
b1101 ;"
b1000000000000110 '"
b1111 :"
b101 6"
b1010000000000 ]
b1100100000000000000000000 v
b1010000000000 !"
b1010000000000 3"
b1111111111111011 Y
b1111111111111011 1
b1111111111111011 ""
1("
0"
1%
1$
#46000
bx t
bx 8"
bx c
b0xxxxxxxxxxxxxxxx0000000000 ^
bx o
bx d
bx b
bx p
bx 6"
bx '
bx 9
bx &
bx 8
bx )
bx :
0(
0$
#46500
b1111110000000000 j
b0 ~
b0 }
b0 |
b0 {
b0 z
b0 y
b0 x
b0 w
b0 u
b1111111000000000 +"
b1111000000000000 v
b1100 !"
b1 2"
1$
#47000
0$
#47500
b1111100000000000 j
b10 2"
b0 v
b0 !"
b1111110000000000 +"
1$
#48000
0$
#48500
b1111000000000000 j
b1111100000000000 +"
b11 2"
b0 8"
1$
#49000
0$
#49500
b1110000000000000 j
b100 2"
b1111000000000000 +"
1$
#50000
0$
#50500
1F
12
b1100000000000000 j
1N
1T
1>
b1110000000000000 +"
b101 2"
1$
#51000
0$
#51500
0F
02
b1000000000000000 j
0N
0T
0>
b0 2"
b1100000000000000 +"
0("
b1111111111111011 #
b1111111111111011 ."
1"
0%
1$
#52000
13
b0 t
b0 d
b0 b
b1100110 c
b11001100000000000 ^
b0 o
b1100110 p
b0 6"
1U
b1010 +
b1000 -
b0 '
b0 9
b1111111110011010 &
b1111111110011010 8
b11 )
b11 :
1(
b111 .
0$
#52500
03
b1111111110011010 \
b1100000000000000 j
0U
b11001100000000000 ]
b1111111110011010 r
b1010001010010 ~
b110110001000 }
b101000101001 |
b100000011000 {
b1101 ;"
b1000000001010111 '"
b1111 :"
b1100110 6"
b1100110 [
b101000101001000000000000000000000 z
b11011000100010011101000000000000 y
b10100010100100000000000000000000 x
b10000001100010101100000000000000 w
b10100010100100 u
1%
0"
b1111111110011010 Y
b1111111110011010 1
b1111111110011010 ""
1("
b11001100000000000 3"
b1010001010010000000000000000000000 v
b11001100000000000 !"
1$
#53000
bx t
bx 8"
bx c
b0xxxxxxxxxxxxxxxx0000000000 ^
bx o
bx d
bx b
bx p
bx 6"
bx '
bx 9
bx &
bx 8
bx )
bx :
0(
0$
#53500
b100000011 ~
b10101100 }
b10000001 |
b1100111 {
b10000001100000000000000000000 z
b1010110001111111100000000000 y
b1000000110000000000000000000 x
b110011100110010000000000000 w
b1000000110 u
b1 2"
b100000011000101011000000000000 v
b1010001010010 !"
1$
#54000
0$
#54500
b1000 ~
b101 }
b100 |
b11 {
b100010000000000000000000 z
b10110101001010000000000 y
b10001000000000000000000 x
b1101100011000000000000 w
b10001 u
b1000100100010000000000000 v
b10101100 !"
b10 2"
1$
#55000
0$
#55500
b0 ~
b0 }
b0 |
b0 {
b0 z
b0 y
b0 x
b0 w
b0 u
b1100110 [
b11 2"
b1100110000000000000 v
b100 !"
b11001011101010100 3"
b10101100 8"
1$
#56000
0$
#56500
b0 v
b0 !"
b100 2"
1$
#57000
0$
#57500
1F
12
1N
1T
1>
b101 2"
1$
#58000
0$
#58500
0F
02
0N
0T
0>
0%
1"
b1111111110011010 #
b1111111110011010 ."
0("
b0 2"
1$
#59000
13
b0 8"
b0 t
b0 d
b0 b
b101111100 c
b1011111000000000000 ^
b0 o
b1111111010000100 p
b0 6"
1U
b1011 +
b1001 -
b0 '
b0 9
b101111100 &
b101111100 8
b11 )
b11 :
1(
b1000 .
0$
#59500
b0 m
b0 7"
b0 `
b0 a
03
b0 n
b0 9"
0_
1D
b0 6
b0 h
b101111100 \
b10001101000001000 ~
b1011101111010110 }
b1000110100000100 |
b111000001011111 {
b0 e
b0 i
0B
b1011111000000000000 ]
1S
b101111100 r
0U
b1000110100000100000000000000000000000 z
b101110111101011001010100000000000000 y
b100011010000010000000000000000000000 x
b11100000101111100110000000000000000 w
b100011010000010000 u
b101111100 [
b1111000000000 /"
b1101 ;"
b111000010 '"
b1111 :"
b101111100 6"
b10001101000001000000000000000000000000 v
b1011111000000000000 !"
b1011111000000000000 3"
b101111100 Y
b101111100 1
b101111100 ""
1("
0"
1%
1$
#60000
bx 8"
bx t
bx o
bx b
bx p
bx d
bx c
bx 6"
b0xxxxxxxxxxxxxxxx0000000000 ^
b1100 +
bx '
bx 9
bx &
bx 8
bx )
bx :
0(
0$
#60500
b11010001010100 ~
b10001011011001 }
b1101000101010 |
b1010011011001 {
b1101000101010000000000000000000000 z
b1000101101100111110010000000000000 y
b110100010101000000000000000000000 x
b101001101100101111000000000000000 w
b110100010101000 u
b11010001010100011111000000000000000 v
b10001101000001000 !"
b1 2"
1$
#61000
b1101 +
0$
#61500
b11001110111 ~
b10001001110 }
b1100111011 |
b1010010011 {
b1100111011100000000000000000000 z
b1000100111001000001100000000000 y
b110011101110000000000000000000 x
b101001001101101010000000000000 w
b110011101110 u
b10 2"
b11001110111010000111000000000000 v
b10001011011001 !"
1$
#62000
b1110 +
0$
#62500
b101110011 \
b101110011 6"
b10011001 ~
b1100101 }
b1001100 |
b111100 {
b101110011 [
b1001100100000000000000000000 z
b110010111100110100000000000 y
b100110010000000000000000000 x
b11110011110110000000000000 w
b100110010 u
b1011100110100100111 3"
b10011001011100101000000000000 v
b1100111011 !"
b11 2"
b10001011011001 8"
1$
#63000
0$
#63500
b1011 ~
b111 }
b101 |
b100 {
b101100000000000000000000 z
b11101010011100000000000 y
b10110000000000000000000 x
b10001100010000000000000 w
b10110 u
b100 2"
b1011001000100000000000000 v
b111100 !"
1$
#64000
0$
#64500
1F
12
1N
1T
1>
b1011100110101100011 3"
b101 2"
1$
#65000
0$
#65500
0F
02
0N
0T
0>
b0 2"
0("
b101110011 #
b101110011 ."
1"
0%
1$
