1141_hw1/00_TESTBED/alu.vcd
$date
	Sat Sep 27 15:37:45 2025
$end
$version
	Icarus Verilog
$end
$timescale
	10ps
$end
$scope module testbench $end
$var wire 1 ! rst_n $end
$var wire 1 " out_valid $end
$var wire 16 # odata [15:0] $end
$var wire 1 $ clk $end
$var wire 1 % busy $end
$var parameter 33 & DATA_W $end
$var parameter 32 ' FRAC_W $end
$var parameter 32 ( INST_W $end
$var parameter 32 ) INT_W $end
$var reg 16 * idata_a [15:0] $end
$var reg 16 + idata_b [15:0] $end
$var reg 1 , in_valid $end
$var reg 4 - inst [3:0] $end
$var integer 32 . errors [31:0] $end
$var integer 32 / i [31:0] $end
$var integer 32 0 input_end [31:0] $end
$var integer 32 1 j [31:0] $end
$var integer 32 2 k [31:0] $end
$var integer 32 3 output_end [31:0] $end
$var integer 32 4 total_errors [31:0] $end
$scope module u_alu $end
$var wire 16 5 data_acc_in [15:0] $end
$var wire 1 6 data_acc_update $end
$var wire 16 7 i_data_a [15:0] $end
$var wire 16 8 i_data_b [15:0] $end
$var wire 1 , i_in_valid $end
$var wire 4 9 i_inst [3:0] $end
$var wire 1 : is_final_rot_count $end
$var wire 1 ; matrix_out_update $end
$var wire 1 < o_data_update $end
$var wire 1 = o_data_update_rot $end
$var wire 1 > o_data_update_trans $end
$var wire 1 ? overflow $end
$var wire 1 @ rot_start $end
$var wire 1 A sign_eq $end
$var wire 1 B trans_ready $end
$var wire 1 C trans_start $end
$var wire 17 D sum [16:0] $end
$var wire 16 E mult_out_round [15:0] $end
$var wire 16 F mult_in_b [15:0] $end
$var wire 16 G mult_in_a [15:0] $end
$var wire 17 H mult_full [16:0] $end
$var wire 16 I lrcw_out [15:0] $end
$var wire 1 J is_finalm1_trans_count $end
$var wire 1 K is_final_trans_count $end
$var wire 1 ! i_rst_n $end
$var wire 1 $ i_clk $end
$var wire 16 L comp_i_data_b [15:0] $end
$var wire 16 M comp_i_data_a [15:0] $end
$var wire 1 N b_sign $end
$var wire 16 O add_out [15:0] $end
$var wire 16 P add_in_b [15:0] $end
$var wire 16 Q add_in_a [15:0] $end
$var wire 16 R ab_reg_in [15:0] $end
$var wire 1 S a_sign $end
$var parameter 4 T ADD $end
$var parameter 4 U CLZ $end
$var parameter 32 V CNT_W $end
$var parameter 33 W DATA_W $end
$var parameter 32 X FINAL_TRANS_COUNT $end
$var parameter 32 Y FRAC_W $end
$var parameter 4 Z GRAY $end
$var parameter 32 [ INST_W $end
$var parameter 32 \ INT_W $end
$var parameter 4 ] LRCW $end
$var parameter 4 ^ MAC $end
$var parameter 16 _ MAX_VAL $end
$var parameter 16 ` MIN_VAL $end
$var parameter 4 a RM4 $end
$var parameter 4 b ROT $end
$var parameter 4 c SIN $end
$var parameter 4 d SUB $end
$var parameter 4 e TRANS $end
$var reg 16 f a_reg [15:0] $end
$var reg 16 g ab_reg [15:0] $end
$var reg 16 h b_reg [15:0] $end
$var reg 16 i data_acc [15:0] $end
$var reg 16 j gray_out [15:0] $end
$var reg 1 k in_valid_reg $end
$var reg 4 l inst_reg_1 [3:0] $end
$var reg 4 m inst_reg_2 [3:0] $end
$var reg 128 n matrix_flat [127:0] $end
$var reg 1 % o_busy $end
$var reg 16 o o_data [15:0] $end
$var reg 1 " o_out_valid $end
$var reg 16 p rm4_out [15:0] $end
$var reg 4 q rot_count [3:0] $end
$var reg 16 r rot_out [15:0] $end
$var reg 4 s trans_count [3:0] $end
$var reg 16 t trans_out [15:0] $end
$scope function grp16 $end
$var reg 16 u grp_a_reg [15:0] $end
$var reg 16 v grp_b_reg [15:0] $end
$var reg 16 w temp [15:0] $end
$var integer 32 x left_pos [31:0] $end
$var integer 32 y right_pos [31:0] $end
$scope begin $ivl_for_loop5 $end
$var integer 32 z i [31:0] $end
$upscope $end
$upscope $end
$scope function twos_complement $end
$var reg 16 { in_data [15:0] $end
$upscope $end
$scope begin $ivl_for_loop0 $end
$var integer 32 | i [31:0] $end
$upscope $end
$scope begin $ivl_for_loop1 $end
$var integer 32 } i [31:0] $end
$upscope $end
$scope begin $ivl_for_loop2 $end
$var integer 32 ~ j [31:0] $end
$upscope $end
$scope begin $ivl_for_loop3 $end
$var integer 32 !" i [31:0] $end
$upscope $end
$scope begin $ivl_for_loop4 $end
$var integer 32 "" i [31:0] $end
$upscope $end
$upscope $end
$scope module u_clk_gen $end
$var reg 1 $ clk $end
$var reg 1 #" rst $end
$var reg 1 ! rst_n $end
$upscope $end
$scope task validate $end
$upscope $end
$upscope $end
$enddefinitions $end
$comment Show the parameter values. $end
$dumpall
b1001 e
b1 d
b11 c
b110 b
b1000 a
b1000000000000000 `
b111111111111111 _
b10 ^
b101 ]
b110 \
b100 [
b100 Z
b1010 Y
b1000 X
b10000 W
b100 V
b111 U
b0 T
b110 )
b100 (
b1010 '
b10000 &
$end
#0
$dumpvars
0#"
bx ""
bx !"
bx ~
bx }
bx |
bx {
b10000 z
b11111111111111111111111111111111 y
b0 x
bx w
bx v
bx u
bx t
bx s
bx r
bx q
bx p
bx o
bx n
bx m
bx l
xk
bx j
bx i
bx h
bx g
bx f
xS
bx R
bx Q
bx P
bx O
xN
bx M
bx L
xK
xJ
bx I
b0xxxxxxxx H
bx G
bx F
bx E
bx D
xC
xB
xA
x@
x?
x>
x=
x<
x;
x:
bx 9
bx 8
bx 7
x6
bx 5
bx 4
b0 3
bx 2
bx 1
b0 0
bx /
bx .
bx -
x,
bx +
bx *
x%
0$
bx #
x"
1!
$end
#250
0?
b0 5
b0 O
1A
0;
0<
0N
0S
0>
b0 t
b1000 ""
06
0:
0=
b0 D
b0 P
b1111111111111 p
b1101 }
b0 j
b1111 |
b0 I
b10000 x
b10000 z
b0 w
b1111 y
b0 v
b0 u
b0 Q
0%
b0 r
b0 q
b0 n
0J
0K
b0 s
0"
0k
b0 l
b0 h
b0 f
b0 i
b0 g
b0 #
b0 o
b0 R
b0 E
b0 H
0B
b0 F
b0 G
0C
b0 L
b0 M
b0 {
0@
b0 +
b0 8
b0 *
b0 7
b0 -
b0 9
0,
0!
1#"
#500
1$
#1000
0$
#1500
1$
#2000
0$
1!
0#"
#2500
b0 m
b0 2
b0 1
b0 /
1$
#3000
1C
b110001010111100 M
b1001110101000100 {
b110001010111100 G
b1 /
b1 1
b1001110101000100 *
b1001110101000100 7
b1001 -
b1001 9
1,
0$
#3500
0A
b1001110101000100 5
b1001110101000100 O
1S
b10 t
b1000 ""
b0 p
b1101 }
b1101001111100110 j
b1111 |
b1001110101000100 D
b1001110101000100 Q
b1001110101000100 I
b1001110101000100 w
b10000 z
b10000 x
b1001110101000100 u
b10011101010001000000000000000000000000000000000000000000000000000000000000000000000000000000000000000000000000000000000000000000 n
b1 s
b1001110101000100 f
b1001 l
1k
b1000 ~
1$
#4000
b110000100100110 G
b110000100100110 M
b1001111011011010 {
b10 /
b10 1
b1001111011011010 *
b1001111011011010 7
0$
#4500
b1001111011011010 5
b1001111011011010 O
b1101 }
b1101000110110111 j
b1111 |
b1001111011011010 D
b1001111011011010 Q
b1001111011011010 I
b10000 z
b1001111011011010 w
b10000 x
b1001111011011010 u
b1010 t
b1000 ""
b1001 m
b1001111011011010 f
b10 s
b10011110110110101001110101000100000000000000000000000000000000000000000000000000000000000000000000000000000000000000000000000000 n
b1000 ~
1$
#5000
b101101011011001 G
b101101011011001 M
b1010010100100111 {
b11 /
b11 1
b1010010100100111 *
b1010010100100111 7
0$
#5500
b1010010100100111 5
b1010010100100111 O
b1101 }
b1111011110110100 j
b1111 |
b1010010100100111 D
b1010010100100111 Q
b1010010100100111 I
b10000 z
b1010010100100111 w
b10000 x
b1010010100100111 u
b101010 t
b1000 ""
b11 s
b1010010100100111 f
b10100101001001111001111011011010100111010100010000000000000000000000000000000000000000000000000000000000000000000000000000000000 n
b1000 ~
1$
#6000
bx R
bx E
b0xxxxxxxx H
bx G
0C
bx L
bx F
bx M
bx {
b100 /
bx +
bx 8
bx *
bx 7
bx -
bx 9
0,
0$
#6500
0k
1$
#7000
b0 R
b0 E
b0 H
b0 F
b111000001001011 G
1C
b0 L
b1000111110110101 M
b0 {
b101 /
b100 1
b0 +
b0 8
b111000001001011 *
b111000001001011 7
b1001 -
b1001 9
1,
0$
#7500
1A
b111000001001011 5
b111000001001011 O
0S
b10101001 t
b1000 ""
b110000000 p
b1101 }
b100100001101110 j
b1111 |
b111000001001011 D
b111000001001011 Q
b111000001001011 I
b10000 z
b111000001001011 w
b10000 x
b111000001001011 u
b1110000010010111010010100100111100111101101101010011101010001000000000000000000000000000000000000000000000000000000000000000000 n
b100 s
b0 m
b111000001001011 f
1k
b1000 ~
1$
#8000
b101000010000000 M
b1010111110000000 {
b101000010000000 G
b110 /
b101 1
b1010111110000000 *
b1010111110000000 7
0$
#8500
0A
b1010111110000000 5
b1010111110000000 O
1S
b1111 p
b1101 }
b1111100001000000 j
b1111 |
b1010111110000000 D
b1010111110000000 Q
b1010111110000000 I
b10000 z
b1010111110000000 w
b10000 x
b1010111110000000 u
b1010100110 t
b1000 ""
b1001 m
b1010111110000000 f
b101 s
b10101111100000000111000001001011101001010010011110011110110110101001110101000100000000000000000000000000000000000000000000000000 n
b1000 ~
1$
#9000
bx R
bx E
b0xxxxxxxx H
bx G
0C
bx L
bx F
bx M
bx {
b111 /
bx +
bx 8
bx *
bx 7
bx -
bx 9
0,
0$
#9500
0k
1$
#10000
b0 R
b0 E
b0 H
b0 F
b101110101110 G
1C
b0 L
b101110101110 M
b0 {
b1000 /
b110 1
b0 +
b0 8
b1111010001010010 *
b1111010001010010 7
b1001 -
b1001 9
1,
0$
#10500
b1111010001010010 5
b1111010001010010 O
b101010011011 t
b1000 ""
b0 p
b1101 }
b1000111001111011 j
b1111 |
b1111010001010010 D
b1111010001010010 Q
b1111010001010010 I
b10000 z
b1111010001010010 w
b10000 x
b1111010001010010 u
b11110100010100101010111110000000011100000100101110100101001001111001111011011010100111010100010000000000000000000000000000000000 n
b0 m
b1111010001010010 f
1k
b110 s
b1000 ~
1$
#11000
b1101111000 G
b1101111000 M
b1111110010001000 {
b1001 /
b111 1
b1111110010001000 *
b1111110010001000 7
0$
#11500
b1111110010001000 5
b1111110010001000 O
1B
b1101 }
b1000001011001100 j
b1111 |
b1111110010001000 D
b1111110010001000 Q
b1111110010001000 I
b10000 z
b1111110010001000 w
b10000 x
b1111110010001000 u
b10101001101111 t
b1000 ""
1J
b111 s
b1001 m
b1111110010001000 f
b11111100100010001111010001010010101011111000000001110000010010111010010100100111100111101101101010011101010001000000000000000000 n
b1000 ~
1$
#12000
b110010000001 G
b1111001101111111 M
b110010000001 {
b1010 /
b1000 1
b110010000001 *
b110010000001 7
0$
#12500
1A
b110010000001 5
b110010000001 O
0C
0S
1;
1<
b1000000001110 p
b1101 }
b101011000001 j
b1111 |
b110010000001 D
b110010000001 Q
b110010000001 I
b10000 z
b110010000001 w
b10000 x
b110010000001 u
0B
1>
b1010100110111100 t
b1000 ""
b110010000001 f
0J
b0 s
1%
b1100100000011111110010001000111101000101001010101111100000000111000001001011101001010010011110011110110110101001110101000100 n
b1000 ~
1$
#13000
bx R
bx E
b0xxxxxxxx H
bx L
bx F
bx M
bx {
bx G
bx +
bx 8
bx *
bx 7
bx -
bx 9
0,
0$
#13500
b101101110111100 t
b1000 ""
b110010000001001111001000100000110100010100100010111110000000001100000100101100100101001001110001111011011010000111010100010000 n
b1 q
b1 s
1"
0k
b1010100110111100 #
b1010100110111100 o
b1000 !"
1$
#14000
b1 2
0$
#14500
b1111010011011111 t
b1000 ""
b11001000000100001100100010000000010001010010000011111000000000000000010010110000010100100111000011101101101000001101010001000000 n
b101101110111100 #
b101101110111100 o
b10 s
b10 q
b1000 !"
1$
#15000
b10 2
0$
#15500
b110010011000000 t
b1000 ""
b100000010000000010001000000000000101001000000011100000000000000001001011000000010010011100000010110110100000000101000100000000 n
b11 q
b11 s
b1111010011011111 #
b1111010011011111 o
b1000 !"
1$
#16000
b11 2
0$
#16500
b111000110011010 t
b1000 ""
b10000001000000001000100000000000010100100000000010000000000000000100101100000000001001110000000011011010000000000100010000000000 n
b110010011000000 #
b110010011000000 o
b100 s
b100 q
b1000 !"
1$
#17000
b100 2
0$
#17500
b1100000010000 t
b1000 ""
b100000000000010000000000000010010000000000000000000000000000010110000000000100111000000000001101000000000000001000000000000 n
b101 q
b101 s
b111000110011010 #
b111000110011010 o
b1000 !"
1$
#18000
b101 2
0$
#18500
b110011000001000 t
b1000 ""
b10000000000001000000000000000001000000000000000000000000000001011000000000000011100000000000010100000000000000100000000000000 n
b1100000010000 #
b1100000010000 o
b110 s
b110 q
b1000 !"
1$
#19000
b110 2
0$
#19500
b10111100100001 t
b1000 ""
b1000000000000000000000000000000100000000000000000000000000000001100000000000000110000000000000010000000000000000000000000000000 n
b111 q
1J
b111 s
b110011000001000 #
b110011000001000 o
b1000 !"
1$
#20000
b111 2
0$
#20500
0<
0>
b0 t
b1000 ""
b0 n
b10111100100001 #
b10111100100001 o
0J
1K
b1000 s
b1000 q
b1000 !"
1$
#21000
b1000 2
0$
#21500
0;
0%
b1001 q
0K
b0 s
0"
b1000 !"
1$
#22000
b0 R
b0 E
b0 H
b0 F
b10111000010001 G
1C
b0 L
b10111000010001 M
b0 {
b1011 /
b1001 1
b0 +
b0 8
b1101000111101111 *
b1101000111101111 7
b1001 -
b1001 9
1,
0$
#22500
0A
b1101000111101111 5
b1101000111101111 O
1S
b11 t
b1000 ""
b0 p
b1101 }
b1011100100011000 j
b1111 |
b1101000111101111 D
b1101000111101111 Q
b1101000111101111 I
b10000 z
b1101000111101111 w
b10000 x
b1101000111101111 u
b11010001111011110000000000000000000000000000000000000000000000000000000000000000000000000000000000000000000000000000000000000000 n
b0 m
b1101000111101111 f
1k
b1 s
b1000 ~
1$
#23000
bx R
bx E
b0xxxxxxxx H
bx G
0C
bx L
bx F
bx M
bx {
b1100 /
bx +
bx 8
bx *
bx 7
bx -
bx 9
0,
0$
#23500
b1001 m
0k
1$
#24000
b1101 /
0$
#24500
b0 m
1$
#25000
b1110 /
0$
#25500
1$
#26000
b0 R
b0 E
b0 H
b0 F
b10100111001 G
1C
b0 L
b1111101011000111 M
b0 {
b1111 /
b1010 1
b0 +
b0 8
b10100111001 *
b10100111001 7
b1001 -
b1001 9
1,
0$
#26500
1A
b10100111001 5
b10100111001 O
0S
b1100 t
b1000 ""
b1100000000000 p
b1101 }
b11110100101 j
b1111 |
b10100111001 D
b10100111001 Q
b10100111001 I
b10000 z
b10100111001 w
b10000 x
b10100111001 u
b101001110011101000111101111000000000000000000000000000000000000000000000000000000000000000000000000000000000000000000000000 n
b10100111001 f
1k
b10 s
b1000 ~
1$
#27000
b101001011001101 M
b1010110100110011 {
b101001011001101 G
b10000 /
b1011 1
b1010110100110011 *
b1010110100110011 7
0$
#27500
0A
b1010110100110011 5
b1010110100110011 O
1S
b0 p
b1101 }
b1111101110101010 j
b1111 |
b1010110100110011 D
b1010110100110011 Q
b1010110100110011 I
b10000 z
b1010110100110011 w
b10000 x
b1010110100110011 u
b110010 t
b1000 ""
b11 s
b1001 m
b1010110100110011 f
b10101101001100110000010100111001110100011110111100000000000000000000000000000000000000000000000000000000000000000000000000000000 n
b1000 ~
1$
#28000
bx R
bx E
b0xxxxxxxx H
bx G
0C
bx L
bx F
bx M
bx {
b10001 /
bx +
bx 8
bx *
bx 7
bx -
bx 9
0,
0$
#28500
0k
1$
#29000
b0 R
b0 E
b0 H
b0 F
b100111111110010 G
1C
b0 L
b1011000000001110 M
b0 {
b10010 /
b1100 1
b0 +
b0 8
b100111111110010 *
b100111111110010 7
b1001 -
b1001 9
1,
0$
#29500
1A
b100111111110010 5
b100111111110010 O
0S
b11001001 t
b1000 ""
b1101 }
b110100000001011 j
b1111 |
b100111111110010 D
b100111111110010 Q
b100111111110010 I
b10000 z
b100111111110010 w
b10000 x
b100111111110010 u
b1001111111100101010110100110011000001010011100111010001111011110000000000000000000000000000000000000000000000000000000000000000 n
b100 s
b0 m
b100111111110010 f
1k
b1000 ~
1$
#30000
b101111101000100 M
b1010000010111100 {
b101111101000100 G
b10011 /
b1101 1
b1010000010111100 *
b1010000010111100 7
0$
#30500
0A
b1010000010111100 5
b1010000010111100 O
1S
b1100000000 p
b1101 }
b1111000011100010 j
b1111 |
b1010000010111100 D
b1010000010111100 Q
b1010000010111100 I
b10000 z
b1010000010111100 w
b10000 x
b1010000010111100 u
b1100100110 t
b1000 ""
b1001 m
b1010000010111100 f
b101 s
b10100000101111000100111111110010101011010011001100000101001110011101000111101111000000000000000000000000000000000000000000000000 n
b1000 ~
1$
#31000
bx R
bx E
b0xxxxxxxx H
bx G
0C
bx L
bx F
bx M
bx {
b10100 /
bx +
bx 8
bx *
bx 7
bx -
bx 9
0,
0$
#31500
0k
1$
#32000
b0 R
b0 E
b0 H
b0 F
b110110101001011 G
1C
b0 L
b110110101001011 M
b0 {
b10101 /
b1110 1
b0 +
b0 8
b1001001010110101 *
b1001001010110101 7
b1001 -
b1001 9
1,
0$
#32500
b1001001010110101 5
b1001001010110101 O
b110010011010 t
b1000 ""
b0 p
b1101 }
b1101101111101111 j
b1111 |
b1001001010110101 D
b1001001010110101 Q
b1001001010110101 I
b10000 z
b1001001010110101 w
b10000 x
b1001001010110101 u
b10010010101101011010000010111100010011111111001010101101001100110000010100111001110100011110111100000000000000000000000000000000 n
b0 m
b1001001010110101 f
1k
b110 s
b1000 ~
1$
#33000
bx R
bx E
b0xxxxxxxx H
bx G
0C
bx L
bx F
bx M
bx {
b10110 /
bx +
bx 8
bx *
bx 7
bx -
bx 9
0,
0$
#33500
b1001 m
0k
1$
#34000
b0 R
b0 E
b0 H
b0 F
b110100010100 G
1C
b0 L
b110100010100 M
b0 {
b10111 /
b1111 1
b0 +
b0 8
b1111001011101100 *
b1111001011101100 7
b1001 -
b1001 9
1,
0$
#34500
b1111001011101100 5
b1111001011101100 O
1B
b11001001101011 t
b1000 ""
b1101 }
b1000101110011010 j
b1111 |
b1111001011101100 D
b1111001011101100 Q
b1111001011101100 I
b10000 z
b1111001011101100 w
b10000 x
b1111001011101100 u
b11110010111011001001001010110101101000001011110001001111111100101010110100110011000001010011100111010001111011110000000000000000 n
b0 m
b1111001011101100 f
1k
1J
b111 s
b1000 ~
1$
#35000
bx R
bx E
0B
b0xxxxxxxx H
bx G
0C
bx L
bx F
bx M
bx {
b11000 /
bx +
bx 8
bx *
bx 7
bx -
bx 9
0,
0$
#35500
b1001 m
0k
1$
#36000
b0 R
b0 E
b0 H
1B
b0 F
b111010001101001 G
1C
b0 L
b111010001101001 M
b0 {
b11001 /
b10000 1
b0 +
b0 8
b1000101110010111 *
b1000101110010111 7
b1001 -
b1001 9
1,
0$
#36500
b1000101110010111 5
b1000101110010111 O
0C
0<
b1100100110101110 t
b1000 ""
b1101 }
b1100111001011100 j
b1111 |
b1000101110010111 D
b1000101110010111 Q
b1000101110010111 I
b10000 z
b1000101110010111 w
b10000 x
b1000101110010111 u
0B
0>
b10001011100101111111001011101100100100101011010110100000101111000100111111110010101011010011001100000101001110011101000111101111 n
b0 m
b1000101110010111 f
1k
0J
b0 s
1%
b1000 ~
1$
#37000
bx R
bx E
b0xxxxxxxx H
bx G
bx L
bx F
bx M
bx {
bx +
bx 8
bx *
bx 7
bx -
bx 9
0,
0$
#37500
b1010 q
b1 s
1$
#38000
0$
#38500
b10 s
b1011 q
1$
#39000
0$
#39500
b1100 q
b11 s
1$
#40000
0$
#40500
b100 s
b1101 q
1$
#41000
0$
#41500
b1110 q
b101 s
1$
#42000
0$
#42500
b110 s
b1111 q
1$
#43000
0$
#43500
b0 q
1J
b111 s
1$
#44000
0$
#44500
0J
1K
b1000 s
b1 q
1$
#45000
0$
#45500
1;
0%
b10 q
1$
#46000
b0 R
b0 E
b0 H
b0 F
b101001111100011 G
b0 L
b101001111100011 M
b0 {
b11010 /
b10001 1
b0 +
b0 8
b1010110000011101 *
b1010110000011101 7
b1001 -
b1001 9
1,
0$
#46500
b1010110000011101 5
b1010110000011101 O
b100100010011100 t
b1000 ""
b1100000 p
b1101 }
b1111101000010011 j
b1111 |
b1010110000011101 D
b1010110000011101 Q
b1010110000011101 I
b10000 z
b1010110000011101 w
b10000 x
b1010110000011101 u
b101110010111001100101110110000010010101101010010000010111100000011111111001000101101001100110000010100111001000100011110111100 n
b1001 m
b1010110000011101 f
b1000 !"
1$
#47000
b110100001101110 G
b110100001101110 M
b1001011110010010 {
b11011 /
b10010 1
b1001011110010010 *
b1001011110010010 7
0$
#47500
b1001011110010010 5
b1001011110010010 O
b1111100000010 t
b1000 ""
b0 p
b1101 }
b1101110001011011 j
b1111 |
b1001011110010010 D
b1001011110010010 Q
b1001011110010010 I
b10000 z
b1001011110010010 w
b10000 x
b1001011110010010 u
b10111001011100000010111011000000001010110101000000001011110000001111111100100000110100110011000001010011100100000001111011110000 n
b1001011110010010 f
b1000 !"
1$
#48000
bx R
bx E
b0xxxxxxxx H
bx G
bx L
bx F
bx M
bx {
b11100 /
bx +
bx 8
bx *
bx 7
bx -
bx 9
0,
0$
#48500
b101011100101011 t
b1000 ""
b11100101110000001011101100000000101011010100000000101111000000001111110010000000010011001100000001001110010000000111101111000000 n
0k
b1000 !"
1$
#49000
b11101 /
0$
#49500
b1100001110101110 t
b1000 ""
b10010111000000001110110000000000101101010000000010111100000000001111001000000000001100110000000000111001000000001110111100000000 n
b0 m
b1000 !"
1$
#50000
b11110 /
0$
#50500
b1011111111111001 t
b1000 ""
b1011100000000001011000000000000110101000000000011110000000000001100100000000000110011000000000011100100000000001011110000000000 n
b1000 !"
1$
#51000
b0 R
b0 E
b0 H
b0 F
b1111000000011 G
b0 L
b1110000111111101 M
b0 {
b11111 /
b10011 1
b0 +
b0 8
b1111000000011 *
b1111000000011 7
b1001 -
b1001 9
1,
0$
#51500
1A
b1111000000011 5
b1111000000011 O
0S
b1110000011011101 t
b1000 ""
b111100 p
b1101 }
b1000100000010 j
b1111 |
b1111000000011 D
b1111000000011 Q
b1111000000011 I
b10000 z
b1111000000011 w
b10000 x
b1111000000011 u
b1110000000000001100000000000000010100000000000011000000000000000010000000000000001100000000000010010000000000001111000000000000 n
b1111000000011 f
1k
b1000 !"
1$
#52000
bx R
bx E
b0xxxxxxxx H
bx L
bx F
bx M
bx {
bx G
b100000 /
bx +
bx 8
bx *
bx 7
bx -
bx 9
0,
0$
#52500
b1101111000010011 t
b1000 ""
b11000000000000000000000000000000010000000000000000000000000000001000000000000000110000000000000001000000000000001100000000000000 n
b1001 m
0k
b1000 !"
1$
#53000
b0 R
b0 E
b0 H
b0 F
b10011011011001 G
b0 L
b1101100100100111 M
b0 {
b100001 /
b10100 1
b0 +
b0 8
b10011011011001 *
b10011011011001 7
b1001 -
b1001 9
1,
0$
#53500
b10011011011001 5
b10011011011001 O
b0 t
b1000 ""
b0 p
b1101 }
b11010110110101 j
b1111 |
b10011011011001 D
b10011011011001 Q
b10011011011001 I
b10000 z
b10011011011001 w
b10000 x
b10011011011001 u
b0 n
b0 m
b10011011011001 f
1k
b1000 !"
1$
#54000
b1010100011010001 M
b101011100101111 {
b101011100101111 G
b100010 /
b10101 1
b101011100101111 *
b101011100101111 7
0$
#54500
b101011100101111 5
b101011100101111 O
b1101 }
b111110010111000 j
b1111 |
b101011100101111 D
b101011100101111 Q
b101011100101111 I
b10000 z
b101011100101111 w
b10000 x
b101011100101111 u
b1001 m
b101011100101111 f
b1000 !"
1$
#55000
b1100111111100101 M
b11000000011011 {
b11000000011011 G
b100011 /
b10110 1
b11000000011011 *
b11000000011011 7
0$
#55500
b11000000011011 5
b11000000011011 O
b111100000 p
b1101 }
b10100000010110 j
b1111 |
b11000000011011 D
b11000000011011 Q
b11000000011011 I
b10000 z
b11000000011011 w
b10000 x
b11000000011011 u
b11000000011011 f
b1000 !"
1$
#56000
b11001000011111 M
b1100110111100001 {
b11001000011111 G
b100100 /
b10111 1
b1100110111100001 *
b1100110111100001 7
0$
#56500
0A
b1100110111100001 5
b1100110111100001 O
1S
b10 p
b1101 }
b1010101100010001 j
b1111 |
b1100110111100001 D
b1100110111100001 Q
b1100110111100001 I
b10000 z
b1100110111100001 w
b10000 x
b1100110111100001 u
b1100110111100001 f
b1000 !"
1$
#57000
bx R
bx E
b0xxxxxxxx H
bx G
bx L
bx F
bx M
bx {
b100101 /
bx +
bx 8
bx *
bx 7
bx -
bx 9
0,
0$
#57500
0k
b1000 !"
1$
#58000
b0 R
b0 E
b0 H
b0 F
b10110101111010 G
b0 L
b10110101111010 M
b0 {
b100110 /
b11000 1
b0 +
b0 8
b1101001010000110 *
b1101001010000110 7
b1001 -
b1001 9
1,
0$
#58500
b1101001010000110 5
b1101001010000110 O
b1000 p
b1101 }
b1011101111000101 j
b1111 |
b1101001010000110 D
b1101001010000110 Q
b1101001010000110 I
b10000 z
b1101001010000110 w
b10000 x
b1101001010000110 u
b0 m
b1101001010000110 f
1k
b1000 !"
1$
#59000
b100101000110000 G
b1011010111010000 M
b100101000110000 {
b100111 /
b11001 1
b100101000110000 *
b100101000110000 7
0$
#59500
1A
b100101000110000 5
b100101000110000 O
0S
b1 p
b1101 }
b110111100101000 j
b1111 |
b100101000110000 D
b100101000110000 Q
b100101000110000 I
b10000 z
b100101000110000 w
b10000 x
b100101000110000 u
b1001 m
b100101000110000 f
b1000 !"
1$
#60000
bx R
bx E
b0xxxxxxxx H
bx L
bx F
bx M
bx {
bx G
b101000 /
bx +
bx 8
bx *
bx 7
bx -
bx 9
0,
0$
#60500
0k
b1000 !"
1$
#61000
b0 R
b0 E
b0 H
b0 F
b110110011110111 G
b0 L
b110110011110111 M
b0 {
b101001 /
b11010 1
b0 +
b0 8
b1001001100001001 *
b1001001100001001 7
b1001 -
b1001 9
1,
0$
#61500
0A
b1001001100001001 5
b1001001100001001 O
1S
b10000 p
b1101 }
b1101101010001101 j
b1111 |
b1001001100001001 D
b1001001100001001 Q
b1001001100001001 I
b10000 z
b1001001100001001 w
b10000 x
b1001001100001001 u
b0 m
b1001001100001001 f
1k
b1000 !"
1$
#62000
b11110110110000 G
b1100001001010000 M
b11110110110000 {
b101010 /
b11011 1
b11110110110000 *
b11110110110000 7
0$
#62500
1A
b11110110110000 5
b11110110110000 O
0S
b1 p
b1101 }
b10001101101000 j
b1111 |
b11110110110000 D
b11110110110000 Q
b11110110110000 I
b10000 z
b11110110110000 w
b10000 x
b11110110110000 u
b1001 m
b11110110110000 f
b1000 !"
1$
#63000
b101001001111010 M
b1010110110000110 {
b101001001111010 G
b101011 /
b11100 1
b1010110110000110 *
b1010110110000110 7
0$
#63500
0A
b1010110110000110 5
b1010110110000110 O
1S
b1000 p
b1101 }
b1111101101000101 j
b1111 |
b1010110110000110 D
b1010110110000110 Q
b1010110110000110 I
b10000 z
b1010110110000110 w
b10000 x
b1010110110000110 u
b1010110110000110 f
b1000 !"
1$
#64000
bx R
bx E
b0xxxxxxxx H
bx G
bx L
bx F
bx M
bx {
b101100 /
bx +
bx 8
bx *
bx 7
bx -
bx 9
0,
0$
#64500
0k
b1000 !"
1$
#65000
b0 R
b0 E
b0 H
b0 F
b110010010100 G
b0 L
b110010010100 M
b0 {
b101101 /
b11101 1
b0 +
b0 8
b1111001101101100 *
b1111001101101100 7
b1001 -
b1001 9
1,
0$
#65500
b1111001101101100 5
b1111001101101100 O
b0 p
b1101 }
b1000101011011010 j
b1111 |
b1111001101101100 D
b1111001101101100 Q
b1111001101101100 I
b10000 z
b1111001101101100 w
b10000 x
b1111001101101100 u
b0 m
b1111001101101100 f
1k
b1000 !"
1$
#66000
b111110000010010 G
b111110000010010 M
b1000001111101110 {
b101110 /
b11110 1
b1000001111101110 *
b1000001111101110 7
0$
#66500
b1000001111101110 5
b1000001111101110 O
b110000000000 p
b1101 }
b1100001000011001 j
b1111 |
b1000001111101110 D
b1000001111101110 Q
b1000001111101110 I
b10000 z
b1000001111101110 w
b10000 x
b1000001111101110 u
b1001 m
b1000001111101110 f
b1000 !"
1$
#67000
b110010001000000 G
b1001101111000000 M
b110010001000000 {
b101111 /
b11111 1
b110010001000000 *
b110010001000000 7
0$
#67500
1A
b110010001000000 5
b110010001000000 O
0S
b111 p
b1101 }
b101011001100000 j
b1111 |
b110010001000000 D
b110010001000000 Q
b110010001000000 I
b10000 z
b110010001000000 w
b10000 x
b110010001000000 u
b110010001000000 f
b1000 !"
1$
#68000
bx R
bx E
b0xxxxxxxx H
bx L
bx F
bx M
bx {
bx G
b110000 /
bx +
bx 8
bx *
bx 7
bx -
bx 9
0,
0$
#68500
0k
b1000 !"
1$
#69000
b110001 /
0$
#69500
b0 m
b1000 !"
1$
#70000
b0 R
b0 E
b0 H
b0 F
b100010100001000 G
b0 L
b100010100001000 M
b0 {
b110010 /
b100000 1
b0 +
b0 8
b1011101011111000 *
b1011101011111000 7
b1001 -
b1001 9
1,
0$
#70500
0A
b1011101011111000 5
b1011101011111000 O
1S
b0 p
b1101 }
b1110011110000100 j
b1111 |
b1011101011111000 D
b1011101011111000 Q
b1011101011111000 I
b10000 z
b1011101011111000 w
b10000 x
b1011101011111000 u
b1011101011111000 f
1k
b1000 !"
1$
#71000
b110101000100101 G
b110101000100101 M
b1001010111011011 {
b110011 /
b100001 1
b1001010111011011 *
b1001010111011011 7
0$
#71500
b1001010111011011 5
b1001010111011011 O
b1101 }
b1101111100110110 j
b1111 |
b1001010111011011 D
b1001010111011011 Q
b1001010111011011 I
b10000 z
b1001010111011011 w
b10000 x
b1001010111011011 u
b1001 m
b1001010111011011 f
b1000 !"
1$
#72000
b111011000010001 G
b111011000010001 M
b1000100111101111 {
b110100 /
b100010 1
b1000100111101111 *
b1000100111101111 7
0$
