1141_hw1/00_TESTBED/alu.vcd
$date
	Sun Sep 28 02:40:12 2025
$end
$version
	Icarus Verilog
$end
$timescale
	10ps
$end
$scope module testbench $end
$var wire 1 ! rst_n $end
$var wire 1 " out_valid $end
$var wire 16 # odata [15:0] $end
$var wire 1 $ clk $end
$var wire 1 % busy $end
$var reg 16 & idata_a [15:0] $end
$var reg 16 ' idata_b [15:0] $end
$var reg 1 ( in_valid $end
$var reg 4 ) inst [3:0] $end
$var integer 32 * errors [31:0] $end
$var integer 32 + i [31:0] $end
$var integer 32 , input_end [31:0] $end
$var integer 32 - j [31:0] $end
$var integer 32 . k [31:0] $end
$var integer 32 / output_end [31:0] $end
$var integer 32 0 total_errors [31:0] $end
$scope module u_alu $end
$var wire 16 1 add_in_a [15:0] $end
$var wire 1 2 clz_done $end
$var wire 1 3 clz_start $end
$var wire 36 4 data_acc_in [35:0] $end
$var wire 1 5 data_acc_update $end
$var wire 16 6 i_data_a [15:0] $end
$var wire 16 7 i_data_b [15:0] $end
$var wire 1 ( i_in_valid $end
$var wire 4 8 i_inst [3:0] $end
$var wire 1 9 is_final_clz_count $end
$var wire 1 : is_final_lrcw_count $end
$var wire 1 ; is_final_rot_count $end
$var wire 1 < lrcw_done $end
$var wire 1 = lrcw_start $end
$var wire 36 > mac_add_in_a [35:0] $end
$var wire 1 ? mac_mult_sign $end
$var wire 1 @ mac_overflow $end
$var wire 1 A mac_sign_eq $end
$var wire 1 B matrix_out_update $end
$var wire 1 C o_data_update $end
$var wire 1 D o_data_update_add $end
$var wire 1 E o_data_update_clz $end
$var wire 1 F o_data_update_gray $end
$var wire 1 G o_data_update_lrcw $end
$var wire 1 H o_data_update_mac $end
$var wire 1 I o_data_update_rm4 $end
$var wire 1 J o_data_update_rot $end
$var wire 1 K o_data_update_trans $end
$var wire 1 L overflow $end
$var wire 1 M rot_done $end
$var wire 1 N rot_start $end
$var wire 1 O sign_eq $end
$var wire 1 P trans_done $end
$var wire 1 Q trans_ready $end
$var wire 1 R trans_start $end
$var wire 17 S sum [16:0] $end
$var wire 1 T sign_mac_add_out $end
$var wire 26 U posvalue_rounded [25:0] $end
$var wire 36 V posvalue [35:0] $end
$var wire 16 W mult_in_b [15:0] $end
$var wire 16 X mult_in_a [15:0] $end
$var wire 32 Y mult_full [31:0] $end
$var wire 37 Z mac_sum [36:0] $end
$var wire 16 [ mac_out [15:0] $end
$var wire 1 \ mac_add_out_overflow $end
$var wire 36 ] mac_add_out [35:0] $end
$var wire 36 ^ mac_add_in_b [35:0] $end
$var wire 16 _ lrcw_out [15:0] $end
$var wire 1 ` is_finalm1_trans_count $end
$var wire 1 a is_final_trans_count $end
$var wire 1 ! i_rst_n $end
$var wire 1 $ i_clk $end
$var wire 26 b comp_posvalue_rounded [25:0] $end
$var wire 36 c comp_mac_add_out [35:0] $end
$var wire 16 d comp_i_data_b [15:0] $end
$var wire 16 e comp_i_data_a [15:0] $end
$var wire 16 f clz_out [15:0] $end
$var wire 16 g add_out [15:0] $end
$var wire 16 h add_in_b [15:0] $end
$var wire 32 i ab_reg_in [31:0] $end
$var reg 16 j a_reg [15:0] $end
$var reg 32 k ab_reg [31:0] $end
$var reg 16 l b_reg [15:0] $end
$var reg 4 m clz_count [3:0] $end
$var reg 36 n data_acc [35:0] $end
$var reg 16 o gray_out [15:0] $end
$var reg 1 p in_valid_reg $end
$var reg 4 q inst_reg_1 [3:0] $end
$var reg 4 r inst_reg_2 [3:0] $end
$var reg 16 s lrcw_b_reg [15:0] $end
$var reg 4 t lrcw_count [3:0] $end
$var reg 128 u matrix_flat [127:0] $end
$var reg 1 % o_busy $end
$var reg 16 v o_data [15:0] $end
$var reg 1 " o_out_valid $end
$var reg 16 w rm4_out [15:0] $end
$var reg 4 x rot_count [3:0] $end
$var reg 16 y rot_out [15:0] $end
$var reg 4 z trans_count [3:0] $end
$var reg 16 { trans_out [15:0] $end
$scope function twos_complement $end
$var reg 16 | in_data [15:0] $end
$upscope $end
$scope function twos_complement26 $end
$var reg 26 } in_data26 [25:0] $end
$upscope $end
$scope function twos_complement32 $end
$var reg 32 ~ in_data32 [31:0] $end
$upscope $end
$scope function twos_complement36 $end
$var reg 36 !" in_data36 [35:0] $end
$upscope $end
$scope begin $ivl_for_loop0 $end
$var integer 32 "" i [31:0] $end
$upscope $end
$scope begin $ivl_for_loop1 $end
$var integer 32 #" i [31:0] $end
$upscope $end
$scope begin $ivl_for_loop2 $end
$var integer 32 $" j [31:0] $end
$upscope $end
$scope begin $ivl_for_loop3 $end
$var integer 32 %" i [31:0] $end
$upscope $end
$scope begin $ivl_for_loop4 $end
$var integer 32 &" i [31:0] $end
$upscope $end
$upscope $end
$scope module u_clk_gen $end
$var reg 1 $ clk $end
$var reg 1 '" rst $end
$var reg 1 ! rst_n $end
$upscope $end
$scope task validate $end
$upscope $end
$upscope $end
$enddefinitions $end
#0
$dumpvars
0'"
bx &"
bx %"
bx $"
bx #"
bx ""
bx !"
bx ~
bx }
bx |
bx {
bx z
bx y
bx x
bx w
bx v
bx u
bx t
bx s
bx r
bx q
xp
bx o
bx n
bx m
bx l
bx k
bx j
bx i
bx h
bx g
b0xxxxx f
bx e
bx d
bx c
bx b
xa
x`
bx _
bx ^
bx ]
x\
bx [
bx Z
bx Y
bx X
bx W
bx V
bx U
xT
bx S
xR
xQ
xP
xO
xN
xM
xL
xK
xJ
xI
xH
xG
xF
xE
xD
xC
xB
xA
x@
x?
bx >
x=
x<
x;
x:
x9
bx 8
bx 7
bx 6
x5
bx 4
x3
x2
bx 1
bx 0
b0 /
bx .
bx -
b0 ,
bx +
bx *
bx )
x(
bx '
bx &
x%
0$
bx #
x"
1!
$end
#250
b0 [
0C
b0 b
b0 }
0\
b0 U
b0 c
b0 V
b0 !"
0T
0@
0L
b0 4
b0 ]
1A
1O
b0 g
b0 Z
0?
b0 {
b1000 &"
0D
0<
0:
0M
0;
02
09
05
0H
0F
0I
0G
0J
0E
b0 S
b0 h
b1111111111111 w
b1101 #"
b0 o
b1111 ""
b0 _
b10000 f
0P
0B
0K
b0 s
b0 t
b0 y
b0 x
b0 m
b0 u
0`
0a
b0 z
0p
b0 q
b0 l
b0 1
b0 j
b0 >
b0 n
b0 ^
b0 k
b0 #
b0 v
0"
0%
b0 ~
b0 i
0Q
b0 Y
b0 W
b0 X
b0 d
b0 e
b0 |
0=
0N
03
0R
b0 '
b0 7
b0 &
b0 6
b0 )
b0 8
0(
0!
1'"
#500
1$
#1000
0$
#1500
1$
#2000
0$
1!
0'"
#2500
b0 r
b0 .
b0 -
b0 +
1$
#3000
b11110111000110111100011100110000 i
b1000111001000011100011010000 ~
b1100111010010 d
b1000111001000011100011010000 Y
b1100111010010 W
b1010011111011000 e
b1110011000101110 |
b101100000101000 X
1=
b1 +
b1 -
b1110011000101110 '
b1110011000101110 7
b101100000101000 &
b101100000101000 6
b101 )
b101 8
1(
0$
#3500
b1100011011110010 [
0C
0\
1T
b11111111011100011011110010 b
b100011100100001110 }
0A
b100011100100001110 U
b1110011000101110 _
0O
0G
b1000111001000011100011010000 c
b111111110111000110111100011100110000 !"
b1000111001000011100011010000 V
1?
b11111001010110 g
b111111110111000110111100011100110000 4
b111111110111000110111100011100110000 ]
0=
b1110011000101110 h
b0 w
b1101 #"
b111010000111100 o
b1111 ""
b0 f
0<
0:
0D
b1110011000101110 s
b1110011000101110 l
b10011111001010110 S
b101100000101000 1
b101100000101000 j
b101 q
1p
b111111110111000110111100011100110000 Z
b111111110111000110111100011100110000 ^
b11110111000110111100011100110000 k
1%
1$
#4000
bx i
bx W
bx ~
bx d
bx e
bx |
bx Y
bx X
bx '
bx 7
bx &
bx 6
bx )
bx 8
0(
0$
#4500
b1 f
b1 m
b1 x
b1 t
1$
#5000
0$
#5500
b10 f
b10 t
b10 x
b10 m
1$
#6000
0$
#6500
b1100110001011100 _
b11 f
b11 m
b11 x
b11 t
1$
#7000
0$
#7500
b100 f
b1100110001011100 s
b100 t
b100 x
b100 m
1$
#8000
0$
#8500
b1001100010111000 _
b101 f
b101 m
b101 x
b101 t
1$
#9000
0$
#9500
b110 f
b1001100010111000 s
b110 t
b110 x
b110 m
1$
#10000
0$
#10500
b111 f
b111 m
b111 x
b111 t
1$
#11000
0$
#11500
b1000 f
b1000 t
b1000 x
b1000 m
1$
#12000
0$
#12500
b1001 f
b1001 m
b1001 x
b1001 t
1$
#13000
0$
#13500
b1010 f
b1010 t
b1010 x
b1010 m
1$
#14000
0$
#14500
b11000101110000 _
b1011 f
b1011 m
b1011 x
b1011 t
1$
#15000
0$
#15500
b110001011100001 _
b1100 f
b11000101110000 s
b1100 t
b1100 x
b1100 m
1$
#16000
0$
#16500
b1101 f
b1101 m
b1101 x
b1101 t
b110001011100001 s
1$
#17000
0$
#17500
b1100010111000011 _
b1110 f
b1110 t
b1110 x
b1110 m
1$
#18000
0$
#18500
1C
1G
1<
1:
b1111 f
b1111 m
b1111 x
b1111 t
b1100010111000011 s
1$
#19000
0$
#19500
0C
0<
0:
0G
b0 f
b0 t
b0 x
b0 m
0p
b1100010111000011 #
b1100010111000011 v
1"
0%
1$
#20000
b100000111110000111110110000 ~
b100000111110000111110110000 i
b100000111110000111110110000 Y
b101101001000 W
b101110110000110 X
b101101001000 d
b101110110000110 e
b1111010010111000 |
1=
b10 +
b10 -
b1111010010111000 '
b1111010010111000 7
b1010001001111010 &
b1010001001111010 6
b101 )
b101 8
1(
b1 .
0$
#20500
b11111000100 [
b11111111101111100000111100 b
b10000011111000100 }
b10000011111000100 U
0T
b100000111110000111110110000 V
1A
b111111111011111000001111000001010000 c
b100000111110000111110110000 !"
b1111010010111000 _
0=
b100000111110000111110110000 4
b100000111110000111110110000 ]
0?
1O
b1001011100110010 g
b1111010010111000 h
b1101 #"
b1111001101000111 o
b1111 ""
1%
0"
b100000111110000111110110000 Z
b100000111110000111110110000 ^
b100000111110000111110110000 k
b1111010010111000 l
b11001011100110010 S
b1010001001111010 1
b1010001001111010 j
1p
b1111010010111000 s
1$
#21000
bx ~
bx i
bx W
bx Y
bx X
bx d
bx e
bx |
bx '
bx 7
bx &
bx 6
bx )
bx 8
0(
0$
#21500
b1110100101110000 _
b1 f
b1 t
b1 x
b1 m
1$
#22000
0$
#22500
b10 f
b10 m
b10 x
b10 t
b1110100101110000 s
1$
#23000
0$
#23500
b1101001011100000 _
b11 f
b11 t
b11 x
b11 m
1$
#24000
0$
#24500
b1010010111000000 _
b100 f
b100 m
b100 x
b100 t
b1101001011100000 s
1$
#25000
0$
#25500
b100101110000000 _
b101 f
b1010010111000000 s
b101 t
b101 x
b101 m
1$
#26000
0$
#26500
b1001011100000001 _
b110 f
b110 m
b110 x
b110 t
b100101110000000 s
1$
#27000
0$
#27500
b111 f
b1001011100000001 s
b111 t
b111 x
b111 m
1$
#28000
0$
#28500
b1000 f
b1000 m
b1000 x
b1000 t
1$
#29000
0$
#29500
b10111000000010 _
b1001 f
b1001 t
b1001 x
b1001 m
1$
#30000
0$
#30500
b1010 f
b1010 m
b1010 x
b1010 t
b10111000000010 s
1$
#31000
0$
#31500
b1011 f
b1011 t
b1011 x
b1011 m
1$
#32000
0$
#32500
b1100 f
b1100 m
b1100 x
b1100 t
1$
#33000
0$
#33500
b101110000000101 _
b1101 f
b1101 t
b1101 x
b1101 m
1$
#34000
0$
#34500
b1110 f
b1110 m
b1110 x
b1110 t
b101110000000101 s
1$
#35000
0$
#35500
1C
1G
1<
1:
b1011100000001011 _
b1111 f
b1111 t
b1111 x
b1111 m
1$
#36000
0$
#36500
0C
0<
0:
0G
b0 f
0%
1"
b1011100000001011 #
b1011100000001011 v
0p
b0 m
b0 x
b0 t
b1011100000001011 s
1$
#37000
b11101010111010100010011100000 ~
b11101010111010100010011100000 i
b11101010111010100010011100000 Y
b101001101011010 W
b101101000110000 X
b1010110010100110 d
b1010010111010000 e
b101001101011010 |
1=
b11 +
b11 -
b101001101011010 '
b101001101011010 7
b101101000110000 &
b101101000110000 6
b101 )
b101 8
1(
b10 .
0$
#37500
b101011101010001 [
b11111110001010100010101111 b
b1110101011101010001 }
1L
b1110101011101010001 U
b101001101011010 _
b111111100010101000101011101100100000 c
b11101010111010100010011100000 !"
b11101010111010100010011100000 V
1O
b111111111111111 g
b11101010111010100010011100000 4
b11101010111010100010011100000 ]
0=
b101001101011010 h
b10000010000 w
b1101 #"
b111011100101000 o
b1111 ""
b101001101011010 s
b101001101011010 l
b1010110110001010 S
b101101000110000 1
b101101000110000 j
1p
b11101010111010100010011100000 Z
b11101010111010100010011100000 ^
b11101010111010100010011100000 k
0"
1%
1$
#38000
bx ~
bx i
bx d
bx W
bx e
bx |
bx Y
bx X
b100 +
bx '
bx 7
bx &
bx 6
bx )
bx 8
0(
0$
#38500
b1 f
b1 m
b1 x
b1 t
1$
#39000
0$
#39500
b10 f
b10 t
b10 x
b10 m
1$
#40000
0$
#40500
b11 f
b11 m
b11 x
b11 t
1$
#41000
0$
#41500
b1010011010110101 _
b100 f
b100 t
b100 x
b100 m
1$
#42000
0$
#42500
b100110101101010 _
b101 f
b101 m
b101 x
b101 t
b1010011010110101 s
1$
#43000
0$
#43500
b110 f
b100110101101010 s
b110 t
b110 x
b110 m
1$
#44000
0$
#44500
b111 f
b111 m
b111 x
b111 t
1$
#45000
0$
#45500
b1000 f
b1000 t
b1000 x
b1000 m
1$
#46000
0$
#46500
b1001101011010101 _
b1001 f
b1001 m
b1001 x
b1001 t
1$
#47000
0$
#47500
b1010 f
b1001101011010101 s
b1010 t
b1010 x
b1010 m
1$
#48000
0$
#48500
b11010110101010 _
b1011 f
b1011 m
b1011 x
b1011 t
1$
#49000
0$
#49500
b110101101010101 _
b1100 f
b11010110101010 s
b1100 t
b1100 x
b1100 m
1$
#50000
0$
#50500
b1101 f
b1101 m
b1101 x
b1101 t
b110101101010101 s
1$
#51000
0$
#51500
b1101011010101011 _
b1110 f
b1110 t
b1110 x
b1110 m
1$
#52000
0$
#52500
1C
1G
1<
1:
b1111 f
b1111 m
b1111 x
b1111 t
b1101011010101011 s
1$
#53000
0$
#53500
0C
0<
0:
0G
b0 f
b0 t
b0 x
b0 m
0p
b1101011010101011 #
b1101011010101011 v
1"
0%
1$
#54000
b11001001001101111010010011110 ~
b11001001001101111010010011110 i
b11001001001101111010010011110 Y
b110110101000010 W
b11101011101111 X
b1001001010111110 d
b1100010100010001 e
b110110101000010 |
1=
b101 +
b100 -
b110110101000010 '
b110110101000010 7
b11101011101111 &
b11101011101111 6
b101 )
b101 8
1(
b11 .
0$
#54500
b100100110111101 [
b11111110011011011001000011 b
b1100100100110111101 }
b1100100100110111101 U
b111111100110110110010000101101100010 c
b11001001001101111010010011110 !"
b11001001001101111010010011110 V
b1101101010000101 _
0=
b11001001001101111010010011110 4
b11001001001101111010010011110 ]
b110110101000010 h
b100 w
b1101 #"
b10011110011000 o
b1111 ""
1%
0"
b11001001001101111010010011110 Z
b11001001001101111010010011110 ^
b11001001001101111010010011110 k
b110110101000010 l
b1010100000110001 S
b11101011101111 1
b11101011101111 j
1p
b110110101000010 s
1$
#55000
bx ~
bx i
bx d
bx W
bx e
bx |
bx Y
bx X
bx '
bx 7
bx &
bx 6
bx )
bx 8
0(
0$
#55500
b1011010100001010 _
b1 f
b1101101010000101 s
b1 t
b1 x
b1 m
1$
#56000
0$
#56500
b110101000010100 _
b10 f
b10 m
b10 x
b10 t
b1011010100001010 s
1$
#57000
0$
#57500
b1101010000101001 _
b11 f
b110101000010100 s
b11 t
b11 x
b11 m
1$
#58000
0$
#58500
b100 f
b100 m
b100 x
b100 t
b1101010000101001 s
1$
#59000
0$
#59500
b1010100001010010 _
b101 f
b101 t
b101 x
b101 m
1$
#60000
0$
#60500
b101000010100100 _
b110 f
b110 m
b110 x
b110 t
b1010100001010010 s
1$
#61000
0$
#61500
b1010000101001001 _
b111 f
b101000010100100 s
b111 t
b111 x
b111 m
1$
#62000
0$
#62500
b1000 f
b1000 m
b1000 x
b1000 t
b1010000101001001 s
1$
#63000
0$
#63500
b100001010010010 _
b1001 f
b1001 t
b1001 x
b1001 m
1$
#64000
0$
#64500
b1010 f
b1010 m
b1010 x
b1010 t
b100001010010010 s
1$
#65000
0$
#65500
b1000010100100101 _
b1011 f
b1011 t
b1011 x
b1011 m
1$
#66000
0$
#66500
b101001001010 _
b1100 f
b1100 m
b1100 x
b1100 t
b1000010100100101 s
1$
#67000
0$
#67500
b1010010010101 _
b1101 f
b101001001010 s
b1101 t
b1101 x
b1101 m
1$
#68000
0$
#68500
b1110 f
b1110 m
b1110 x
b1110 t
b1010010010101 s
1$
#69000
0$
#69500
1C
1G
1<
1:
b1111 f
b1111 t
b1111 x
b1111 m
1$
#70000
0$
#70500
0C
0<
0:
b10100100101011 _
0G
b0 f
0%
1"
b1010010010101 #
b1010010010101 v
0p
b0 m
b0 x
b0 t
1$
#71000
b11010110111111110101010110110000 i
b101001000000001010101001010000 ~
b101001000000001010101001010000 Y
b110001101001000 W
b110100110111010 X
b1001110010111000 d
b110100110111010 e
b110001101001000 |
1=
b110 +
b101 -
b110001101001000 '
b110001101001000 7
b1001011001000110 &
b1001011001000110 6
b101 )
b101 8
1(
b100 .
0$
#71500
b1011111111010101 [
0\
1T
b11111101011011111111010101 b
b10100100000000101011 }
0A
b10100100000000101011 U
b110001101001000 _
0L
b1111100110001110 g
b101001000000001010101001010000 c
b111111010110111111110101010110110000 !"
b101001000000001010101001010000 V
1?
0O
b111111010110111111110101010110110000 4
b111111010110111111110101010110110000 ]
0=
b110001101001000 h
b1 w
b1101 #"
b1101110101100101 o
b1111 ""
b110001101001000 s
b110001101001000 l
b1111100110001110 S
b1001011001000110 1
b1001011001000110 j
1p
b111111010110111111110101010110110000 Z
b111111010110111111110101010110110000 ^
b11010110111111110101010110110000 k
0"
1%
1$
#72000
bx i
bx ~
bx X
bx d
bx Y
bx W
bx e
bx |
b111 +
bx '
bx 7
bx &
bx 6
bx )
bx 8
0(
0$
#72500
b1100011010010001 _
b1 f
b1 m
b1 x
b1 t
1$
#73000
0$
#73500
b1000110100100010 _
b10 f
b1100011010010001 s
b10 t
b10 x
b10 m
1$
#74000
0$
#74500
b11 f
b11 m
b11 x
b11 t
b1000110100100010 s
1$
#75000
0$
#75500
b100 f
b100 t
b100 x
b100 m
1$
#76000
0$
#76500
b101 f
b101 m
b101 x
b101 t
1$
#77000
0$
#77500
b1101001000100 _
b110 f
b110 t
b110 x
b110 m
1$
#78000
0$
#78500
b111 f
b111 m
b111 x
b111 t
b1101001000100 s
1$
#79000
0$
#79500
b1000 f
b1000 t
b1000 x
b1000 m
1$
#80000
0$
#80500
b11010010001001 _
b1001 f
b1001 m
b1001 x
b1001 t
1$
#81000
0$
#81500
b110100100010011 _
b1010 f
b11010010001001 s
b1010 t
b1010 x
b1010 m
1$
#82000
0$
#82500
b1011 f
b1011 m
b1011 x
b1011 t
b110100100010011 s
1$
#83000
0$
#83500
b1101001000100111 _
b1100 f
b1100 t
b1100 x
b1100 m
1$
#84000
0$
#84500
b1101 f
b1101 m
b1101 x
b1101 t
b1101001000100111 s
1$
#85000
0$
#85500
b1110 f
b1110 t
b1110 x
b1110 m
1$
#86000
0$
#86500
1C
1G
1<
1:
b1010010001001110 _
b1111 f
b1111 m
b1111 x
b1111 t
1$
#87000
0$
#87500
0C
0<
0:
0G
b0 f
b1010010001001110 s
b0 t
b0 x
b0 m
0p
b1010010001001110 #
b1010010001001110 v
1"
0%
1$
#88000
b1010001000100111101110 ~
b1010001000100111101110 i
b1010001000100111101110 Y
b101001100000110 W
b1111101 X
b1010110011111010 d
b1111111110000011 e
b101001100000110 |
1=
b1000 +
b110 -
b101001100000110 '
b101001100000110 7
b1111101 &
b1111101 6
b101 )
b101 8
1(
b101 .
0$
#88500
b101000100010 [
b11111111111111010111011110 b
b101000100010 }
b101000100010 U
0T
b1010001000100111101110 V
1A
b111111111111110101110111011000010010 c
b1010001000100111101110 !"
b1010011000001101 _
0=
b1010001000100111101110 4
b1010001000100111101110 ]
0?
1O
b101001110000011 g
b101001100000110 h
b1100000000 w
b1101 #"
b1000011 o
b1111 ""
1%
0"
b1010001000100111101110 Z
b1010001000100111101110 ^
b1010001000100111101110 k
b101001100000110 l
b101001110000011 S
b1111101 1
b1111101 j
1p
b101001100000110 s
1$
#89000
bx ~
bx i
bx d
bx W
bx e
bx |
bx Y
bx X
bx '
bx 7
bx &
bx 6
bx )
bx 8
0(
0$
#89500
b1 f
b1010011000001101 s
b1 t
b1 x
b1 m
1$
#90000
0$
#90500
b100110000011010 _
b10 f
b10 m
b10 x
b10 t
1$
#91000
0$
#91500
b1001100000110101 _
b11 f
b100110000011010 s
b11 t
b11 x
b11 m
1$
#92000
0$
#92500
b11000001101010 _
b100 f
b100 m
b100 x
b100 t
b1001100000110101 s
1$
#93000
0$
#93500
b110000011010101 _
b101 f
b11000001101010 s
b101 t
b101 x
b101 m
1$
#94000
0$
#94500
b1100000110101011 _
b110 f
b110 m
b110 x
b110 t
b110000011010101 s
1$
#95000
0$
#95500
b111 f
b1100000110101011 s
b111 t
b111 x
b111 m
1$
#96000
0$
#96500
b1000 f
b1000 m
b1000 x
b1000 t
1$
#97000
0$
#97500
b1001 f
b1001 t
b1001 x
b1001 m
1$
#98000
0$
#98500
b1010 f
b1010 m
b1010 x
b1010 t
1$
#99000
0$
#99500
b1011 f
b1011 t
b1011 x
b1011 m
1$
#100000
0$
#100500
b1100 f
b1100 m
b1100 x
b1100 t
1$
#101000
0$
#101500
b1101 f
b1101 t
b1101 x
b1101 m
1$
#102000
0$
#102500
b1110 f
b1110 m
b1110 x
b1110 t
1$
#103000
0$
#103500
1C
1G
1<
1:
b1111 f
b1111 t
b1111 x
b1111 m
1$
#104000
0$
#104500
0C
0<
0:
b1000001101010110 _
0G
b0 f
0%
1"
b1100000110101011 #
b1100000110101011 v
0p
b0 m
b0 x
b0 t
1$
#105000
b110010100111110011010000000000 ~
b110010100111110011010000000000 i
b110010100111110011010000000000 Y
b111101100000000 W
b110100101011100 X
b111101100000000 d
b110100101011100 e
b1000010100000000 |
1=
b1001 +
b111 -
b1000010100000000 '
b1000010100000000 7
b1001011010100100 &
b1001011010100100 6
b101 )
b101 8
1(
b110 .
0$
#105500
b1010011111001101 [
b11111100110101100000110011 b
b11001010011111001101 }
1L
b11001010011111001101 U
b1000010100000000 _
b111111001101011000001100110000000000 c
b110010100111110011010000000000 !"
b110010100111110011010000000000 V
1O
b1000000000000000 g
b110010100111110011010000000000 4
b110010100111110011010000000000 ]
0=
b1000010100000000 h
b0 w
b1101 #"
b1101110111110110 o
b1111 ""
b1000010100000000 s
b1000010100000000 l
b10001101110100100 S
b1001011010100100 1
b1001011010100100 j
1p
b110010100111110011010000000000 Z
b110010100111110011010000000000 ^
b110010100111110011010000000000 k
0"
1%
1$
#106000
bx ~
bx i
bx W
bx Y
bx X
bx d
bx e
bx |
bx '
bx 7
bx &
bx 6
bx )
bx 8
0(
0$
#106500
b1 f
b1 m
b1 x
b1 t
1$
#107000
0$
#107500
b101000000000 _
b10 f
b10 t
b10 x
b10 m
1$
#108000
0$
#108500
b11 f
b11 m
b11 x
b11 t
b101000000000 s
1$
#109000
0$
#109500
b100 f
b100 t
b100 x
b100 m
1$
#110000
0$
#110500
b1010000000001 _
b101 f
b101 m
b101 x
b101 t
1$
#111000
0$
#111500
b110 f
b1010000000001 s
b110 t
b110 x
b110 m
1$
#112000
0$
#112500
b10100000000011 _
b111 f
b111 m
b111 x
b111 t
1$
#113000
0$
#113500
b1000 f
b10100000000011 s
b1000 t
b1000 x
b1000 m
1$
#114000
0$
#114500
b101000000000111 _
b1001 f
b1001 m
b1001 x
b1001 t
1$
#115000
0$
#115500
b1010000000001111 _
b1010 f
b101000000000111 s
b1010 t
b1010 x
b1010 m
1$
#116000
0$
#116500
b1011 f
b1011 m
b1011 x
b1011 t
b1010000000001111 s
1$
#117000
0$
#117500
b100000000011110 _
b1100 f
b1100 t
b1100 x
b1100 m
1$
#118000
0$
#118500
b1101 f
b1101 m
b1101 x
b1101 t
b100000000011110 s
1$
#119000
0$
#119500
b1110 f
b1110 t
b1110 x
b1110 m
1$
#120000
0$
#120500
1C
1G
1<
1:
b1000000000111101 _
b1111 f
b1111 m
b1111 x
b1111 t
1$
#121000
0$
#121500
0C
0<
0:
0G
b0 f
b1000000000111101 s
b0 t
b0 x
b0 m
0p
b1000000000111101 #
b1000000000111101 v
1"
0%
1$
#122000
b11111001110000101000110011001100 i
b110001111010111001100110100 ~
b110001111010111001100110100 Y
b110100101100 W
b111100101000111 X
b1111001011010100 d
b111100101000111 e
b110100101100 |
1=
b1010 +
b1000 -
b110100101100 '
b110100101100 7
b1000011010111001 &
b1000011010111001 6
b101 )
b101 8
1(
b111 .
0$
#122500
b111000010100011 [
0\
b11111111100111000010100011 b
b11000111101011101 }
b1001001111100101 g
1T
b11000111101011101 U
0L
0A
b110001111010111001100110100 c
b111111111001110000101000110011001100 !"
b110001111010111001100110100 V
0O
b1101001011001 _
0=
b111111111001110000101000110011001100 4
b111111111001110000101000110011001100 ]
1?
b110100101100 h
b1101 #"
b1100010111100101 o
b1111 ""
1%
0"
b111111111001110000101000110011001100 Z
b111111111001110000101000110011001100 ^
b11111001110000101000110011001100 k
b110100101100 l
b1001001111100101 S
b1000011010111001 1
b1000011010111001 j
1p
b110100101100 s
1$
#123000
bx i
bx ~
bx X
bx d
bx Y
bx W
bx e
bx |
bx '
bx 7
bx &
bx 6
bx )
bx 8
0(
0$
#123500
b1 f
b1101001011001 s
b1 t
b1 x
b1 m
1$
#124000
0$
#124500
b10 f
b10 m
b10 x
b10 t
1$
#125000
0$
#125500
b11010010110011 _
b11 f
b11 t
b11 x
b11 m
1$
#126000
0$
#126500
b110100101100111 _
b100 f
b100 m
b100 x
b100 t
b11010010110011 s
1$
#127000
0$
#127500
b1101001011001111 _
b101 f
b110100101100111 s
b101 t
b101 x
b101 m
1$
#128000
0$
#128500
b110 f
b110 m
b110 x
b110 t
b1101001011001111 s
1$
#129000
0$
#129500
b1010010110011110 _
b111 f
b111 t
b111 x
b111 m
1$
#130000
0$
#130500
b1000 f
b1000 m
b1000 x
b1000 t
b1010010110011110 s
1$
#131000
0$
#131500
b100101100111100 _
b1001 f
b1001 t
b1001 x
b1001 m
1$
#132000
0$
#132500
b1001011001111001 _
b1010 f
b1010 m
b1010 x
b1010 t
b100101100111100 s
1$
#133000
0$
#133500
b1011 f
b1001011001111001 s
b1011 t
b1011 x
b1011 m
1$
#134000
0$
#134500
b1100 f
b1100 m
b1100 x
b1100 t
1$
#135000
0$
#135500
b1101 f
b1101 t
b1101 x
b1101 m
1$
#136000
0$
#136500
b1110 f
b1110 m
b1110 x
b1110 t
1$
#137000
0$
#137500
1C
1G
1<
1:
b10110011110010 _
b1111 f
b1111 t
b1111 x
b1111 m
1$
#138000
0$
#138500
0C
b101100111100101 _
0<
0:
0G
b0 f
0%
1"
b10110011110010 #
b10110011110010 v
0p
b0 m
b0 x
b0 t
b10110011110010 s
1$
#139000
b111111111001010110000010011 ~
b111111111001010110000010011 i
b111111111001010110000010011 Y
b11000110100001 W
b10100100110011 X
b11000110100001 d
b10100100110011 e
b1100111001011111 |
1=
b1011 +
b1001 -
b1100111001011111 '
b1100111001011111 7
b1101011011001101 &
b1101011011001101 6
b101 )
b101 8
1(
b1000 .
0$
#139500
b1111111100101011 [
b11111111100000000011010101 b
b11111111100101011 }
0T
b11111111100101011 U
b1001110010111110 _
1A
b111111111001010110000010011 V
1O
b111111111000000000110101001111101101 c
b111111111001010110000010011 !"
0?
b1010010100101100 g
b111111111001010110000010011 4
b111111111001010110000010011 ]
0=
b1100111001011111 h
b1000000100 w
b1101 #"
b1011110110101011 o
b1111 ""
b1100111001011111 s
b1100111001011111 l
b11010010100101100 S
b1101011011001101 1
b1101011011001101 j
1p
b111111111001010110000010011 Z
b111111111001010110000010011 ^
b111111111001010110000010011 k
0"
1%
1$
#140000
bx ~
bx i
bx W
bx Y
bx X
bx d
bx e
bx |
b1100 +
bx '
bx 7
bx &
bx 6
bx )
bx 8
0(
0$
#140500
b1 f
b1 m
b1 x
b1 t
b1001110010111110 s
1$
#141000
b1101 +
0$
#141500
b11100101111100 _
b10 f
b10 t
b10 x
b10 m
1$
#142000
b1110 +
0$
#142500
b111001011111001 _
b11 f
b11 m
b11 x
b11 t
b11100101111100 s
1$
#143000
0$
#143500
b100 f
b111001011111001 s
b100 t
b100 x
b100 m
1$
#144000
0$
#144500
b101 f
b101 m
b101 x
b101 t
1$
#145000
0$
#145500
b1110010111110011 _
b110 f
b110 t
b110 x
b110 m
1$
#146000
0$
#146500
b1100101111100110 _
b111 f
b111 m
b111 x
b111 t
b1110010111110011 s
1$
#147000
0$
#147500
b1000 f
b1100101111100110 s
b1000 t
b1000 x
b1000 m
1$
#148000
0$
#148500
b1001011111001100 _
b1001 f
b1001 m
b1001 x
b1001 t
1$
#149000
0$
#149500
b10111110011000 _
b1010 f
b1001011111001100 s
b1010 t
b1010 x
b1010 m
1$
#150000
0$
#150500
b1011 f
b1011 m
b1011 x
b1011 t
b10111110011000 s
1$
#151000
0$
#151500
b101111100110001 _
b1100 f
b1100 t
b1100 x
b1100 m
1$
#152000
0$
#152500
b1101 f
b1101 m
b1101 x
b1101 t
b101111100110001 s
1$
#153000
0$
#153500
b1011111001100011 _
b1110 f
b1110 t
b1110 x
b1110 m
1$
#154000
0$
#154500
1C
1G
b111110011000110 _
1<
1:
b1111 f
b1111 m
b1111 x
b1111 t
b1011111001100011 s
1$
#155000
0$
