1141_hw1/00_TESTBED/alu.vcd
$date
	Sun Sep 28 09:01:51 2025
$end
$version
	Icarus Verilog
$end
$timescale
	10ps
$end
$scope module testbench $end
$var wire 1 ! rst_n $end
$var wire 1 " out_valid $end
$var wire 16 # odata [15:0] $end
$var wire 1 $ clk $end
$var wire 1 % busy $end
$var reg 16 & idata_a [15:0] $end
$var reg 16 ' idata_b [15:0] $end
$var reg 1 ( in_valid $end
$var reg 4 ) inst [3:0] $end
$var integer 32 * errors [31:0] $end
$var integer 32 + i [31:0] $end
$var integer 32 , input_end [31:0] $end
$var integer 32 - j [31:0] $end
$var integer 32 . k [31:0] $end
$var integer 32 / output_end [31:0] $end
$var integer 32 0 total_errors [31:0] $end
$scope module u_alu $end
$var wire 16 1 add_in_a [15:0] $end
$var wire 1 2 busy_done $end
$var wire 1 3 busy_start $end
$var wire 1 4 clz_done $end
$var wire 1 5 clz_start $end
$var wire 36 6 data_acc_in [35:0] $end
$var wire 1 7 data_acc_update $end
$var wire 16 8 i_data_a [15:0] $end
$var wire 16 9 i_data_b [15:0] $end
$var wire 1 ( i_in_valid $end
$var wire 4 : i_inst [3:0] $end
$var wire 1 ; is_final_clz_count $end
$var wire 1 < is_final_lrcw_count $end
$var wire 1 = is_final_rot_count $end
$var wire 1 > is_final_sin_count $end
$var wire 1 ? lrcw_done $end
$var wire 1 @ lrcw_start $end
$var wire 36 A mac_add_in_a [35:0] $end
$var wire 1 B mac_mult_sign $end
$var wire 1 C mac_overflow $end
$var wire 1 D mac_sign_eq $end
$var wire 1 E matrix_out_update $end
$var wire 1 F o_data_update $end
$var wire 1 G o_data_update_add $end
$var wire 1 H o_data_update_clz $end
$var wire 1 I o_data_update_gray $end
$var wire 1 J o_data_update_lrcw $end
$var wire 1 K o_data_update_mac $end
$var wire 1 L o_data_update_rm4 $end
$var wire 1 M o_data_update_rot $end
$var wire 1 N o_data_update_sin $end
$var wire 1 O o_data_update_trans $end
$var wire 1 P overflow $end
$var wire 1 Q rot_done $end
$var wire 1 R rot_start $end
$var wire 1 S sign_eq $end
$var wire 1 T sin_done $end
$var wire 1 U sin_start $end
$var wire 1 V trans_done $end
$var wire 1 W trans_ready $end
$var wire 1 X trans_start $end
$var wire 17 Y sum [16:0] $end
$var wire 1 Z sin_overflow $end
$var wire 22 [ sin_out_reg_round [21:0] $end
$var wire 16 \ sin_out [15:0] $end
$var wire 32 ] sin_a_reg [31:0] $end
$var wire 32 ^ sin_a_init [31:0] $end
$var wire 1 _ sign_mac_add_out $end
$var wire 26 ` posvalue_rounded [25:0] $end
$var wire 36 a posvalue [35:0] $end
$var wire 16 b mult_in_b [15:0] $end
$var wire 16 c mult_in_a [15:0] $end
$var wire 32 d mult_full [31:0] $end
$var wire 37 e mac_sum [36:0] $end
$var wire 16 f mac_out [15:0] $end
$var wire 1 g mac_add_out_overflow $end
$var wire 36 h mac_add_out [35:0] $end
$var wire 36 i mac_add_in_b [35:0] $end
$var wire 16 j lrcw_out [15:0] $end
$var wire 1 k is_finalm1_trans_count $end
$var wire 1 l is_final_trans_count $end
$var wire 1 ! i_rst_n $end
$var wire 1 $ i_clk $end
$var wire 26 m comp_posvalue_rounded [25:0] $end
$var wire 36 n comp_mac_add_out [35:0] $end
$var wire 16 o comp_i_data_b [15:0] $end
$var wire 16 p comp_i_data_a [15:0] $end
$var wire 16 q clz_out [15:0] $end
$var wire 16 r add_out [15:0] $end
$var wire 16 s add_in_b [15:0] $end
$var wire 32 t ab_reg_in [31:0] $end
$var wire 32 u a_power_reg_mult_shifted [31:0] $end
$var wire 64 v a_power_reg_mult_full [63:0] $end
$var wire 64 w a_power_reg_in_frac5 [63:0] $end
$var wire 64 x a_power_reg_in_frac4 [63:0] $end
$var wire 64 y a_power_reg_in_frac3 [63:0] $end
$var wire 64 z a_power_reg_in_frac2 [63:0] $end
$var wire 32 { a_power_reg_in_5 [31:0] $end
$var wire 32 | a_power_reg_in_4 [31:0] $end
$var wire 32 } a_power_reg_in_3 [31:0] $end
$var wire 32 ~ a_power_reg_in_2 [31:0] $end
$var wire 32 !" a_power5 [31:0] $end
$var reg 32 "" a_power_reg [31:0] $end
$var reg 16 #" a_reg [15:0] $end
$var reg 32 $" ab_reg [31:0] $end
$var reg 16 %" b_reg [15:0] $end
$var reg 4 &" clz_count [3:0] $end
$var reg 36 '" data_acc [35:0] $end
$var reg 16 (" gray_out [15:0] $end
$var reg 1 )" in_valid_reg $end
$var reg 4 *" inst_reg_1 [3:0] $end
$var reg 4 +" inst_reg_2 [3:0] $end
$var reg 16 ," lrcw_b_reg [15:0] $end
$var reg 4 -" lrcw_count [3:0] $end
$var reg 128 ." matrix_flat [127:0] $end
$var reg 1 % o_busy $end
$var reg 16 /" o_data [15:0] $end
$var reg 1 " o_out_valid $end
$var reg 16 0" rm4_out [15:0] $end
$var reg 4 1" rot_count [3:0] $end
$var reg 16 2" rot_out [15:0] $end
$var reg 3 3" sin_count [2:0] $end
$var reg 32 4" sin_out_reg [31:0] $end
$var reg 4 5" trans_count [3:0] $end
$var reg 16 6" trans_out [15:0] $end
$var integer 32 7" i [31:0] $end
$scope function twos_complement $end
$var reg 16 8" in_data [15:0] $end
$upscope $end
$scope function twos_complement26 $end
$var reg 26 9" in_data26 [25:0] $end
$upscope $end
$scope function twos_complement32 $end
$var reg 32 :" in_data32 [31:0] $end
$upscope $end
$scope function twos_complement36 $end
$var reg 36 ;" in_data36 [35:0] $end
$upscope $end
$upscope $end
$scope module u_clk_gen $end
$var reg 1 $ clk $end
$var reg 1 <" rst $end
$var reg 1 ! rst_n $end
$upscope $end
$scope task validate $end
$upscope $end
$upscope $end
$enddefinitions $end
#0
$dumpvars
0<"
bx ;"
bx :"
bx 9"
bx 8"
bx 7"
bx 6"
bx 5"
bx 4"
bx 3"
bx 2"
bx 1"
bx 0"
bx /"
bx ."
bx -"
bx ,"
bx +"
bx *"
x)"
bx ("
bx '"
bx &"
bx %"
bx $"
bx #"
bx ""
bx !"
bx ~
bx }
bx |
bx {
bx z
bx y
bx x
bx w
bx v
bx u
bx t
bx s
bx r
b0xxxxx q
bx p
bx o
bx n
bx m
xl
xk
bx j
bx i
bx h
xg
bx f
bx e
bx d
bx c
bx b
bx a
bx `
x_
b0xxxxxxxxxxxxxxxx0000000000 ^
b0xxxxxxxxxxxxxxxx0000000000 ]
bx \
bx [
xZ
bx Y
xX
xW
xV
xU
xT
xS
xR
xQ
xP
xO
xN
xM
xL
xK
xJ
xI
xH
xG
xF
xE
xD
xC
xB
bx A
x@
x?
x>
x=
x<
x;
bx :
bx 9
bx 8
x7
bx 6
x5
x4
x3
x2
bx 1
bx 0
b0 /
bx .
bx -
b0 ,
bx +
bx *
bx )
x(
bx '
bx &
x%
0$
bx #
x"
1!
$end
#250
b0 f
0F
b0 m
b0 9"
0g
b0 `
b0 n
b0 a
02
b0 ;"
0_
0C
b0 \
0P
b0 6
b0 h
1D
b0 ~
b0 }
b0 |
b0 {
1S
b0 z
b0 y
b0 x
b0 w
b0 u
b0 r
b0 e
0B
b0 v
b0 ]
b0 !"
b0 [
0Z
b0 6"
0G
0T
0>
0?
0<
0Q
0=
04
0;
07
0K
0N
0I
0L
0J
0M
0H
b0 Y
b0 s
b1111111111111 0"
b0 ("
b1000 7"
b0 j
b10000 q
0V
0E
0O
b0 3"
b0 ""
b0 4"
b0 ,"
b0 -"
b0 2"
b0 1"
b0 &"
b0 ."
0k
0l
b0 5"
0)"
b0 *"
b0 %"
b0 1
b0 #"
b0 A
b0 '"
b0 i
b0 $"
b0 #
b0 /"
0"
0%
03
b0 :"
b0 t
0W
b0 d
b0 b
b0 c
b0 ^
b0 o
b0 p
b0 8"
0U
0@
0R
05
0X
b0 '
b0 9
b0 &
b0 8
b0 )
b0 :
0(
0!
1<"
#500
1$
#1000
0$
#1500
1$
#2000
0$
1!
0<"
#2500
b0 +"
b0 .
b0 -
b0 +
1$
#3000
b11110011011111111100000101010100 t
b1100100000000011111010101100 :"
b1011001111010101 o
b1100100000000011111010101100 d
b100110000101011 b
b10101000000100 p
b10101000000100 c
b100110000101011 8"
b101010000001000000000000 ^
b1 +
b1 -
b100110000101011 '
b100110000101011 9
b1101010111111100 &
b1101010111111100 8
1(
0$
#3500
1F
b1101111111110000 f
0g
1_
b11111111001101111111110000 m
b110010000000010000 9"
0D
b110010000000010000 `
b1100100000000011111010101100 n
b111111110011011111111100000101010100 ;"
b1100100000000011111010101100 a
1B
0S
b10001000100111 r
b111111110011011111111100000101010100 6
b111111110011011111111100000101010100 h
b100110000101011 s
b0 0"
b1011111100000010 ("
b1101 7"
b100110000101011 8"
b101010000001000000000000 ]
b0 q
1G
b100110000101011 %"
b10010001000100111 Y
b1101010111111100 1
b1101010111111100 #"
1)"
b111111110011011111111100000101010100 e
b111111110011011111111100000101010100 i
b11110011011111111100000101010100 $"
1$
#4000
b11100110100101110110011101100000 t
b11001011010001001100010100000 :"
b100100110100000 c
b1001001101000000000000000 ^
b101100001011001 o
b11001011010001001100010100000 d
b101100001011001 b
b1011011001100000 p
b1010011110100111 8"
b10 +
b10 -
b1010011110100111 '
b1010011110100111 9
b100100110100000 &
b100100110100000 8
0$
#4500
b1010010111011010 f
b11111110011010010111011010 m
b1100101101000100110 9"
b1100101101000100110 `
b11001011010001001100010100000 a
b11001011010001001100010100000 n
b111111100110100101110110011101100000 ;"
0P
b111111100110100101110110011101100000 6
b111111100110100101110110011101100000 h
b1001001101000000000000000 ]
0S
b1111000101000111 r
b1010011110100111 s
b1000000000 0"
b110110101110000 ("
b1101 7"
b1010011110100111 8"
1"
b10001000100111 #
b10001000100111 /"
b111111100110100101110110011101100000 e
b111111100110100101110110011101100000 i
b11100110100101110110011101100000 $"
b1010011110100111 %"
b1111000101000111 Y
b100100110100000 1
b100100110100000 #"
1$
#5000
b110101000110011110110101101 t
b10100101111011 b
b110101000110011110110101101 :"
b10100101111011 o
b10100011110111 p
b110101000110011110110101101 d
b10100011110111 c
b1101011010000101 8"
b101000111101110000000000 ^
b11 +
b11 -
b1101011010000101 '
b1101011010000101 9
b1101011100001001 &
b1101011100001001 8
b1 .
0$
#5500
b1010100011001111 f
b11111111100101011100110001 m
b11010100011001111 9"
0_
b11010100011001111 `
1D
b110101000110011110110101101 a
b1 j
0P
b111111111001010111001100001001010011 n
b110101000110011110110101101 ;"
0B
1S
b1010110110001110 r
b110101000110011110110101101 6
b110101000110011110110101101 h
b1101011010000101 s
b0 0"
b1011110010001101 ("
b1101 7"
b1101011010000101 8"
b101000111101110000000000 ]
b1101011010000101 %"
b11010110110001110 Y
b1101011100001001 1
b1101011100001001 #"
b110101000110011110110101101 e
b110101000110011110110101101 i
b110101000110011110110101101 $"
b1111000101000111 #
b1111000101000111 /"
1$
#6000
bx :"
bx t
bx b
bx d
bx c
b0xxxxxxxxxxxxxxxx0000000000 ^
bx o
bx p
bx 8"
b100 +
bx '
bx 9
bx &
bx 8
bx )
bx :
0(
b10 .
0$
#6500
0F
0G
b1010110110001110 #
b1010110110001110 /"
0)"
1$
#7000
b11111101001110111011111000100000 t
b10110001000100000111100000 :"
b10110001000100000111100000 d
b1100010100000 b
b1110011000011 c
b11100110000110000000000 ^
b1110011101100000 o
b1110011000011 p
b1100010100000 8"
b101 +
b100 -
b1100010100000 '
b1100010100000 9
b1110001100111101 &
b1110001100111101 8
b0 )
b0 :
1(
b11 .
0$
#7500
1F
b100111011110000 f
0g
1_
b11111111110100111011110000 m
b1011000100010000 9"
0D
b1011000100010000 `
0S
b10110001000100000111100000 n
b111111111101001110111011111000100000 ;"
b10110001000100000111100000 a
1B
b11100110000110000000000 ]
b1111101111011101 r
b111111111101001110111011111000100000 6
b111111111101001110111011111000100000 h
b1100010100000 s
b10000000000 0"
b1001001010100011 ("
b1101 7"
b1100010100000 8"
1G
b1100010100000 %"
b1111101111011101 Y
b1110001100111101 1
b1110001100111101 #"
1)"
b111111111101001110111011111000100000 e
b111111111101001110111011111000100000 i
b11111101001110111011111000100000 $"
0"
1$
#8000
b1001010001000010101100100 t
b1001010001000010101100100 :"
b1110100110 c
b11101001100000000000 ^
b101000101000110 o
b1001010001000010101100100 d
b101000101000110 b
b1110100110 p
b1010111010111010 8"
b110 +
b101 -
b1010111010111010 '
b1010111010111010 9
b1111110001011010 &
b1111110001011010 8
0$
#8500
b100101000100001 f
b11111111111011010111011111 m
b100101000100001 9"
b100101000100001 `
0_
b1001010001000010101100100 a
1D
b111111111110110101110111101010011100 n
b1001010001000010101100100 ;"
1S
b0 j
b1001010001000010101100100 6
b1001010001000010101100100 h
0B
b11101001100000000000 ]
b1010101100010100 r
b1010111010111010 s
b1 0"
b1000001001110111 ("
b1101 7"
b1010111010111010 8"
1"
b1111101111011101 #
b1111101111011101 /"
b1001010001000010101100100 e
b1001010001000010101100100 i
b1001010001000010101100100 $"
b1010111010111010 %"
b11010101100010100 Y
b1111110001011010 1
b1111110001011010 #"
1$
#9000
bx :"
bx t
bx b
bx d
bx c
b0xxxxxxxxxxxxxxxx0000000000 ^
bx o
bx p
bx 8"
b111 +
bx '
bx 9
bx &
bx 8
bx )
bx :
0(
b100 .
0$
#9500
0F
0G
0)"
b1010101100010100 #
b1010101100010100 /"
1$
#10000
b11101011000101011101000001011100 t
b10100111010100010111110100100 :"
b10100111010100010111110100100 d
b11100011011011 b
b101111000101100 c
b1011110001011000000000000 ^
b1100011100100101 o
b101111000101100 p
b11100011011011 8"
b1000 +
b110 -
b11100011011011 '
b11100011011011 9
b1010000111010100 &
b1010000111010100 8
b0 )
b0 :
1(
b101 .
0$
#10500
1F
b1100010101110100 f
0g
b11111110101100010101110100 m
b1010011101010001100 9"
1_
b1010011101010001100 `
0D
b10100111010100010111110100100 n
b111111101011000101011101000001011100 ;"
b10100111010100010111110100100 a
0S
0P
b111111101011000101011101000001011100 6
b111111101011000101011101000001011100 h
1B
b1011110001011000000000000 ]
b1101101010101111 r
b11100011011011 s
b0 0"
b1111000100111110 ("
b1101 7"
b11100011011011 8"
1G
0"
b111111101011000101011101000001011100 e
b111111101011000101011101000001011100 i
b11101011000101011101000001011100 $"
b11100011011011 %"
b1101101010101111 Y
b1010000111010100 1
b1010000111010100 #"
1)"
1$
#11000
b11111010100101011010001111100010 t
b101011010100101110000011110 :"
b11100011011110 c
b111000110111100000000000 ^
b1100001100001 o
b101011010100101110000011110 d
b1100001100001 b
b1100011100100010 p
b1110011110011111 8"
b1001 +
b111 -
b1110011110011111 '
b1110011110011111 9
b11100011011110 &
b11100011011110 8
0$
#11500
b1010010101101001 f
b11111111101010010101101001 m
b10101101010010111 9"
b10101101010010111 `
b101011010100101110000011110 a
b101011010100101110000011110 n
b111111111010100101011010001111100010 ;"
b111000110111100000000000 ]
0S
b10000001111101 r
b111111111010100101011010001111100010 6
b111111111010100101011010001111100010 h
b1110011110011111 s
b1 0"
b10010010110001 ("
b1101 7"
b1110011110011111 8"
b1110011110011111 %"
b10010000001111101 Y
b11100011011110 1
b11100011011110 #"
b111111111010100101011010001111100010 e
b111111111010100101011010001111100010 i
b11111010100101011010001111100010 $"
b1101101010101111 #
b1101101010101111 /"
1"
1$
#12000
b11101111001111101100101001111010 t
b11110101000001 b
b10000110000010011010110000110 :"
b11110101000001 o
b1011100111111010 p
b10000110000010011010110000110 d
b100011000000110 c
b1100001010111111 8"
b1000110000001100000000000 ^
b1010 +
b1000 -
b1100001010111111 '
b1100001010111111 9
b100011000000110 &
b100011000000110 8
b110 .
0$
#12500
b1100111110110011 f
b11111110111100111110110011 m
b1000011000001001101 9"
b1000011000001001101 `
b10000110000010011010110000110 a
b10000110000010011010110000110 n
b111111101111001111101100101001111010 ;"
b111111101111001111101100101001111010 6
b111111101111001111101100101001111010 h
b100011000101 r
b1100001010111111 s
b0 0"
b110010100000101 ("
b1101 7"
b1100001010111111 8"
b1000110000001100000000000 ]
b10000001111101 #
b10000001111101 /"
b111111101111001111101100101001111010 e
b111111101111001111101100101001111010 i
b11101111001111101100101001111010 $"
b1100001010111111 %"
b10000100011000101 Y
b100011000000110 1
b100011000000110 #"
1$
#13000
b11111111001110000001010011110110 t
b1100010010 b
b110001111110101100001010 :"
b1111110011101110 o
b100000100011101 p
b110001111110101100001010 d
b100000100011101 c
b1100010010 8"
b1000001000111010000000000 ^
b1011 +
b1001 -
b1100010010 '
b1100010010 9
b1011111011100011 &
b1011111011100011 8
b111 .
0$
#13500
b1100111000000101 f
b11111111111100111000000101 m
b11000111111011 9"
b11000111111011 `
b110001111110101100001010 a
b1 j
b110001111110101100001010 n
b111111111111001110000001010011110110 ;"
0S
b1100000111110101 r
b111111111111001110000001010011110110 6
b111111111111001110000001010011110110 h
b1100010010 s
b1110000110010010 ("
b1101 7"
b1100010010 8"
b1000001000111010000000000 ]
b1100010010 %"
b1100000111110101 Y
b1011111011100011 1
b1011111011100011 #"
b111111111111001110000001010011110110 e
b111111111111001110000001010011110110 i
b11111111001110000001010011110110 $"
b100011000101 #
b100011000101 /"
1$
#14000
bx t
bx :"
bx c
b0xxxxxxxxxxxxxxxx0000000000 ^
bx o
bx d
bx b
bx p
bx 8"
b1100 +
bx '
bx 9
bx &
bx 8
bx )
bx :
0(
b1000 .
0$
#14500
0F
0G
b1100000111110101 #
b1100000111110101 /"
0)"
1$
#15000
b1101 +
b1001 .
0$
#15500
0"
1$
#16000
b1110 +
0$
#16500
1$
#17000
b11101111111110010010000000100100 t
b10000000001101101111111011100 :"
b10000000001101101111111011100 d
b100010110011100 b
b11101011110001 c
b111010111100010000000000 ^
b100010110011100 o
b1100010100001111 p
b1011101001100100 8"
b1111 +
b1010 -
b1011101001100100 '
b1011101001100100 9
b11101011110001 &
b11101011110001 8
b0 )
b0 :
1(
0$
#17500
1F
b1111111001001000 f
b11111110111111111001001000 m
b1000000000110111000 9"
b1000000000110111000 `
b10000000001101101111111011100 a
b10000000001101101111111011100 n
b111111101111111110010010000000100100 ;"
b111010111100010000000000 ]
0S
b1111010101010101 r
b111111101111111110010010000000100100 6
b111111101111111110010010000000100100 h
b1011101001100100 s
b10011110001001 ("
b1101 7"
b1011101001100100 8"
1G
b1011101001100100 %"
b1111010101010101 Y
b11101011110001 1
b11101011110001 #"
1)"
b111111101111111110010010000000100100 e
b111111101111111110010010000000100100 i
b11101111111110010010000000100100 $"
1$
#18000
b11101100010010101100001111110000 t
b101000000110000 b
b10011101101010011110000010000 :"
b1010111111010000 o
b11111011101011 p
b10011101101010011110000010000 d
b11111011101011 c
b101000000110000 8"
b111110111010110000000000 ^
b10000 +
b1011 -
b101000000110000 '
b101000000110000 9
b1100000100010101 &
b1100000100010101 8
0$
#18500
b1001010110001 f
b11111110110001001010110001 m
b1001110110101001111 9"
b1001110110101001111 `
b10011101101010011110000010000 a
b10011101101010011110000010000 n
b111111101100010010101100001111110000 ;"
0P
b111111101100010010101100001111110000 6
b111111101100010010101100001111110000 h
0S
b1000101000101 r
b101000000110000 s
b100000000011 0"
b1010000110011111 ("
b1101 7"
b101000000110000 8"
b111110111010110000000000 ]
1"
b1111010101010101 #
b1111010101010101 /"
b111111101100010010101100001111110000 e
b111111101100010010101100001111110000 i
b11101100010010101100001111110000 $"
b101000000110000 %"
b10001000101000101 Y
b1100000100010101 1
b1100000100010101 #"
1$
#19000
bx t
bx :"
bx c
b0xxxxxxxxxxxxxxxx0000000000 ^
bx o
bx d
bx b
bx p
bx 8"
b10001 +
bx '
bx 9
bx &
bx 8
bx )
bx :
0(
b1010 .
0$
#19500
0F
0G
0)"
b1000101000101 #
b1000101000101 /"
1$
#20000
b11101110001000101011111110100110 t
b10001110111010100000001011010 :"
b10001110111010100000001011010 d
b11101110110110 b
b100110010010111 c
b1001100100101110000000000 ^
b1100010001001010 o
b100110010010111 p
b11101110110110 8"
b10010 +
b1100 -
b11101110110110 '
b11101110110110 9
b1011001101101001 &
b1011001101101001 8
b0 )
b0 :
1(
b1011 .
0$
#20500
b1000100010110000 f
1F
b11111110111000100010110000 m
b1000111011101010000 9"
b1000111011101010000 `
b10001110111010100000001011010 a
b10001110111010100000001011010 n
b111111101110001000101011111110100110 ;"
b111111101110001000101011111110100110 6
b111111101110001000101011111110100110 h
b1001100100101110000000000 ]
b1110111100011111 r
b11101110110110 s
b1000 0"
b1110101011011101 ("
b1101 7"
b11101110110110 8"
1G
0"
b111111101110001000101011111110100110 e
b111111101110001000101011111110100110 i
b11101110001000101011111110100110 $"
b11101110110110 %"
b1110111100011111 Y
b1011001101101001 1
b1011001101101001 #"
1)"
1$
#21000
b11110111011000001111111101110001 t
b1000100111110000000010001111 :"
b100000111111111 c
b1000001111111110000000000 ^
b10000101110001 o
b1000100111110000000010001111 d
b10000101110001 b
b1011111000000001 p
b1101111010001111 8"
b10011 +
b1101 -
b1101111010001111 '
b1101111010001111 9
b100000111111111 &
b100000111111111 8
0$
#21500
b1101100001000000 f
b11111111011101100001000000 m
b100010011111000000 9"
b100010011111000000 `
b1000100111110000000010001111 a
b1000100111110000000010001111 n
b111111110111011000001111111101110001 ;"
b1000001111111110000000000 ]
0S
b10000010001110 r
b111111110111011000001111111101110001 6
b111111110111011000001111111101110001 h
b1101111010001111 s
b110000100000000 ("
b1101 7"
b1101111010001111 8"
b1101111010001111 %"
b10010000010001110 Y
b100000111111111 1
b100000111111111 #"
b111111110111011000001111111101110001 e
b111111110111011000001111111101110001 i
b11110111011000001111111101110001 $"
b1110111100011111 #
b1110111100011111 /"
1"
1$
#22000
bx t
bx b
bx :"
bx o
bx p
bx d
bx c
bx 8"
b0xxxxxxxxxxxxxxxx0000000000 ^
b10100 +
bx '
bx 9
bx &
bx 8
bx )
bx :
0(
b1100 .
0$
#22500
0F
0G
b10000010001110 #
b10000010001110 /"
0)"
1$
#23000
b11111011110001010000010001101110 t
b100001110101111101110010010 :"
b100001110101111101110010010 d
b1100011010110 b
b10101110011011 c
b101011100110110000000000 ^
b1100011010110 o
b1101010001100101 p
b1110011100101010 8"
b10101 +
b1110 -
b1110011100101010 '
b1110011100101010 9
b10101110011011 &
b10101110011011 8
b0 )
b0 :
1(
b1101 .
0$
#23500
1F
b1111000101000001 f
b11111111101111000101000001 m
b10000111010111111 9"
b10000111010111111 `
b100001110101111101110010010 a
b100001110101111101110010010 n
b111111111011110001010000010001101110 ;"
b1001011000101 r
b111111111011110001010000010001101110 6
b111111111011110001010000010001101110 h
b1110011100101010 s
b111000001000 0"
b11111001010110 ("
b1101 7"
b1110011100101010 8"
b101011100110110000000000 ]
1G
b1110011100101010 %"
b10001001011000101 Y
b10101110011011 1
b10101110011011 #"
1)"
b111111111011110001010000010001101110 e
b111111111011110001010000010001101110 i
b11111011110001010000010001101110 $"
0"
1$
#24000
bx t
bx b
bx :"
bx o
bx p
bx d
bx c
bx 8"
b0xxxxxxxxxxxxxxxx0000000000 ^
b10110 +
bx '
bx 9
bx &
bx 8
bx )
bx :
0(
0$
#24500
0F
0G
1"
b1001011000101 #
b1001011000101 /"
0)"
1$
#25000
b101100111000000010100110110 :"
b101100111000000010100110110 t
b101100111000000010100110110 d
b1011110101010 b
b11110010101111 c
b111100101011110000000000 ^
b1110100001010110 o
b1100001101010001 p
b1011110101010 8"
b10111 +
b1111 -
b1011110101010 '
b1011110101010 9
b11110010101111 &
b11110010101111 8
b0 )
b0 :
1(
b1110 .
0$
#25500
1F
b110011100000001 f
b11111111101001100011111111 m
b10110011100000001 9"
0_
b10110011100000001 `
1D
b101100111000000010100110110 a
1S
b111111111010011000111111101011001010 n
b101100111000000010100110110 ;"
0B
b101010001011001 r
b101100111000000010100110110 6
b101100111000000010100110110 h
b1011110101010 s
b0 0"
b10001011111000 ("
b1101 7"
b1011110101010 8"
b111100101011110000000000 ]
1G
b1011110101010 %"
b101010001011001 Y
b11110010101111 1
b11110010101111 #"
1)"
b101100111000000010100110110 e
b101100111000000010100110110 i
b101100111000000010100110110 $"
0"
1$
#26000
bx :"
bx t
bx o
bx b
bx p
bx d
bx c
bx 8"
b0xxxxxxxxxxxxxxxx0000000000 ^
b11000 +
bx '
bx 9
bx &
bx 8
bx )
bx :
0(
0$
#26500
0F
0G
1"
b101010001011001 #
b101010001011001 /"
0)"
1$
#27000
b11110101110101000011110110000110 t
b1010001010111100001001111010 :"
b1010001010111100001001111010 d
b111110011110111 b
b1010011010110 c
b10100110101100000000000 ^
b1000001100001001 o
b1010011010110 p
b111110011110111 8"
b11001 +
b10000 -
b111110011110111 '
b111110011110111 9
b1110101100101010 &
b1110101100101010 8
b0 )
b0 :
1(
b1111 .
0$
#27500
1F
b111010100001111 f
0g
1_
b11111111010111010100001111 m
b101000101011110001 9"
0D
b101000101011110001 `
b0 j
b1010001010111100001001111010 n
b111111110101110101000011110110000110 ;"
b1010001010111100001001111010 a
1B
0S
b110100000100001 r
b111111110101110101000011110110000110 6
b111111110101110101000011110110000110 h
b111110011110111 s
b100000 0"
b1001111010111111 ("
b1101 7"
b111110011110111 8"
b10100110101100000000000 ]
1G
b111110011110111 %"
b10110100000100001 Y
b1110101100101010 1
b1110101100101010 #"
1)"
b111111110101110101000011110110000110 e
b111111110101110101000011110110000110 i
b11110101110101000011110110000110 $"
0"
1$
#28000
b1001000101100101010000101 t
b1001000101100101010000101 :"
b110010001011 c
b1100100010110000000000 ^
b1011100101111 o
b1001000101100101010000101 d
b1011100101111 b
b110010001011 p
b1110100011010001 8"
b11010 +
b10001 -
b1110100011010001 '
b1110100011010001 9
b1111001101110101 &
b1111001101110101 8
0$
#28500
b100100010110011 f
b11111111111011011101001101 m
b100100010110011 9"
b100100010110011 `
0_
b1001000101100101010000101 a
1D
b111111111110110111010011010101111011 n
b1001000101100101010000101 ;"
1S
b1 j
b1001000101100101010000101 6
b1001000101100101010000101 h
0B
b1100100010110000000000 ]
b1101110001000110 r
b1110100011010001 s
b10000000 0"
b1000101011001111 ("
b1101 7"
b1110100011010001 8"
1"
b110100000100001 #
b110100000100001 /"
b1001000101100101010000101 e
b1001000101100101010000101 i
b1001000101100101010000101 $"
b1110100011010001 %"
b11101110001000110 Y
b1111001101110101 1
b1111001101110101 #"
1$
#29000
b1101111011100111110111100000 :"
b11110010000100011000001000100000 t
b101010010001010 b
b1101111011100111110111100000 d
b10101000110000 c
b101010001100000000000000 ^
b101010010001010 o
b1101010111010000 p
b1010101101110110 8"
b11011 +
b10010 -
b1010101101110110 '
b1010101101110110 9
b10101000110000 &
b10101000110000 8
b10000 .
0$
#29500
b1000010001100001 f
0g
1_
b11111111001000010001100001 m
b110111101110011111 9"
0D
b110111101110011111 `
b0 j
b1101111011100111110111100000 n
b111111110010000100011000001000100000 ;"
b1101111011100111110111100000 a
1B
b101010001100000000000000 ]
0S
b1101010110100110 r
b111111110010000100011000001000100000 6
b111111110010000100011000001000100000 h
b1010101101110110 s
b0 0"
b11111100101000 ("
b1101 7"
b1010101101110110 8"
b1010101101110110 %"
b1101010110100110 Y
b10101000110000 1
b10101000110000 #"
b111111110010000100011000001000100000 e
b111111110010000100011000001000100000 i
b11110010000100011000001000100000 $"
b1101110001000110 #
b1101110001000110 /"
1$
#30000
bx t
bx b
bx :"
bx o
bx p
bx d
bx c
bx 8"
b0xxxxxxxxxxxxxxxx0000000000 ^
b11100 +
bx '
bx 9
bx &
bx 8
bx )
bx :
0(
b10001 .
0$
#30500
0F
0G
b1101010110100110 #
b1101010110100110 /"
0)"
1$
#31000
b11101 +
b10010 .
0$
#31500
0"
1$
#32000
b11110 +
0$
#32500
1$
#33000
b11110110000111000010101000000000 t
b1001111000111101011000000000 :"
b1001111000111101011000000000 d
b100101100000000 b
b10000111000010 c
b100001110000100000000000 ^
b1011010100000000 o
b10000111000010 p
b100101100000000 8"
b11111 +
b10011 -
b100101100000000 '
b100101100000000 9
b1101111000111110 &
b1101111000111110 8
b0 )
b0 :
1(
0$
#33500
1F
b1000011100001010 f
b11111111011000011100001010 m
b100111100011110110 9"
b100111100011110110 `
b1001111000111101011000000000 a
b1001111000111101011000000000 n
b111111110110000111000010101000000000 ;"
0S
b10100100111110 r
b111111110110000111000010101000000000 6
b111111110110000111000010101000000000 h
b100101100000000 s
b1011000100100001 ("
b1101 7"
b100101100000000 8"
b100001110000100000000000 ]
1G
b100101100000000 %"
b10010100100111110 Y
b1101111000111110 1
b1101111000111110 #"
1)"
b111111110110000111000010101000000000 e
b111111110110000111000010101000000000 i
b11110110000111000010101000000000 $"
1$
#34000
bx t
bx :"
bx c
b0xxxxxxxxxxxxxxxx0000000000 ^
bx o
bx d
bx b
bx p
bx 8"
b100000 +
bx '
bx 9
bx &
bx 8
bx )
bx :
0(
0$
#34500
0F
0G
1"
b10100100111110 #
b10100100111110 /"
0)"
1$
#35000
b11111111111110001110111011111010 t
b1110001000100000110 :"
b1110001000100000110 d
b111100010011010 b
b1111 c
b11110000000000 ^
b1000011101100110 o
b1111 p
b111100010011010 8"
b100001 +
b10100 -
b111100010011010 '
b111100010011010 9
b1111111111110001 &
b1111111111110001 8
b0 )
b0 :
1(
b10011 .
0$
#35500
1F
b1111111000111100 f
b11111111111111111000111100 m
b111000100 9"
b111000100 `
b1110001000100000110 a
b1 j
b1110001000100000110 n
b111111111111111110001110111011111010 ;"
b11110000000000 ]
b111100010001011 r
b111111111111111110001110111011111010 6
b111111111111111110001110111011111010 h
b111100010011010 s
b1000000000001001 ("
b1101 7"
b111100010011010 8"
1G
b111100010011010 %"
b10111100010001011 Y
b1111111111110001 1
b1111111111110001 #"
1)"
b111111111111111110001110111011111010 e
b111111111111111110001110111011111010 i
b11111111111110001110111011111010 $"
0"
1$
