1141_hw1/00_TESTBED/alu.vcd
$date
	Sat Sep 27 21:49:31 2025
$end
$version
	Icarus Verilog
$end
$timescale
	10ps
$end
$scope module testbench $end
$var wire 1 ! rst_n $end
$var wire 1 " out_valid $end
$var wire 16 # odata [15:0] $end
$var wire 1 $ clk $end
$var wire 1 % busy $end
$var reg 16 & idata_a [15:0] $end
$var reg 16 ' idata_b [15:0] $end
$var reg 1 ( in_valid $end
$var reg 4 ) inst [3:0] $end
$var integer 32 * errors [31:0] $end
$var integer 32 + i [31:0] $end
$var integer 32 , input_end [31:0] $end
$var integer 32 - j [31:0] $end
$var integer 32 . k [31:0] $end
$var integer 32 / output_end [31:0] $end
$var integer 32 0 total_errors [31:0] $end
$scope module u_alu $end
$var wire 1 1 clz_done $end
$var wire 1 2 clz_start $end
$var wire 16 3 data_acc_in [15:0] $end
$var wire 1 4 data_acc_update $end
$var wire 16 5 i_data_a [15:0] $end
$var wire 16 6 i_data_b [15:0] $end
$var wire 1 ( i_in_valid $end
$var wire 4 7 i_inst [3:0] $end
$var wire 1 8 is_final_clz_count $end
$var wire 1 9 is_final_rot_count $end
$var wire 1 : matrix_out_update $end
$var wire 1 ; o_data_update $end
$var wire 1 < o_data_update_add $end
$var wire 1 = o_data_update_clz $end
$var wire 1 > o_data_update_gray $end
$var wire 1 ? o_data_update_mac $end
$var wire 1 @ o_data_update_rm4 $end
$var wire 1 A o_data_update_rot $end
$var wire 1 B o_data_update_trans $end
$var wire 1 C overflow $end
$var wire 1 D rot_done $end
$var wire 1 E rot_start $end
$var wire 1 F sign_eq $end
$var wire 1 G trans_done $end
$var wire 1 H trans_ready $end
$var wire 1 I trans_start $end
$var wire 17 J sum [16:0] $end
$var wire 17 K mult_shift [16:0] $end
$var wire 16 L mult_out_round [15:0] $end
$var wire 16 M mult_in_b [15:0] $end
$var wire 16 N mult_in_a [15:0] $end
$var wire 32 O mult_full [31:0] $end
$var wire 16 P lrcw_out [15:0] $end
$var wire 1 Q is_finalm1_trans_count $end
$var wire 1 R is_final_trans_count $end
$var wire 1 ! i_rst_n $end
$var wire 1 $ i_clk $end
$var wire 16 S comp_i_data_b [15:0] $end
$var wire 16 T comp_i_data_a [15:0] $end
$var wire 16 U clz_out [15:0] $end
$var wire 1 V b_sign $end
$var wire 16 W add_out [15:0] $end
$var wire 16 X add_in_b [15:0] $end
$var wire 16 Y add_in_a [15:0] $end
$var wire 16 Z ab_reg_in [15:0] $end
$var wire 1 [ a_sign $end
$var reg 16 \ a_reg [15:0] $end
$var reg 16 ] ab_reg [15:0] $end
$var reg 16 ^ b_reg [15:0] $end
$var reg 4 _ clz_count [3:0] $end
$var reg 16 ` data_acc [15:0] $end
$var reg 16 a gray_out [15:0] $end
$var reg 1 b in_valid_reg $end
$var reg 4 c inst_reg_1 [3:0] $end
$var reg 4 d inst_reg_2 [3:0] $end
$var reg 128 e matrix_flat [127:0] $end
$var reg 1 % o_busy $end
$var reg 16 f o_data [15:0] $end
$var reg 1 " o_out_valid $end
$var reg 16 g rm4_out [15:0] $end
$var reg 4 h rot_count [3:0] $end
$var reg 16 i rot_out [15:0] $end
$var reg 4 j trans_count [3:0] $end
$var reg 16 k trans_out [15:0] $end
$scope function grp16 $end
$var reg 16 l grp_a_reg [15:0] $end
$var reg 16 m grp_b_reg [15:0] $end
$var reg 16 n temp [15:0] $end
$var integer 32 o left_pos [31:0] $end
$var integer 32 p right_pos [31:0] $end
$scope begin $ivl_for_loop5 $end
$var integer 32 q i [31:0] $end
$upscope $end
$upscope $end
$scope function twos_complement $end
$var reg 16 r in_data [15:0] $end
$upscope $end
$scope begin $ivl_for_loop0 $end
$var integer 32 s i [31:0] $end
$upscope $end
$scope begin $ivl_for_loop1 $end
$var integer 32 t i [31:0] $end
$upscope $end
$scope begin $ivl_for_loop2 $end
$var integer 32 u j [31:0] $end
$upscope $end
$scope begin $ivl_for_loop3 $end
$var integer 32 v i [31:0] $end
$upscope $end
$scope begin $ivl_for_loop4 $end
$var integer 32 w i [31:0] $end
$upscope $end
$upscope $end
$scope module u_clk_gen $end
$var reg 1 $ clk $end
$var reg 1 x rst $end
$var reg 1 ! rst_n $end
$upscope $end
$scope task validate $end
$upscope $end
$upscope $end
$enddefinitions $end
#0
$dumpvars
0x
bx w
bx v
bx u
bx t
bx s
bx r
b10000 q
b11111111111111111111111111111111 p
b0 o
bx n
bx m
bx l
bx k
bx j
bx i
bx h
bx g
bx f
bx e
bx d
bx c
xb
bx a
bx `
bx _
bx ^
bx ]
bx \
x[
bx Z
bx Y
bx X
bx W
xV
b0xxxxx U
bx T
bx S
xR
xQ
bx P
bx O
bx N
bx M
bx L
bx K
bx J
xI
xH
xG
xF
xE
xD
xC
xB
xA
x@
x?
x>
x=
x<
x;
x:
x9
x8
bx 7
bx 6
bx 5
x4
bx 3
x2
x1
bx 0
b0 /
bx .
bx -
b0 ,
bx +
bx *
bx )
x(
bx '
bx &
x%
0$
bx #
x"
1!
$end
#250
0;
0C
b0 3
b0 W
1F
0V
0[
0:
0B
b0 k
b1000 w
0G
0<
0D
09
01
08
04
0?
0>
0@
0A
0=
b0 J
b0 X
b1111111111111 g
b1101 t
b0 a
b1111 s
b10000 U
b0 P
b10000 o
b10000 q
b0 n
b1111 p
b0 m
b0 l
b0 Y
0%
b0 i
b0 h
b0 _
b0 e
0Q
0R
b0 j
0"
0b
b0 c
b0 ^
b0 \
b0 `
b0 ]
b0 #
b0 f
b0 Z
b0 L
b0 K
0H
b0 O
b0 M
b0 N
b0 S
b0 T
b0 r
0E
02
0I
b0 '
b0 6
b0 &
b0 5
b0 )
b0 7
0(
0!
1x
#500
1$
#1000
0$
#1500
1$
#2000
0$
1!
0x
#2500
b0 d
b0 .
b0 -
b0 +
1$
#3000
b1111101101111010 Z
b10010000110 L
b100100001100 K
b1011011101 S
b100100001100011001010 O
b1011011101 M
b1111100110101110 T
b10010000110 r
b11001010010 N
b1 +
b1 -
b1111110100100011 '
b1111110100100011 6
b11001010010 &
b11001010010 5
b10 )
b10 7
1(
0$
#3500
1;
0F
b1111101101111010 3
b1111101101111010 W
1V
b1111101101111010 J
b1111101101111010 X
b1111110100100011 r
b0 g
b1101 t
b10101111011 a
b1111 s
b0 U
b100100000101100 P
b100100000101100 n
b101 p
b10000 q
b110 o
b1111110100100011 m
b11001010010 l
14
1?
0<
b1111110100100011 ^
b11001010010 \
b10 c
1b
b1111101101111010 ]
1$
#4000
b111100111001100 L
b111100111001100 Z
b1111010111 M
b1111001110010111 K
b1111010111 S
b111111011100000 T
b111100111001100 r
b1111001110010111000100000 O
b111111011100000 N
b10 +
b10 -
b1111110000101001 '
b1111110000101001 6
b1000000100100000 &
b1000000100100000 5
0$
#4500
0V
0F
b111010101000110 3
b111010101000110 W
b111100111001100 X
1[
b10111010101000110 J
b1111101101111010 Y
b1111110000101001 r
b1101 t
b1100000110110000 a
b1111 s
b10000010100000 P
b10000 q
b10000010100000 n
b110 p
b111 o
b1111110000101001 m
b1000000100100000 l
b1111101101111010 #
b1111101101111010 f
b111100111001100 ]
b1111101101111010 `
b10 d
b1111110000101001 ^
b1000000100100000 \
1"
1$
#5000
b1010010111111001 L
b10100101111110010 K
b101101000000111 Z
b10111010110001 M
b10100101111110010010111000 O
b111000111000 N
b10111010110001 S
b1111000111001000 T
b1010010111111001 r
b11 +
b11 -
b1101000101001111 '
b1101000101001111 6
b111000111000 &
b111000111000 5
b1 .
0$
#5500
1C
1F
b111111111111111 3
b111111111111111 W
0[
b101101000000111 X
b1101000101001111 r
b10000000000 g
b1101 t
b100100100100 a
b1111 s
b1000000111011 P
b10000 q
b1000000111011 n
b110 p
b111 o
b1101000101001111 m
b111000111000 l
b1100111101001101 J
b111010101000110 Y
b1101000101001111 ^
b111000111000 \
b111010101000110 `
b101101000000111 ]
b111010101000110 #
b111010101000110 f
1$
#6000
bx L
bx Z
bx M
bx K
bx S
bx T
bx r
bx O
bx N
b100 +
bx '
bx 6
bx &
bx 5
bx )
bx 7
0(
b10 .
0$
#6500
0;
b1101101000000110 J
b111111111111111 Y
04
0?
b111111111111111 #
b111111111111111 f
b111111111111111 `
0b
1$
#7000
b10111010100010 Z
b10111010100010 L
b101110101000011 K
b101110101000011010100000 O
b1000001000 M
b101101111010100 N
b1111110111111000 S
b1010010000101100 T
b10111010100010 r
b101 +
b100 -
b1000001000 '
b1000001000 6
b101101111010100 &
b101101111010100 5
b10 )
b10 7
1(
b11 .
0$
#7500
1;
b1010111010100001 J
b10111010100010 X
b1000001000 r
b0 g
b1101 t
b111011000111110 a
b1111 s
b101011011101100 P
b10000 q
b101011011101100 n
b1101 p
b1110 o
b1000001000 m
b101101111010100 l
14
1?
0"
b0 d
b1000001000 ^
b101101111010100 \
1b
b10111010100010 ]
1$
#8000
b101000010001111 L
b1010111101110001 Z
b1010000100011110 K
b1111100111011010 S
b11000100110 M
b11010001101001 T
b101000010001111 r
b1010000100011110110010110 O
b11010001101001 N
b110 +
b101 -
b11000100110 '
b11000100110 6
b1100101110010111 &
b1100101110010111 5
0$
#8500
b10111101110000 3
b10111101110000 W
0C
0F
1V
b10010111101110000 J
b1010111101110001 X
b11000100110 r
b100000 g
b1101 t
b1010111001011100 a
b1111 s
b1101011001110101 P
b10000 q
b1101011001110101 n
b1010 p
b1011 o
b11000100110 m
b1100101110010111 l
b1010111101110001 ]
b10 d
b11000100110 ^
b1100101110010111 \
1"
1$
#9000
bx L
bx Z
bx K
bx N
bx S
bx O
bx M
bx T
bx r
b111 +
bx '
bx 6
bx &
bx 5
bx )
bx 7
0(
b100 .
0$
#9500
0;
b1101111011100001 3
b1101111011100001 W
04
0?
b1101111011100001 J
b10111101110000 Y
0b
b10111101110000 `
b10111101110000 #
b10111101110000 f
1$
#10000
b1001011001011 Z
b1001011001011 L
b10010110010110 K
b10010110010110000110000 O
b1010001100 M
b1110110000100 N
b1111110101110100 S
b1110001001111100 T
b1001011001011 r
b1000 +
b110 -
b1010001100 '
b1010001100 6
b1110110000100 &
b1110110000100 5
b10 )
b10 7
1(
b101 .
0$
#10500
1;
1F
b100001000111011 3
b100001000111011 W
0V
b100001000111011 J
b1001011001011 X
b1010001100 r
b0 g
b1101 t
b1001101000110 a
b1111 s
b1010000111100000 P
b10000 q
b1010000111100000 n
b1011 p
b1100 o
b1010001100 m
b1110110000100 l
14
1?
b1001011001011 ]
b0 d
b1010001100 ^
b1110110000100 \
1b
0"
1$
#11000
b111100011100110 Z
b111100011100110 L
b1111000111001011 K
b1111101101111110 S
b10010000010 M
b1001010010111001 T
b111100011100110 r
b1111000111001011000001110 O
b110101101000111 N
b1001 +
b111 -
b10010000010 '
b10010000010 6
b110101101000111 &
b110101101000111 5
0$
#11500
1C
b111111111111111 3
b111111111111111 W
b111100011100110 X
b10010000010 r
b10100 g
b1101 t
b101111011100100 a
b1111 s
b1000110111100011 P
b10000 q
b1000110111100011 n
b1100 p
b1101 o
b10010000010 m
b110101101000111 l
b1011101100100001 J
b100001000111011 Y
1"
b10 d
b10010000010 ^
b110101101000111 \
b100001000111011 `
b111100011100110 ]
b100001000111011 #
b100001000111011 f
1$
#12000
b1110001010000001 Z
b1110101111111 L
b11101011111101 K
b10110111010101 S
b10110111010101 M
b1111110101101101 T
b1110101111111 r
b11101011111101101001111 O
b1010010011 N
b1010 +
b1000 -
b1101001000101011 '
b1101001000101011 6
b1010010011 &
b1010010011 5
b110 .
0$
#12500
b110001010000000 3
b110001010000000 W
0C
0F
1V
b1110001010000001 X
b10110001010000000 J
b111111111111111 Y
b1101001000101011 r
b100100100 g
b1101 t
b1111011010 a
b1111 s
b1100100000001010 P
b10000 q
b1100100000001010 n
b111 p
b1000 o
b1101001000101011 m
b1010010011 l
b111111111111111 #
b111111111111111 f
b1110001010000001 ]
b111111111111111 `
b1101001000101011 ^
b1010010011 \
1$
#13000
b100110111010010 L
b100110111010010 Z
b1100011011101 M
b1001101110100011 K
b1100011011101 S
b110010000101 T
b100110111010010 r
b1001101110100011011010001 O
b110010000101 N
b1011 +
b1001 -
b1110011100100011 '
b1110011100100011 6
b1111001101111011 &
b1111001101111011 5
b111 .
0$
#13500
1C
1F
b111111111111111 3
b111111111111111 W
0V
b100110111010010 X
b1110011100100011 r
b10000 g
b1101 t
b1000101011000110 a
b1111 s
b1111101111001110 P
b10000 q
b1111101111001110 n
b110 p
b111 o
b1110011100100011 m
b1111001101111011 l
b1011000001010010 J
b110001010000000 Y
b1110011100100011 ^
b1111001101111011 \
b110001010000000 `
b100110111010010 ]
b110001010000000 #
b110001010000000 f
1$
#14000
bx L
bx K
bx Z
bx M
bx O
bx N
bx S
bx T
bx r
b1100 +
bx '
bx 6
bx &
bx 5
bx )
bx 7
0(
b1000 .
0$
#14500
0;
b1100110111010001 J
b111111111111111 Y
04
0?
b111111111111111 #
b111111111111111 f
b111111111111111 `
0b
1$
#15000
b1101 +
b1001 .
0$
#15500
0"
b0 d
1$
#16000
b1110 +
0$
#16500
1$
#17000
b1010011101010 Z
b1010011101010 L
b10100111010100 K
b10100111010100010011101 O
b1010100101111 M
b1111110011 N
b1010100101111 S
b1111110011 T
b1010011101010 r
b1111 +
b1010 -
b1110101011010001 '
b1110101011010001 6
b1111110000001101 &
b1111110000001101 5
b10 )
b10 7
1(
0$
#17500
1;
b1001010011101001 J
b1010011101010 X
b1110101011010001 r
b0 g
b1101 t
b1000001000001011 a
b1111 s
b1000011111100110 P
b10000 q
b1000011111100110 n
b110 p
b111 o
b1110101011010001 m
b1111110000001101 l
14
1?
b1110101011010001 ^
b1111110000001101 \
1b
b1010011101010 ]
1$
#18000
b100001011011011 L
b1000010110110101 K
b1011110100100101 Z
b10010010010111 M
b1000010110110101110011001 O
b11101001111 N
b10010010010111 S
b1111100010110001 T
b100001011011011 r
b10000 +
b1011 -
b1101101101101001 '
b1101101101101001 6
b11101001111 &
b11101001111 5
0$
#18500
b11110100100100 3
b11110100100100 W
0C
0F
1V
b10011110100100100 J
b1011110100100101 X
b1101101101101001 r
b1000000 g
b1101 t
b10011101000 a
b1111 s
b1101110000010011 P
b10000 q
b1101110000010011 n
b101 p
b110 o
b1101101101101001 m
b11101001111 l
b1011110100100101 ]
b10 d
b1101101101101001 ^
b11101001111 \
1"
1$
#19000
bx L
bx Z
bx M
bx K
bx S
bx T
bx r
bx O
bx N
b10001 +
bx '
bx 6
bx &
bx 5
bx )
bx 7
0(
b1010 .
0$
#19500
0;
b1111101001001001 3
b1111101001001001 W
04
0?
b1111101001001001 J
b11110100100100 Y
0b
b11110100100100 `
b11110100100100 #
b11110100100100 f
1$
#20000
b1011110101000110 Z
b100001010111010 L
b1000010101110011 K
b1000010101110011010000010 O
b11101011001101 M
b10010001010 N
b1100010100110011 S
b10010001010 T
b100001010111010 r
b10010 +
b1100 -
b11101011001101 '
b11101011001101 6
b1111101101110110 &
b1111101101110110 5
b10 )
b10 7
1(
b1011 .
0$
#20500
1;
b1111101001101010 3
b1111101001101010 W
b1111101001101010 J
b1011110101000110 X
b11101011001101 r
b10000000 g
b1101 t
b1000011011001101 a
b1111 s
b101011111101111 P
b10000 q
b101011111101111 n
b110 p
b111 o
b11101011001101 m
b1111101101110110 l
14
1?
b1011110101000110 ]
b0 d
b11101011001101 ^
b1111101101110110 \
1b
0"
1$
#21000
b1101111110111001 Z
b10000001000111 L
b100000010001101 K
b110000101 N
b1010101100001001 S
b100000010001101101010011 O
b101010011110111 M
b110000101 T
b10000001000111 r
b10011 +
b1101 -
b101010011110111 '
b101010011110111 6
b1111111001111011 &
b1111111001111011 5
0$
#21500
1F
b1101101000100011 3
b1101101000100011 W
1[
b1101111110111001 X
b101010011110111 r
b0 g
b1101 t
b1000000101000110 a
b1111 s
b1101110111111101 P
b10000 q
b1101110111111101 n
b101 p
b110 o
b101010011110111 m
b1111111001111011 l
b11101101000100011 J
b1111101001101010 Y
1"
b10 d
b101010011110111 ^
b1111111001111011 \
b1111101001101010 `
b1101111110111001 ]
b1111101001101010 #
b1111101001101010 f
1$
#22000
bx L
bx Z
bx K
bx N
bx S
bx O
bx M
bx T
bx r
b10100 +
bx '
bx 6
bx &
bx 5
bx )
bx 7
0(
b1100 .
0$
#22500
0;
b1011100111011100 3
b1011100111011100 W
b11011100111011100 J
b1101101000100011 Y
04
0?
b1101101000100011 #
b1101101000100011 f
b1101101000100011 `
0b
1$
#23000
b111011111011000 Z
b111011111011000 L
b1110111110101111 K
b1110111110101111000011000 O
b1010001101101 M
b1011101111000 N
b1010001101101 S
b1011101111000 T
b111011111011000 r
b10101 +
b1110 -
b1110101110010011 '
b1110101110010011 6
b1110100010001000 &
b1110100010001000 5
b10 )
b10 7
1(
b1101 .
0$
#23500
1;
0F
b101000111111011 3
b101000111111011 W
0V
b10101000111111011 J
b111011111011000 X
b1110101110010011 r
b1101 t
b1001110011001100 a
b1111 s
b1001111000010 P
b10000 q
b1001111000010 n
b101 p
b110 o
b1110101110010011 m
b1110100010001000 l
14
1?
0"
b0 d
b1110101110010011 ^
b1110100010001000 \
1b
b111011111011000 ]
1$
#24000
bx L
bx K
bx Z
bx M
bx O
bx N
bx S
bx T
bx r
b10110 +
bx '
bx 6
bx &
bx 5
bx )
bx 7
0(
0$
#24500
0;
1C
1F
b111111111111111 3
b111111111111111 W
0[
b1100100111010011 J
b101000111111011 Y
04
0?
b101000111111011 #
b101000111111011 f
b101000111111011 `
b10 d
0b
1"
1$
#25000
b1111011011011110 Z
b100100100010 L
b1001001000100 K
b1001001000100101011000 O
b101001000001100 M
b1110010 N
b101001000001100 S
b1111111110001110 T
b100100100010 r
b10111 +
b1111 -
b1010110111110100 '
b1010110111110100 6
b1110010 &
b1110010 5
b10 )
b10 7
1(
b1110 .
0$
#25500
1;
b100100011011001 3
b100100011011001 W
0C
0F
1V
b10100100011011001 J
b1111011011011110 X
b1010110111110100 r
b1101 t
b1001011 a
b1111 s
b111000000000010 P
b10000 q
b111000000000010 n
b101 p
b110 o
b1010110111110100 m
b1110010 l
14
1?
0"
b0 d
b1010110111110100 ^
b1110010 \
1b
b1111011011011110 ]
1$
#26000
bx L
bx Z
bx M
bx K
bx S
bx T
bx r
bx O
bx N
b11000 +
bx '
bx 6
bx &
bx 5
bx )
bx 7
0(
0$
#26500
0;
b11111110110111 3
b11111110110111 W
b10011111110110111 J
b100100011011001 Y
04
0?
b100100011011001 #
b100100011011001 f
b100100011011001 `
b10 d
0b
1"
1$
#27000
b1001000110000111 Z
b110111001111001 L
b1101110011110010 K
b1101110011110010001101110 O
b101110101101010 M
b10010111011 N
b1010001010010110 S
b10010111011 T
b110111001111001 r
b11001 +
b10000 -
b101110101101010 '
b101110101101010 6
b1111101101000101 &
b1111101101000101 5
b10 )
b10 7
1(
b1111 .
0$
#27500
1;
b1101101001100000 3
b1101101001100000 W
b1101101001100000 J
b1001000110000111 X
b101110101101010 r
b1000100001 g
b1101 t
b1000011011100111 a
b1111 s
b1101111110011 P
b10000 q
b1101111110011 n
b110 p
b111 o
b101110101101010 m
b1111101101000101 l
14
1?
0"
b0 d
b101110101101010 ^
b1111101101000101 \
1b
b1001000110000111 ]
1$
#28000
b100110111011111 L
b100110111011111 Z
b1001101110111101 K
b100110101000100 N
b10000001000 S
b1001101110111101000100000 O
b10000001000 M
b100110101000100 T
b100110111011111 r
b11010 +
b10001 -
b1111101111111000 '
b1111101111111000 6
b1011001010111100 &
b1011001010111100 5
0$
#28500
0C
0V
0F
b10100000111111 3
b10100000111111 W
b100110111011111 X
1[
b10010100000111111 J
b1101101001100000 Y
b1111101111111000 r
b10000 g
b1101 t
b1110101111100010 a
b1111 s
b1110101011010100 P
b10000 q
b1110101011010100 n
b11 p
b100 o
b1111101111111000 m
b1011001010111100 l
b1101101001100000 #
b1101101001100000 f
b100110111011111 ]
b1101101001100000 `
b10 d
b1111101111111000 ^
b1011001010111100 \
1"
1$
#29000
b1011101010100 L
b1110100010101100 Z
b10111010101000 K
b1110111000000 M
b10111010101000101000000 O
b1100100011 N
b1110001001000000 S
b1100100011 T
b1011101010100 r
b11011 +
b10010 -
b1110111000000 '
b1110111000000 6
b1111110011011101 &
b1111110011011101 5
b10000 .
0$
#29500
b1000011101011 3
b1000011101011 W
1V
0[
b1110100010101100 X
b1110111000000 r
b100010100 g
b1101 t
b1000001010110011 a
b1111 s
b1101111110011101 P
b10000 q
b1101111110011101 n
b1001 p
b1010 o
b1110111000000 m
b1111110011011101 l
b10001000011101011 J
b10100000111111 Y
b1110111000000 ^
b1111110011011101 \
b10100000111111 `
b1110100010101100 ]
b10100000111111 #
b10100000111111 f
1$
#30000
bx L
bx Z
bx K
bx N
bx S
bx O
bx M
bx T
bx r
b11100 +
bx '
bx 6
bx &
bx 5
bx )
bx 7
0(
b10001 .
0$
#30500
0;
b1111100110010111 3
b1111100110010111 W
b1111100110010111 J
b1000011101011 Y
04
0?
b1000011101011 #
b1000011101011 f
b1000011101011 `
0b
1$
#31000
b11101 +
b10010 .
0$
#31500
0"
b0 d
1$
#32000
b11110 +
0$
#32500
1$
#33000
b100000100011101 Z
b100000100011101 L
b1000001000111001 K
b1000001000111001010111000 O
b101110111100 M
b1011000110010 N
b1111010001000100 S
b1110100111001110 T
b100000100011101 r
b11111 +
b10011 -
b101110111100 '
b101110111100 6
b1011000110010 &
b1011000110010 5
b10 )
b10 7
1(
0$
#33500
1;
1F
b101001000001000 3
b101001000001000 W
0V
b101001000001000 J
b100000100011101 X
b101110111100 r
b0 g
b1101 t
b1110100101011 a
b1111 s
b11001000011010 P
b10000 q
b11001000011010 n
b111 p
b1000 o
b101110111100 m
b1011000110010 l
14
1?
b101110111100 ^
b1011000110010 \
1b
b100000100011101 ]
1$
#34000
bx L
bx Z
bx K
bx S
bx M
bx T
bx r
bx O
bx N
b100000 +
bx '
bx 6
bx &
bx 5
bx )
bx 7
0(
0$
#34500
0;
1C
b111111111111111 3
b111111111111111 W
b1001001100100101 J
b101001000001000 Y
04
0?
b101001000001000 #
b101001000001000 f
b101001000001000 `
b10 d
0b
1"
1$
#35000
b1101000111101110 Z
b10111000010010 L
b101110000100100 K
b101110000100100011010100 O
b110111001111100 M
b110101011 N
b110111001111100 S
b1111111001010101 T
b10111000010010 r
b100001 +
b10100 -
b1001000110000100 '
b1001000110000100 6
b110101011 &
b110101011 5
b10 )
b10 7
1(
b10011 .
0$
#35500
1;
b10001111110110 3
b10001111110110 W
0C
0F
1V
b10010001111110110 J
b1101000111101110 X
b1001000110000100 r
b1001000000 g
b1101 t
b101111110 a
b1111 s
b110000000010111 P
b10000 q
b110000000010111 n
b1010 p
b1011 o
b1001000110000100 m
b110101011 l
14
1?
0"
b0 d
b1001000110000100 ^
b110101011 \
1b
b1101000111101110 ]
1$
#36000
b1111010101001 Z
b1111010101001 L
b100001001 M
b11110101010010 K
b1111111011110111 S
b1000100110000110 T
b1111010101001 r
b11110101010010001001010 O
b111011001111010 N
b100010 +
b10101 -
b100001001 '
b100001001 6
b111011001111010 &
b111011001111010 5
0$
#36500
1F
0V
b100001010011111 3
b100001010011111 W
b1111010101001 X
b100001010011111 J
b10001111110110 Y
b100001001 r
b0 g
b1101 t
b100110101000111 a
b1111 s
b100111011011101 P
b10000 q
b100111011011101 n
b1100 p
b1101 o
b100001001 m
b111011001111010 l
b10001111110110 #
b10001111110110 f
b1111010101001 ]
b10001111110110 `
b10 d
b100001001 ^
b111011001111010 \
1"
1$
#37000
b101111111000111 Z
b1010000000111001 L
b10100000001110010 K
b1010011011011 S
b1010011011011 M
b1110000101000101 T
b1010000000111001 r
b10100000001110010111111001 O
b1111010111011 N
b100011 +
b10110 -
b1110101100100101 '
b1110101100100101 6
b1111010111011 &
b1111010111011 5
b10100 .
0$
#37500
1C
b111111111111111 3
b111111111111111 W
b101111111000111 X
b1110101100100101 r
b10010 g
b1101 t
b1000111100110 a
b1111 s
b1010110001110111 P
b10000 q
b1010110001110111 n
b110 p
b111 o
b1110101100100101 m
b1111010111011 l
b1010001001100110 J
b100001010011111 Y
b1110101100100101 ^
b1111010111011 \
b100001010011111 `
b101111111000111 ]
b100001010011111 #
b100001010011111 f
1$
#38000
b1000000111111 L
b1000000111111 Z
b1011000000 M
b10000001111101 K
b1011000000 S
b1011110100001 T
b1000000111111 r
b10000001111101011000000 O
b1011110100001 N
b100100 +
b10111 -
b1111110101000000 '
b1111110101000000 6
b1110100001011111 &
b1110100001011111 5
b10101 .
0$
#38500
b1000000111111 X
b1001000000111110 J
b111111111111111 Y
b1111110101000000 r
b11 g
b1101 t
b1001110001110000 a
b1111 s
b1001011100011111 P
b10000 q
b1001011100011111 n
b111 p
b1000 o
b1111110101000000 m
b1110100001011111 l
b111111111111111 #
b111111111111111 f
b1000000111111 ]
b111111111111111 `
b1111110101000000 ^
b1110100001011111 \
1$
#39000
bx L
bx K
bx Z
bx M
bx O
bx N
bx S
bx T
bx r
b100101 +
bx '
bx 6
bx &
bx 5
bx )
bx 7
0(
b10110 .
0$
#39500
0;
04
0?
0b
1$
#40000
b101011110110010 Z
b101011110110010 L
b1010111101100100 K
b1010111101100100101111111 O
b101011101001 M
b10000000100111 N
b101011101001 S
b10000000100111 T
b101011110110010 r
b100110 +
b11000 -
b1111010100010111 '
b1111010100010111 6
b1101111111011001 &
b1101111111011001 5
b10 )
b10 7
1(
b10111 .
0$
#40500
1;
b1101011110110001 J
b101011110110010 X
b1111010100010111 r
b100000000000 g
b1101 t
b1011000000110101 a
b1111 s
b1001111011111101 P
b10000 q
b1001111011111101 n
b101 p
b110 o
b1111010100010111 m
b1101111111011001 l
14
1?
b101011110110010 ]
b0 d
b1111010100010111 ^
b1101111111011001 \
1b
0"
1$
#41000
b100011110101001 Z
b100011110101001 L
b1000111101010010 K
b101010110010 M
b1000111101010010010001010 O
b1101011001101 N
b1111010101001110 S
b1110010100110011 T
b100011110101001 r
b100111 +
b11001 -
b101010110010 '
b101010110010 6
b1101011001101 &
b1101011001101 5
0$
#41500
b1100011110101000 J
b100011110101001 X
b101010110010 r
b10000000 g
b1101 t
b1011110101011 a
b1111 s
b1110001001111 P
b10000 q
b1110001001111 n
b1001 p
b1010 o
b101010110010 m
b1101011001101 l
1"
b10 d
b101010110010 ^
b1101011001101 \
b100011110101001 ]
1$
#42000
bx L
bx Z
bx K
bx S
bx M
bx T
bx r
bx O
bx N
b101000 +
bx '
bx 6
bx &
bx 5
bx )
bx 7
0(
b11000 .
0$
#42500
0;
04
0?
0b
1$
#43000
b101110000111110 Z
b1010001111000010 L
b10100011110000100 K
b10100011110000100100010000 O
b11100011011 M
b101110000110000 N
b11100011011 S
b1010001111010000 T
b1010001111000010 r
b101001 +
b11010 -
b1111100011100101 '
b1111100011100101 6
b101110000110000 &
b101110000110000 5
b10 )
b10 7
1(
b11001 .
0$
#43500
1;
b1101110000111101 J
b101110000111110 X
b1111100011100101 r
b1000000100000 g
b1101 t
b111001000101000 a
b1111 s
b10011010100100 P
b10000 q
b10011010100100 n
b101 p
b110 o
b1111100011100101 m
b101110000110000 l
14
1?
0"
b0 d
b1111100011100101 ^
b101110000110000 \
1b
b101110000111110 ]
1$
#44000
b1100110001110110 Z
b1100110001110110 L
b101100111101 M
b11001100011101100 K
b1111010011000011 S
b1011011100111010 T
b1100110001110110 r
b11001100011101100100101110 O
b100100011000110 N
b101010 +
b11011 -
b101100111101 '
b101100111101 6
b100100011000110 &
b100100011000110 5
0$
#44500
b100110001110101 3
b100110001110101 W
0C
0F
1V
b10100110001110101 J
b1100110001110110 X
b101100111101 r
b100000 g
b1101 t
b110110010100101 a
b1111 s
b100000101000111 P
b10000 q
b100000101000111 n
b111 p
b1000 o
b101100111101 m
b100100011000110 l
b1100110001110110 ]
b10 d
b101100111101 ^
b100100011000110 \
1"
1$
#45000
b101010010001010 Z
b1010101101110110 L
b10101011011101100 K
b1010100101010 S
b1010100101010 M
b1101111110011000 T
b1010101101110110 r
b10101011011101100100010000 O
b10000001101000 N
b101011 +
b11100 -
b1110101011010110 '
b1110101011010110 6
b10000001101000 &
b10000001101000 5
b11010 .
0$
#45500
1C
1F
b111111111111111 3
b111111111111111 W
0V
b101010010001010 X
b1110101011010110 r
b100 g
b1101 t
b11000001011100 a
b1111 s
b1000100000110 P
b10000 q
b1000100000110 n
b101 p
b110 o
b1110101011010110 m
b10000001101000 l
b1010000011111111 J
b100110001110101 Y
b1110101011010110 ^
b10000001101000 \
b100110001110101 `
b101010010001010 ]
b100110001110101 #
b100110001110101 f
1$
#46000
bx L
bx Z
bx M
bx K
bx S
bx T
bx r
bx O
bx N
b101100 +
bx '
bx 6
bx &
bx 5
bx )
bx 7
0(
b11011 .
0$
#46500
0;
b1101010010001001 J
b111111111111111 Y
04
0?
b111111111111111 #
b111111111111111 f
b111111111111111 `
0b
1$
#47000
b1110000101000001 Z
b1111010111111 L
b11110101111101 K
b11110101111101101101000 O
b11001000100010 M
b1001110100 N
b1100110111011110 S
b1001110100 T
b1111010111111 r
b101101 +
b11101 -
b11001000100010 '
b11001000100010 6
b1111110110001100 &
b1111110110001100 5
b10 )
b10 7
1(
b11100 .
0$
#47500
1;
b110000101000000 3
b110000101000000 W
0C
0F
1V
b10110000101000000 J
b1110000101000001 X
b11001000100010 r
b10 g
b1101 t
b1000001101001010 a
b1111 s
b1111111100110 P
b10000 q
b1111111100110 n
b1010 p
b1011 o
b11001000100010 m
b1111110110001100 l
14
1?
0"
b0 d
b11001000100010 ^
b1111110110001100 \
1b
b1110000101000001 ]
1$
#48000
b1110000011011001 Z
b1111100100111 L
b11111001001101 K
b110001000 N
b101000101100000 S
b11111001001101100000000 O
b101000101100000 M
b1111111001111000 T
b1111100100111 r
b101110 +
b11110 -
b1010111010100000 '
b1010111010100000 6
b110001000 &
b110001000 5
0$
